sim.vcd
$date
	Tue May  3 22:55:59 2022
$end
$version
	Icarus Verilog
$end
$timescale
	10ps
$end
$scope module riscv_tb $end
$var reg 1 ! clk $end
$var reg 1 " rstn $end
$var integer 32 # i [31:0] $end
$scope module my_cpu $end
$var wire 32 $ IF_PC [31:0] $end
$var wire 1 ! clk $end
$var wire 1 " rstn $end
$var wire 32 % alu_in_2 [31:0] $end
$var wire 32 & alu_in_1 [31:0] $end
$var wire 32 ' WB_tmp_write_data [31:0] $end
$var wire 1 ( WB_regwrite $end
$var wire 32 ) WB_readdata [31:0] $end
$var wire 5 * WB_rd [4:0] $end
$var wire 7 + WB_opcode [6:0] $end
$var wire 1 , WB_memtoreg $end
$var wire 2 - WB_jump [1:0] $end
$var wire 32 . WB_alu_result [31:0] $end
$var wire 32 / WB_PC_PLUS_4 [31:0] $end
$var wire 32 0 NEXT_PC [31:0] $end
$var wire 32 1 MEM_writedata [31:0] $end
$var wire 1 2 MEM_taken $end
$var wire 1 3 MEM_regwrite $end
$var wire 5 4 MEM_rd [4:0] $end
$var wire 7 5 MEM_opcode [6:0] $end
$var wire 1 6 MEM_memwrite $end
$var wire 1 7 MEM_memtoreg $end
$var wire 1 8 MEM_memread $end
$var wire 32 9 MEM_mem_read_data [31:0] $end
$var wire 2 : MEM_jump [1:0] $end
$var wire 3 ; MEM_funct3 [2:0] $end
$var wire 32 < MEM_alu_result [31:0] $end
$var wire 32 = MEM_PC_target [31:0] $end
$var wire 32 > MEM_PC_PLUS_4 [31:0] $end
$var wire 32 ? IF_instruction_tmp [31:0] $end
$var wire 32 @ IF_instruction [31:0] $end
$var wire 1 A IF_flush $end
$var wire 32 B IF_PC_PLUS_4 [31:0] $end
$var wire 32 C ID_sextimm [31:0] $end
$var wire 5 D ID_rs2 [4:0] $end
$var wire 5 E ID_rs1 [4:0] $end
$var wire 1 F ID_reg_write_tmp $end
$var wire 1 G ID_reg_write $end
$var wire 32 H ID_readdata2 [31:0] $end
$var wire 32 I ID_readdata1 [31:0] $end
$var wire 5 J ID_rd [4:0] $end
$var wire 7 K ID_opcode [6:0] $end
$var wire 1 L ID_mem_write_tmp $end
$var wire 1 M ID_mem_write $end
$var wire 1 N ID_mem_to_reg $end
$var wire 1 O ID_mem_read $end
$var wire 2 P ID_jump [1:0] $end
$var wire 32 Q ID_instruction [31:0] $end
$var wire 7 R ID_funct7 [6:0] $end
$var wire 3 S ID_funct3 [2:0] $end
$var wire 1 T ID_flush $end
$var wire 1 U ID_branch $end
$var wire 1 V ID_alu_src $end
$var wire 2 W ID_alu_op [1:0] $end
$var wire 32 X ID_PC_PLUS_4 [31:0] $end
$var wire 32 Y ID_PC [31:0] $end
$var wire 1 Z EX_taken $end
$var wire 32 [ EX_sextimm [31:0] $end
$var wire 5 \ EX_rs2 [4:0] $end
$var wire 5 ] EX_rs1 [4:0] $end
$var wire 1 ^ EX_regwrite $end
$var wire 32 _ EX_readdata2 [31:0] $end
$var wire 32 ` EX_readdata1 [31:0] $end
$var wire 5 a EX_rd [4:0] $end
$var wire 7 b EX_opcode [6:0] $end
$var wire 1 c EX_memwrite $end
$var wire 1 d EX_memtoreg $end
$var wire 1 e EX_memread $end
$var wire 2 f EX_jump [1:0] $end
$var wire 7 g EX_funct7 [6:0] $end
$var wire 3 h EX_funct3 [2:0] $end
$var wire 1 i EX_check $end
$var wire 1 j EX_branch $end
$var wire 1 k EX_alusrc $end
$var wire 2 l EX_aluop [1:0] $end
$var wire 32 m EX_PC_branch_target [31:0] $end
$var wire 32 n EX_PC_PLUS_4 [31:0] $end
$var wire 32 o EX_PC [31:0] $end
$var wire 2 p EX_ForwardB [1:0] $end
$var wire 2 q EX_ForwardA [1:0] $end
$var wire 32 r EX_ALU_result [31:0] $end
$var wire 32 s EX_ALU_in [31:0] $end
$var wire 4 t EX_ALU_func [3:0] $end
$var reg 32 u PC [31:0] $end
$var reg 32 v WB_write_data [31:0] $end
$var reg 2 w maskmode [1:0] $end
$var reg 1 x sext $end
$scope module alu_in_1_mux $end
$var wire 2 y select [1:0] $end
$var wire 32 z in3 [31:0] $end
$var wire 32 { in2 [31:0] $end
$var wire 32 | in1 [31:0] $end
$var reg 32 } out [31:0] $end
$upscope $end
$scope module alu_in_2_mux $end
$var wire 2 ~ select [1:0] $end
$var wire 32 !" in3 [31:0] $end
$var wire 32 "" in2 [31:0] $end
$var wire 32 #" in1 [31:0] $end
$var reg 32 $" out [31:0] $end
$upscope $end
$scope module m_alu $end
$var wire 32 %" in_a [31:0] $end
$var wire 32 &" in_b [31:0] $end
$var wire 4 '" alu_func [3:0] $end
$var reg 1 i check $end
$var reg 32 (" result [31:0] $end
$upscope $end
$scope module m_alu_control $end
$var wire 7 )" funct7 [6:0] $end
$var wire 3 *" funct3 [2:0] $end
$var wire 4 +" funct [3:0] $end
$var wire 2 ," alu_op [1:0] $end
$var reg 4 -" alu_func [3:0] $end
$upscope $end
$scope module m_alu_mux $end
$var wire 1 k select $end
$var wire 32 ." in2 [31:0] $end
$var wire 32 /" in1 [31:0] $end
$var reg 32 0" out [31:0] $end
$upscope $end
$scope module m_branch_control $end
$var wire 1 i check $end
$var wire 1 j branch $end
$var reg 1 Z taken $end
$upscope $end
$scope module m_branch_target_adder $end
$var wire 32 1" in_b [31:0] $end
$var wire 32 2" in_a [31:0] $end
$var reg 32 3" result [31:0] $end
$upscope $end
$scope module m_control $end
$var wire 7 4" opcode [6:0] $end
$var wire 1 F reg_write $end
$var wire 1 L mem_write $end
$var wire 1 N mem_to_reg $end
$var wire 1 O mem_read $end
$var wire 2 5" jump [1:0] $end
$var wire 1 T id_flush $end
$var wire 1 U branch $end
$var wire 1 V alu_src $end
$var wire 2 6" alu_op [1:0] $end
$var reg 10 7" controls [9:0] $end
$upscope $end
$scope module m_data_memory $end
$var wire 1 ! clk $end
$var wire 2 8" maskmode [1:0] $end
$var wire 1 x sext $end
$var wire 32 9" write_data [31:0] $end
$var wire 1 6 mem_write $end
$var wire 1 8 mem_read $end
$var wire 8 :" address_internal [7:0] $end
$var wire 32 ;" address [31:0] $end
$var reg 32 <" read_data [31:0] $end
$upscope $end
$scope module m_exmem_reg $end
$var wire 1 ! clk $end
$var wire 32 =" ex_alu_result [31:0] $end
$var wire 32 >" ex_pc_target [31:0] $end
$var wire 1 Z ex_taken $end
$var wire 32 ?" ex_writedata [31:0] $end
$var wire 1 ^ ex_regwrite $end
$var wire 5 @" ex_rd [4:0] $end
$var wire 32 A" ex_pc_plus_4 [31:0] $end
$var wire 7 B" ex_opcode [6:0] $end
$var wire 1 c ex_memwrite $end
$var wire 1 d ex_memtoreg $end
$var wire 1 e ex_memread $end
$var wire 2 C" ex_jump [1:0] $end
$var wire 3 D" ex_funct3 [2:0] $end
$var reg 32 E" mem_alu_result [31:0] $end
$var reg 3 F" mem_funct3 [2:0] $end
$var reg 2 G" mem_jump [1:0] $end
$var reg 1 8 mem_memread $end
$var reg 1 7 mem_memtoreg $end
$var reg 1 6 mem_memwrite $end
$var reg 7 H" mem_opcode [6:0] $end
$var reg 32 I" mem_pc_plus_4 [31:0] $end
$var reg 32 J" mem_pc_target [31:0] $end
$var reg 5 K" mem_rd [4:0] $end
$var reg 1 3 mem_regwrite $end
$var reg 1 2 mem_taken $end
$var reg 32 L" mem_writedata [31:0] $end
$upscope $end
$scope module m_forwarding $end
$var wire 7 M" mem_opcode [6:0] $end
$var wire 5 N" mem_rd [4:0] $end
$var wire 5 O" wb_rd [4:0] $end
$var wire 7 P" wb_opcode [6:0] $end
$var wire 5 Q" ex_rs2 [4:0] $end
$var wire 5 R" ex_rs1 [4:0] $end
$var reg 2 S" forwardA [1:0] $end
$var reg 2 T" forwardB [1:0] $end
$upscope $end
$scope module m_hazard $end
$var wire 32 U" ex_alu_result [31:0] $end
$var wire 1 Z ex_branch_taken $end
$var wire 32 V" ex_branch_target [31:0] $end
$var wire 1 L id_mem_write $end
$var wire 1 F id_reg_write $end
$var wire 1 A if_flush $end
$var wire 32 W" if_pc_plus_4 [31:0] $end
$var wire 32 X" if_instruction [31:0] $end
$var wire 2 Y" ex_jump [1:0] $end
$var reg 32 Z" NEXT_PC [31:0] $end
$var reg 1 M id_mem_write_real $end
$var reg 1 G id_reg_write_real $end
$var reg 1 [" if_flush_tmp $end
$var reg 32 \" if_instruction_real [31:0] $end
$upscope $end
$scope module m_idex_reg $end
$var wire 1 ! clk $end
$var wire 2 ]" id_aluop [1:0] $end
$var wire 1 V id_alusrc $end
$var wire 1 U id_branch $end
$var wire 3 ^" id_funct3 [2:0] $end
$var wire 7 _" id_funct7 [6:0] $end
$var wire 2 `" id_jump [1:0] $end
$var wire 1 O id_memread $end
$var wire 1 N id_memtoreg $end
$var wire 1 M id_memwrite $end
$var wire 7 a" id_opcode [6:0] $end
$var wire 5 b" id_rd [4:0] $end
$var wire 1 G id_regwrite $end
$var wire 5 c" id_rs1 [4:0] $end
$var wire 5 d" id_rs2 [4:0] $end
$var wire 32 e" id_sextimm [31:0] $end
$var wire 32 f" id_readdata2 [31:0] $end
$var wire 32 g" id_readdata1 [31:0] $end
$var wire 32 h" id_pc_plus_4 [31:0] $end
$var wire 32 i" id_PC [31:0] $end
$var reg 32 j" ex_PC [31:0] $end
$var reg 2 k" ex_aluop [1:0] $end
$var reg 1 k ex_alusrc $end
$var reg 1 j ex_branch $end
$var reg 3 l" ex_funct3 [2:0] $end
$var reg 7 m" ex_funct7 [6:0] $end
$var reg 2 n" ex_jump [1:0] $end
$var reg 1 e ex_memread $end
$var reg 1 d ex_memtoreg $end
$var reg 1 c ex_memwrite $end
$var reg 7 o" ex_opcode [6:0] $end
$var reg 32 p" ex_pc_plus_4 [31:0] $end
$var reg 5 q" ex_rd [4:0] $end
$var reg 32 r" ex_readdata1 [31:0] $end
$var reg 32 s" ex_readdata2 [31:0] $end
$var reg 1 ^ ex_regwrite $end
$var reg 5 t" ex_rs1 [4:0] $end
$var reg 5 u" ex_rs2 [4:0] $end
$var reg 32 v" ex_sextimm [31:0] $end
$upscope $end
$scope module m_ifid_reg $end
$var wire 1 ! clk $end
$var wire 32 w" if_PC [31:0] $end
$var wire 1 A if_flush $end
$var wire 32 x" if_instruction [31:0] $end
$var wire 32 y" if_pc_plus_4 [31:0] $end
$var reg 32 z" id_PC [31:0] $end
$var reg 1 T id_flush $end
$var reg 32 {" id_instruction [31:0] $end
$var reg 32 |" id_pc_plus_4 [31:0] $end
$upscope $end
$scope module m_immediate_generator $end
$var wire 32 }" instruction [31:0] $end
$var wire 7 ~" opcode [6:0] $end
$var reg 32 !# sextimm [31:0] $end
$upscope $end
$scope module m_instruction_memory $end
$var wire 32 "# address [31:0] $end
$var reg 32 ## instruction [31:0] $end
$upscope $end
$scope module m_memwb_reg $end
$var wire 1 ! clk $end
$var wire 32 $# mem_alu_result [31:0] $end
$var wire 2 %# mem_jump [1:0] $end
$var wire 1 7 mem_memtoreg $end
$var wire 7 &# mem_opcode [6:0] $end
$var wire 32 '# mem_pc_plus_4 [31:0] $end
$var wire 5 (# mem_rd [4:0] $end
$var wire 32 )# mem_readdata [31:0] $end
$var wire 1 3 mem_regwrite $end
$var reg 32 *# wb_alu_result [31:0] $end
$var reg 2 +# wb_jump [1:0] $end
$var reg 1 , wb_memtoreg $end
$var reg 7 ,# wb_opcode [6:0] $end
$var reg 32 -# wb_pc_plus_4 [31:0] $end
$var reg 5 .# wb_rd [4:0] $end
$var reg 32 /# wb_readdata [31:0] $end
$var reg 1 ( wb_regwrite $end
$upscope $end
$scope module m_mux_2x1 $end
$var wire 32 0# in1 [31:0] $end
$var wire 32 1# in2 [31:0] $end
$var wire 1 , select $end
$var reg 32 2# out [31:0] $end
$upscope $end
$scope module m_pc_plus_4_adder $end
$var wire 32 3# in_a [31:0] $end
$var wire 32 4# in_b [31:0] $end
$var reg 32 5# result [31:0] $end
$upscope $end
$scope module m_register_file $end
$var wire 1 ! clk $end
$var wire 32 6# readdata1 [31:0] $end
$var wire 32 7# readdata2 [31:0] $end
$var wire 5 8# readreg1 [4:0] $end
$var wire 5 9# readreg2 [4:0] $end
$var wire 1 ( wen $end
$var wire 32 :# writedata [31:0] $end
$var wire 5 ;# writereg [4:0] $end
$upscope $end
$upscope $end
$upscope $end
$enddefinitions $end
#0
$dumpvars
bx ;#
bx :#
bx 9#
bx 8#
bx 7#
bx 6#
bx 5#
bx 4#
b100 3#
bx 2#
bx 1#
bx 0#
bx /#
bx .#
bx -#
bx ,#
bx +#
bx *#
b0 )#
bx (#
bx '#
bx &#
bx %#
bx $#
bx ##
bx "#
bx !#
bx ~"
bx }"
bx |"
bx {"
bx z"
bx y"
bx x"
bx w"
bx v"
bx u"
bx t"
bx s"
bx r"
bx q"
bx p"
bx o"
bx n"
bx m"
bx l"
bx k"
bx j"
bx i"
bx h"
bx g"
bx f"
bx e"
bx d"
bx c"
bx b"
bx a"
bx `"
bx _"
bx ^"
bx ]"
bx \"
x["
bx Z"
bx Y"
bx X"
bx W"
bx V"
bx U"
bx T"
bx S"
bx R"
bx Q"
bx P"
bx O"
bx N"
bx M"
bx L"
bx K"
bx J"
bx I"
bx H"
bx G"
bx F"
bx E"
bx D"
bx C"
bx B"
bx A"
bx @"
bx ?"
bx >"
bx ="
b0 <"
bx ;"
bx :"
bx 9"
bx 8"
bx 7"
bx 6"
bx 5"
bx 4"
bx 3"
bx 2"
bx 1"
bx 0"
bx /"
bx ."
bx -"
bx ,"
bx +"
bx *"
bx )"
bx ("
bx '"
bx &"
bx %"
bx $"
bx #"
bx ""
bx !"
bx ~
bx }
bx |
bx {
bx z
bx y
xx
bx w
bx v
bx u
bx t
bx s
bx r
bx q
bx p
bx o
bx n
bx m
bx l
xk
xj
xi
bx h
bx g
bx f
xe
xd
xc
bx b
bx a
bx `
bx _
x^
bx ]
bx \
bx [
xZ
bx Y
bx X
bx W
xV
xU
xT
bx S
bx R
bx Q
bx P
xO
xN
xM
xL
bx K
bx J
bx I
bx H
xG
xF
bx E
bx D
bx C
bx B
xA
bx @
bx ?
bx >
bx =
bx <
bx ;
bx :
b0 9
x8
x7
x6
bx 5
bx 4
x3
x2
bx 1
bx 0
bx /
bx .
bx -
x,
bx +
bx *
bx )
x(
bx '
bx &
bx %
bx $
bx #
0"
0!
$end
#500
0A
0["
b100 0
b100 Z"
b0 @
b0 \"
b0 x"
b0 '
b0 2#
b0 ?
b0 X"
b0 ##
b100 B
b100 W"
b100 y"
b100 5#
b0 )
b0 /#
b0 1#
b0 $
b0 w"
b0 u
b0 "#
b0 4#
1!
#1000
0!
#1500
0G
0M
b0 P
b0 5"
b0 `"
0U
0O
0N
b0 W
b0 6"
b0 ]"
0L
0V
0F
b0 7"
b0 C
b0 e"
b0 !#
b0 ~"
b0 J
b0 b"
b0 H
b0 f"
b0 7#
b0 D
b0 d"
b0 9#
b0 I
b0 g"
b0 6#
b0 E
b0 c"
b0 8#
b0 S
b0 ^"
b0 R
b0 _"
b0 K
b0 4"
b0 a"
0T
b0 Q
b0 {"
b0 }"
b100 X
b100 h"
b100 |"
b0 Y
b0 i"
b0 z"
1!
#2000
0!
#2500
b0 r
b0 ("
b0 ="
b0 U"
1i
b0 &
b0 }
b0 %"
b0 %
b0 $"
b0 &"
b0 p
b0 ~
b0 T"
b0 q
b0 y
b0 S"
b0 s
b0 #"
b0 0"
b0 t
b0 '"
b0 -"
0Z
b0 m
b0 3"
b0 >"
b0 V"
b0 b
b0 B"
b0 o"
b0 a
b0 @"
b0 q"
b0 \
b0 Q"
b0 u"
b0 ]
b0 R"
b0 t"
b0 _
b0 /"
b0 ?"
b0 s"
b0 `
b0 |
b0 r"
b0 +"
b0 h
b0 *"
b0 D"
b0 l"
b0 g
b0 )"
b0 m"
b0 [
b0 ."
b0 1"
b0 v"
0^
0d
0c
0e
b0 f
b0 C"
b0 Y"
b0 n"
0k
b0 l
b0 ,"
b0 k"
0j
b100 n
b100 A"
b100 p"
b0 o
b0 2"
b0 j"
1!
#3000
0!
#3500
0x
b0 w
b0 8"
b0 :"
b0 5
b0 H"
b0 M"
b0 &#
b0 4
b0 K"
b0 N"
b0 (#
b0 ;
b0 F"
b0 1
b0 9"
b0 L"
b0 <
b0 {
b0 ""
b0 ;"
b0 E"
b0 $#
03
07
b0 :
b0 G"
b0 %#
06
08
02
b0 =
b0 J"
b100 >
b100 I"
b100 '#
1!
#4000
0!
#4500
b0 v
b0 :#
b0 *
b0 O"
b0 .#
b0 ;#
b0 .
b0 z
b0 !"
b0 *#
b0 0#
0(
0,
b0 -
b0 +#
b100 /
b100 -#
1!
#5000
0!
#5500
1!
#6000
0!
1"
#6500
b1000 0
b1000 Z"
b1000001000100000110011 @
b1000001000100000110011 \"
b1000001000100000110011 x"
b1000001000100000110011 ?
b1000001000100000110011 X"
b1000001000100000110011 ##
b1000 B
b1000 W"
b1000 y"
b1000 5#
b100 $
b100 w"
b100 u
b100 "#
b100 4#
1!
#7000
0!
#7500
1G
b10 W
b10 6"
b10 ]"
1F
b1100 0
b1100 Z"
b110000000100010110011 @
b110000000100010110011 \"
b110000000100010110011 x"
b10001 7"
b110000000100010110011 ?
b110000000100010110011 X"
b110000000100010110011 ##
b1100 B
b1100 W"
b1100 y"
b1100 5#
b110011 ~"
b10000 J
b10000 b"
b10 H
b10 f"
b10 7#
b10 D
b10 d"
b10 9#
b1 I
b1 g"
b1 6#
b1 E
b1 c"
b1 8#
b110011 K
b110011 4"
b110011 a"
b1000 $
b1000 w"
b1000 u
b1000 "#
b1000 4#
b1000001000100000110011 Q
b1000001000100000110011 {"
b1000001000100000110011 }"
b1000 X
b1000 h"
b1000 |"
b100 Y
b100 i"
b100 z"
1!
#8000
0!
#8500
b10 %
b10 $"
b10 &"
0i
b11 r
b11 ("
b11 ="
b11 U"
b10000 0
b10000 Z"
b1100010000100000110011 @
b1100010000100000110011 \"
b1100010000100000110011 x"
b10001 J
b10001 b"
b1 H
b1 f"
b1 7#
b1 D
b1 d"
b1 9#
b0 I
b0 g"
b0 6#
b10000 E
b10000 c"
b10000 8#
b10 s
b10 #"
b10 0"
b1 &
b1 }
b1 %"
b100 m
b100 3"
b100 >"
b100 V"
b1100010000100000110011 ?
b1100010000100000110011 X"
b1100010000100000110011 ##
b10000 B
b10000 W"
b10000 y"
b10000 5#
b110000000100010110011 Q
b110000000100010110011 {"
b110000000100010110011 }"
b1100 X
b1100 h"
b1100 |"
b1000 Y
b1000 i"
b1000 z"
b110011 b
b110011 B"
b110011 o"
b10000 a
b10000 @"
b10000 q"
b10 \
b10 Q"
b10 u"
b1 ]
b1 R"
b1 t"
b10 _
b10 /"
b10 ?"
b10 s"
b1 `
b1 |
b1 r"
1^
b10 l
b10 ,"
b10 k"
b1000 n
b1000 A"
b1000 p"
b100 o
b100 2"
b100 j"
b1100 $
b1100 w"
b1100 u
b1100 "#
b1100 4#
1!
#9000
0!
#9500
b100 r
b100 ("
b100 ="
b100 U"
b10100 0
b10100 Z"
b10100100000100000110011 @
b10100100000100000110011 \"
b10100100000100000110011 x"
b10100100000100000110011 ?
b10100100000100000110011 X"
b10100100000100000110011 ##
b10100 B
b10100 W"
b10100 y"
b10100 5#
b1 %
b1 $"
b1 &"
b1 q
b1 y
b1 S"
b1 s
b1 #"
b1 0"
b11 &
b11 }
b11 %"
b1000 m
b1000 3"
b1000 >"
b1000 V"
b10000 J
b10000 b"
b11 H
b11 f"
b11 7#
b11 D
b11 d"
b11 9#
b10 I
b10 g"
b10 6#
b10 E
b10 c"
b10 8#
b10000 $
b10000 w"
b10000 u
b10000 "#
b10000 4#
b110011 5
b110011 H"
b110011 M"
b110011 &#
b10000 4
b10000 K"
b10000 N"
b10000 (#
b10 1
b10 9"
b10 L"
b11 <
b11 {
b11 ""
b11 ;"
b11 E"
b11 $#
13
b100 =
b100 J"
b1000 >
b1000 I"
b1000 '#
b10001 a
b10001 @"
b10001 q"
b1 \
b1 Q"
b1 u"
b10000 ]
b10000 R"
b10000 t"
b1 _
b1 /"
b1 ?"
b1 s"
b0 `
b0 |
b0 r"
b1100 n
b1100 A"
b1100 p"
b1000 o
b1000 2"
b1000 j"
b1100010000100000110011 Q
b1100010000100000110011 {"
b1100010000100000110011 }"
b10000 X
b10000 h"
b10000 |"
b1100 Y
b1100 i"
b1100 z"
1!
#10000
0!
#10500
b11 %
b11 $"
b11 &"
b101 r
b101 ("
b101 ="
b101 U"
b11 v
b11 :#
b11000 0
b11000 Z"
b111100100010000000100011 @
b111100100010000000100011 \"
b111100100010000000100011 x"
b101 H
b101 f"
b101 7#
b101 D
b101 d"
b101 9#
b100 I
b100 g"
b100 6#
b100 E
b100 c"
b100 8#
b11 s
b11 #"
b11 0"
b1100 m
b1100 3"
b1100 >"
b1100 V"
b1 :"
b0 q
b0 y
b0 S"
b10 &
b10 }
b10 %"
b11 '
b11 2#
b111100100010000000100011 ?
b111100100010000000100011 X"
b111100100010000000100011 ##
b11000 B
b11000 W"
b11000 y"
b11000 5#
b10100100000100000110011 Q
b10100100000100000110011 {"
b10100100000100000110011 }"
b10100 X
b10100 h"
b10100 |"
b10000 Y
b10000 i"
b10000 z"
b10000 a
b10000 @"
b10000 q"
b11 \
b11 Q"
b11 u"
b10 ]
b10 R"
b10 t"
b11 _
b11 /"
b11 ?"
b11 s"
b10 `
b10 |
b10 r"
b10000 n
b10000 A"
b10000 p"
b1100 o
b1100 2"
b1100 j"
b10001 4
b10001 K"
b10001 N"
b10001 (#
b1 1
b1 9"
b1 L"
b100 <
b100 {
b100 ""
b100 ;"
b100 E"
b100 $#
b1000 =
b1000 J"
b1100 >
b1100 I"
b1100 '#
b10000 *
b10000 O"
b10000 .#
b10000 ;#
b11 .
b11 z
b11 !"
b11 *#
b11 0#
1(
b1000 /
b1000 -#
b10100 $
b10100 w"
b10100 u
b10100 "#
b10100 4#
1!
#11000
0!
#11500
0G
1M
b0 W
b0 6"
b0 ]"
1L
1V
0F
b100 v
b100 :#
b1001 r
b1001 ("
b1001 ="
b1001 U"
b11100 0
b11100 Z"
b100001000010000000100011 @
b100001000010000000100011 \"
b100001000010000000100011 x"
b110 7"
b100001000010000000100011 ?
b100001000010000000100011 X"
b100001000010000000100011 ##
b11100 B
b11100 W"
b11100 y"
b11100 5#
b100 '
b100 2#
b101 %
b101 $"
b101 &"
b101 s
b101 #"
b101 0"
b100 &
b100 }
b100 %"
b10000 m
b10000 3"
b10000 >"
b10000 V"
b100011 ~"
b0 J
b0 b"
b1111 H
b1111 f"
b1111 7#
b1111 D
b1111 d"
b1111 9#
b10 S
b10 ^"
b100011 K
b100011 4"
b100011 a"
b11000 $
b11000 w"
b11000 u
b11000 "#
b11000 4#
b10001 *
b10001 O"
b10001 .#
b10001 ;#
b100 .
b100 z
b100 !"
b100 *#
b100 0#
b1100 /
b1100 -#
b10000 4
b10000 K"
b10000 N"
b10000 (#
b11 1
b11 9"
b11 L"
b101 <
b101 {
b101 ""
b101 ;"
b101 E"
b101 $#
b1100 =
b1100 J"
b10000 >
b10000 I"
b10000 '#
b101 \
b101 Q"
b101 u"
b100 ]
b100 R"
b100 t"
b101 _
b101 /"
b101 ?"
b101 s"
b100 `
b100 |
b100 r"
b10100 n
b10100 A"
b10100 p"
b10000 o
b10000 2"
b10000 j"
b111100100010000000100011 Q
b111100100010000000100011 {"
b111100100010000000100011 }"
b11000 X
b11000 h"
b11000 |"
b10100 Y
b10100 i"
b10100 z"
1!
#12000
0!
#12500
b100 r
b100 ("
b100 ="
b100 U"
b0 %
b0 $"
b0 &"
b101 v
b101 :#
b100000 0
b100000 Z"
b100010100100000011 @
b100010100100000011 \"
b100010100100000011 x"
b1000 H
b1000 f"
b1000 7#
b1000 D
b1000 d"
b1000 9#
b1000 I
b1000 g"
b1000 6#
b1000 E
b1000 c"
b1000 8#
b0 s
b0 #"
b0 0"
b10100 m
b10100 3"
b10100 >"
b10100 V"
b10 :"
b101 '
b101 2#
b100010100100000011 ?
b100010100100000011 X"
b100010100100000011 ##
b100000 B
b100000 W"
b100000 y"
b100000 5#
b100001000010000000100011 Q
b100001000010000000100011 {"
b100001000010000000100011 }"
b11100 X
b11100 h"
b11100 |"
b11000 Y
b11000 i"
b11000 z"
b100011 b
b100011 B"
b100011 o"
b0 a
b0 @"
b0 q"
b1111 \
b1111 Q"
b1111 u"
b1111 _
b1111 /"
b1111 ?"
b1111 s"
b10 +"
b10 h
b10 *"
b10 D"
b10 l"
0^
1c
1k
b0 l
b0 ,"
b0 k"
b11000 n
b11000 A"
b11000 p"
b10100 o
b10100 2"
b10100 j"
b101 1
b101 9"
b101 L"
b1001 <
b1001 {
b1001 ""
b1001 ;"
b1001 E"
b1001 $#
b10000 =
b10000 J"
b10100 >
b10100 I"
b10100 '#
b10000 *
b10000 O"
b10000 .#
b10000 ;#
b101 .
b101 z
b101 !"
b101 *#
b101 0#
b10000 /
b10000 -#
b11100 $
b11100 w"
b11100 u
b11100 "#
b11100 4#
1!
#13000
0!
#13500
1G
0M
1O
1N
0L
1F
b1001 v
b1001 :#
b1000 r
b1000 ("
b1000 ="
b1000 U"
b100100 0
b100100 Z"
b110010000100110110011 @
b110010000100110110011 \"
b110010000100110110011 x"
b1100011 7"
b110010000100110110011 ?
b110010000100110110011 X"
b110010000100110110011 ##
b100100 B
b100100 W"
b100100 y"
b100100 5#
b1001 '
b1001 2#
b10 w
b10 8"
b1 :"
b1000 &
b1000 }
b1000 %"
b11000 m
b11000 3"
b11000 >"
b11000 V"
b11 ~"
b10010 J
b10010 b"
b0 H
b0 f"
b0 7#
b0 D
b0 d"
b0 9#
b100 I
b100 g"
b100 6#
b100 E
b100 c"
b100 8#
b11 K
b11 4"
b11 a"
b100000 $
b100000 w"
b100000 u
b100000 "#
b100000 4#
b1001 .
b1001 z
b1001 !"
b1001 *#
b1001 0#
b10100 /
b10100 -#
b100011 5
b100011 H"
b100011 M"
b100011 &#
b0 4
b0 K"
b0 N"
b0 (#
b10 ;
b10 F"
b1111 1
b1111 9"
b1111 L"
b100 <
b100 {
b100 ""
b100 ;"
b100 E"
b100 $#
03
16
b10100 =
b10100 J"
b11000 >
b11000 I"
b11000 '#
b1000 \
b1000 Q"
b1000 u"
b1000 ]
b1000 R"
b1000 t"
b1000 _
b1000 /"
b1000 ?"
b1000 s"
b1000 `
b1000 |
b1000 r"
b11100 n
b11100 A"
b11100 p"
b11000 o
b11000 2"
b11000 j"
b100010100100000011 Q
b100010100100000011 {"
b100010100100000011 }"
b100000 X
b100000 h"
b100000 |"
b11100 Y
b11100 i"
b11100 z"
1!
#14000
0!
#14500
0O
0N
b10 W
b10 6"
b10 ]"
0V
b10001 7"
b100 r
b100 ("
b100 ="
b100 U"
b100 v
b100 :#
b101000 0
b101000 Z"
b110010000101000110011 @
b110010000101000110011 \"
b110010000101000110011 x"
b110011 ~"
b10011 J
b10011 b"
b1 H
b1 f"
b1 7#
b1 D
b1 d"
b1 9#
b0 I
b0 g"
b0 6#
b10010 E
b10010 c"
b10010 8#
b0 S
b0 ^"
b110011 K
b110011 4"
b110011 a"
b11100 m
b11100 3"
b11100 >"
b11100 V"
b10 :"
b100 &
b100 }
b100 %"
b100 '
b100 2#
b110010000101000110011 ?
b110010000101000110011 X"
b110010000101000110011 ##
b101000 B
b101000 W"
b101000 y"
b101000 5#
b110010000100110110011 Q
b110010000100110110011 {"
b110010000100110110011 }"
b100100 X
b100100 h"
b100100 |"
b100000 Y
b100000 i"
b100000 z"
b11 b
b11 B"
b11 o"
b10010 a
b10010 @"
b10010 q"
b0 \
b0 Q"
b0 u"
b100 ]
b100 R"
b100 t"
b0 _
b0 /"
b0 ?"
b0 s"
b100 `
b100 |
b100 r"
1^
1d
0c
1e
b100000 n
b100000 A"
b100000 p"
b11100 o
b11100 2"
b11100 j"
b1000 1
b1000 9"
b1000 L"
b1000 <
b1000 {
b1000 ""
b1000 ;"
b1000 E"
b1000 $#
b11000 =
b11000 J"
b11100 >
b11100 I"
b11100 '#
b0 *
b0 O"
b0 .#
b0 ;#
b100 .
b100 z
b100 !"
b100 *#
b100 0#
0(
b11000 /
b11000 -#
b100100 $
b100100 w"
b100100 u
b100100 "#
b100100 4#
1!
#15000
0!
#15500
b1000 v
b1000 :#
b1 r
b1 ("
b1 ="
b1 U"
b101100 0
b101100 Z"
b100010101010000011 @
b100010101010000011 \"
b100010101010000011 x"
b100010101010000011 ?
b100010101010000011 X"
b100010101010000011 ##
b101100 B
b101100 W"
b101100 y"
b101100 5#
b1000 '
b1000 2#
b1 :"
b1 %
b1 $"
b1 &"
b1111 9
b1111 <"
b1111 )#
b0 &
b0 }
b0 %"
b1 s
b1 #"
b1 0"
b100000 m
b100000 3"
b100000 >"
b100000 V"
b10100 J
b10100 b"
b101000 $
b101000 w"
b101000 u
b101000 "#
b101000 4#
b1000 .
b1000 z
b1000 !"
b1000 *#
b1000 0#
b11100 /
b11100 -#
b11 5
b11 H"
b11 M"
b11 &#
b10010 4
b10010 K"
b10010 N"
b10010 (#
b0 1
b0 9"
b0 L"
b100 <
b100 {
b100 ""
b100 ;"
b100 E"
b100 $#
13
17
06
18
b11100 =
b11100 J"
b100000 >
b100000 I"
b100000 '#
b110011 b
b110011 B"
b110011 o"
b10011 a
b10011 @"
b10011 q"
b1 \
b1 Q"
b1 u"
b10010 ]
b10010 R"
b10010 t"
b1 _
b1 /"
b1 ?"
b1 s"
b0 `
b0 |
b0 r"
b0 +"
b0 h
b0 *"
b0 D"
b0 l"
0d
0e
0k
b10 l
b10 ,"
b10 k"
b100100 n
b100100 A"
b100100 p"
b100000 o
b100000 2"
b100000 j"
b110010000101000110011 Q
b110010000101000110011 {"
b110010000101000110011 }"
b101000 X
b101000 h"
b101000 |"
b100100 Y
b100100 i"
b100100 z"
1!
