sim.vcd
$date
	Mon May  2 15:17:04 2022
$end
$version
	Icarus Verilog
$end
$timescale
	10ps
$end
$scope module riscv_tb $end
$var reg 1 ! clk $end
$var reg 1 " rstn $end
$var integer 32 # i [31:0] $end
$scope module my_cpu $end
$var wire 32 $ IF_PC [31:0] $end
$var wire 32 % NEXT_PC [31:0] $end
$var wire 1 ! clk $end
$var wire 1 " rstn $end
$var wire 7 & opcode [6:0] $end
$var wire 32 ' WB_tmp_write_data [31:0] $end
$var wire 1 ( WB_regwrite $end
$var wire 32 ) WB_readdata [31:0] $end
$var wire 5 * WB_rd [4:0] $end
$var wire 1 + WB_memtoreg $end
$var wire 2 , WB_jump [1:0] $end
$var wire 32 - WB_alu_result [31:0] $end
$var wire 32 . WB_PC_PLUS_4 [31:0] $end
$var wire 32 / MEM_writedata [31:0] $end
$var wire 1 0 MEM_taken $end
$var wire 1 1 MEM_regwrite $end
$var wire 5 2 MEM_rd [4:0] $end
$var wire 1 3 MEM_memwrite $end
$var wire 1 4 MEM_memtoreg $end
$var wire 1 5 MEM_memread $end
$var wire 32 6 MEM_mem_read_data [31:0] $end
$var wire 2 7 MEM_jump [1:0] $end
$var wire 3 8 MEM_funct3 [2:0] $end
$var wire 32 9 MEM_alu_result [31:0] $end
$var wire 32 : MEM_PC_target [31:0] $end
$var wire 32 ; MEM_PC_PLUS_4 [31:0] $end
$var wire 32 < IF_instruction [31:0] $end
$var wire 32 = IF_PC_PLUS_4 [31:0] $end
$var wire 32 > ID_sextimm [31:0] $end
$var wire 5 ? ID_rs2 [4:0] $end
$var wire 5 @ ID_rs1 [4:0] $end
$var wire 1 A ID_reg_write $end
$var wire 32 B ID_readdata2 [31:0] $end
$var wire 32 C ID_readdata1 [31:0] $end
$var wire 5 D ID_rd [4:0] $end
$var wire 1 E ID_mem_write $end
$var wire 1 F ID_mem_to_reg $end
$var wire 1 G ID_mem_read $end
$var wire 2 H ID_jump [1:0] $end
$var wire 32 I ID_instruction [31:0] $end
$var wire 7 J ID_funct7 [6:0] $end
$var wire 3 K ID_funct3 [2:0] $end
$var wire 1 L ID_branch $end
$var wire 1 M ID_alu_src $end
$var wire 2 N ID_alu_op [1:0] $end
$var wire 32 O ID_PC_PLUS_4 [31:0] $end
$var wire 32 P ID_PC [31:0] $end
$var wire 1 Q EX_taken $end
$var wire 32 R EX_sextimm [31:0] $end
$var wire 5 S EX_rs2 [4:0] $end
$var wire 5 T EX_rs1 [4:0] $end
$var wire 1 U EX_regwrite $end
$var wire 32 V EX_readdata2 [31:0] $end
$var wire 32 W EX_readdata1 [31:0] $end
$var wire 5 X EX_rd [4:0] $end
$var wire 1 Y EX_memwrite $end
$var wire 1 Z EX_memtoreg $end
$var wire 1 [ EX_memread $end
$var wire 2 \ EX_jump [1:0] $end
$var wire 7 ] EX_funct7 [6:0] $end
$var wire 3 ^ EX_funct3 [2:0] $end
$var wire 1 _ EX_check $end
$var wire 1 ` EX_branch $end
$var wire 1 a EX_alusrc $end
$var wire 2 b EX_aluop [1:0] $end
$var wire 32 c EX_PC_branch_target [31:0] $end
$var wire 32 d EX_PC_PLUS_4 [31:0] $end
$var wire 32 e EX_PC [31:0] $end
$var wire 32 f EX_ALU_result [31:0] $end
$var wire 32 g EX_ALU_in [31:0] $end
$var wire 4 h EX_ALU_func [3:0] $end
$var reg 32 i PC [31:0] $end
$var reg 32 j WB_write_data [31:0] $end
$var reg 2 k maskmode [1:0] $end
$var reg 1 l sext $end
$scope module m_alu $end
$var wire 32 m in_b [31:0] $end
$var wire 32 n in_a [31:0] $end
$var wire 4 o alu_func [3:0] $end
$var reg 1 _ check $end
$var reg 32 p result [31:0] $end
$upscope $end
$scope module m_alu_control $end
$var wire 7 q funct7 [6:0] $end
$var wire 3 r funct3 [2:0] $end
$var wire 4 s funct [3:0] $end
$var wire 2 t alu_op [1:0] $end
$var reg 4 u alu_func [3:0] $end
$upscope $end
$scope module m_alu_mux $end
$var wire 1 a select $end
$var wire 32 v in2 [31:0] $end
$var wire 32 w in1 [31:0] $end
$var reg 32 x out [31:0] $end
$upscope $end
$scope module m_branch_control $end
$var wire 1 _ check $end
$var wire 1 ` branch $end
$var reg 1 Q taken $end
$upscope $end
$scope module m_branch_target_adder $end
$var wire 32 y in_b [31:0] $end
$var wire 32 z in_a [31:0] $end
$var reg 32 { result [31:0] $end
$upscope $end
$scope module m_control $end
$var wire 7 | opcode [6:0] $end
$var wire 1 A reg_write $end
$var wire 1 E mem_write $end
$var wire 1 F mem_to_reg $end
$var wire 1 G mem_read $end
$var wire 2 } jump [1:0] $end
$var wire 1 L branch $end
$var wire 1 M alu_src $end
$var wire 2 ~ alu_op [1:0] $end
$var reg 10 !" controls [9:0] $end
$upscope $end
$scope module m_data_memory $end
$var wire 1 ! clk $end
$var wire 2 "" maskmode [1:0] $end
$var wire 1 l sext $end
$var wire 32 #" write_data [31:0] $end
$var wire 1 3 mem_write $end
$var wire 1 5 mem_read $end
$var wire 8 $" address_internal [7:0] $end
$var wire 32 %" address [31:0] $end
$var reg 32 &" read_data [31:0] $end
$upscope $end
$scope module m_exmem_reg $end
$var wire 1 ! clk $end
$var wire 32 '" ex_alu_result [31:0] $end
$var wire 32 (" ex_pc_target [31:0] $end
$var wire 1 Q ex_taken $end
$var wire 32 )" ex_writedata [31:0] $end
$var wire 1 U ex_regwrite $end
$var wire 5 *" ex_rd [4:0] $end
$var wire 32 +" ex_pc_plus_4 [31:0] $end
$var wire 1 Y ex_memwrite $end
$var wire 1 Z ex_memtoreg $end
$var wire 1 [ ex_memread $end
$var wire 2 ," ex_jump [1:0] $end
$var wire 3 -" ex_funct3 [2:0] $end
$var reg 32 ." mem_alu_result [31:0] $end
$var reg 3 /" mem_funct3 [2:0] $end
$var reg 2 0" mem_jump [1:0] $end
$var reg 1 5 mem_memread $end
$var reg 1 4 mem_memtoreg $end
$var reg 1 3 mem_memwrite $end
$var reg 32 1" mem_pc_plus_4 [31:0] $end
$var reg 32 2" mem_pc_target [31:0] $end
$var reg 5 3" mem_rd [4:0] $end
$var reg 1 1 mem_regwrite $end
$var reg 1 0 mem_taken $end
$var reg 32 4" mem_writedata [31:0] $end
$upscope $end
$scope module m_forwarding $end
$upscope $end
$scope module m_hazard $end
$upscope $end
$scope module m_idex_reg $end
$var wire 1 ! clk $end
$var wire 2 5" id_aluop [1:0] $end
$var wire 1 M id_alusrc $end
$var wire 1 L id_branch $end
$var wire 3 6" id_funct3 [2:0] $end
$var wire 7 7" id_funct7 [6:0] $end
$var wire 2 8" id_jump [1:0] $end
$var wire 1 G id_memread $end
$var wire 1 F id_memtoreg $end
$var wire 1 E id_memwrite $end
$var wire 5 9" id_rd [4:0] $end
$var wire 1 A id_regwrite $end
$var wire 5 :" id_rs1 [4:0] $end
$var wire 5 ;" id_rs2 [4:0] $end
$var wire 32 <" id_sextimm [31:0] $end
$var wire 32 =" id_readdata2 [31:0] $end
$var wire 32 >" id_readdata1 [31:0] $end
$var wire 32 ?" id_pc_plus_4 [31:0] $end
$var wire 32 @" id_PC [31:0] $end
$var reg 32 A" ex_PC [31:0] $end
$var reg 2 B" ex_aluop [1:0] $end
$var reg 1 a ex_alusrc $end
$var reg 1 ` ex_branch $end
$var reg 3 C" ex_funct3 [2:0] $end
$var reg 7 D" ex_funct7 [6:0] $end
$var reg 2 E" ex_jump [1:0] $end
$var reg 1 [ ex_memread $end
$var reg 1 Z ex_memtoreg $end
$var reg 1 Y ex_memwrite $end
$var reg 32 F" ex_pc_plus_4 [31:0] $end
$var reg 5 G" ex_rd [4:0] $end
$var reg 32 H" ex_readdata1 [31:0] $end
$var reg 32 I" ex_readdata2 [31:0] $end
$var reg 1 U ex_regwrite $end
$var reg 5 J" ex_rs1 [4:0] $end
$var reg 5 K" ex_rs2 [4:0] $end
$var reg 32 L" ex_sextimm [31:0] $end
$upscope $end
$scope module m_ifid_reg $end
$var wire 1 ! clk $end
$var wire 32 M" if_PC [31:0] $end
$var wire 32 N" if_pc_plus_4 [31:0] $end
$var wire 32 O" if_instruction [31:0] $end
$var reg 32 P" id_PC [31:0] $end
$var reg 32 Q" id_instruction [31:0] $end
$var reg 32 R" id_pc_plus_4 [31:0] $end
$upscope $end
$scope module m_immediate_generator $end
$var wire 32 S" instruction [31:0] $end
$var wire 7 T" opcode [6:0] $end
$var reg 32 U" sextimm [31:0] $end
$upscope $end
$scope module m_instruction_memory $end
$var wire 32 V" address [31:0] $end
$var reg 32 W" instruction [31:0] $end
$upscope $end
$scope module m_memwb_reg $end
$var wire 1 ! clk $end
$var wire 32 X" mem_alu_result [31:0] $end
$var wire 2 Y" mem_jump [1:0] $end
$var wire 1 4 mem_memtoreg $end
$var wire 32 Z" mem_pc_plus_4 [31:0] $end
$var wire 5 [" mem_rd [4:0] $end
$var wire 32 \" mem_readdata [31:0] $end
$var wire 1 1 mem_regwrite $end
$var reg 32 ]" wb_alu_result [31:0] $end
$var reg 2 ^" wb_jump [1:0] $end
$var reg 1 + wb_memtoreg $end
$var reg 32 _" wb_pc_plus_4 [31:0] $end
$var reg 5 `" wb_rd [4:0] $end
$var reg 32 a" wb_readdata [31:0] $end
$var reg 1 ( wb_regwrite $end
$upscope $end
$scope module m_mux_2x1 $end
$var wire 32 b" in1 [31:0] $end
$var wire 32 c" in2 [31:0] $end
$var wire 1 + select $end
$var reg 32 d" out [31:0] $end
$upscope $end
$scope module m_pc_plus_4_adder $end
$var wire 32 e" in_a [31:0] $end
$var wire 32 f" in_b [31:0] $end
$var reg 32 g" result [31:0] $end
$upscope $end
$scope module m_register_file $end
$var wire 1 ! clk $end
$var wire 32 h" readdata1 [31:0] $end
$var wire 32 i" readdata2 [31:0] $end
$var wire 5 j" readreg1 [4:0] $end
$var wire 5 k" readreg2 [4:0] $end
$var wire 1 ( wen $end
$var wire 32 l" writedata [31:0] $end
$var wire 5 m" writereg [4:0] $end
$upscope $end
$upscope $end
$upscope $end
$enddefinitions $end
#0
$dumpvars
bx m"
bx l"
bx k"
bx j"
bx i"
bx h"
bx g"
bx f"
b100 e"
bx d"
bx c"
bx b"
bx a"
bx `"
bx _"
bx ^"
bx ]"
b0 \"
bx ["
bx Z"
bx Y"
bx X"
bx W"
bx V"
bx U"
bx T"
bx S"
bx R"
bx Q"
bx P"
bx O"
bx N"
bx M"
bx L"
bx K"
bx J"
bx I"
bx H"
bx G"
bx F"
bx E"
bx D"
bx C"
bx B"
bx A"
bx @"
bx ?"
bx >"
bx ="
bx <"
bx ;"
bx :"
bx 9"
bx 8"
bx 7"
bx 6"
bx 5"
bx 4"
bx 3"
bx 2"
bx 1"
bx 0"
bx /"
bx ."
bx -"
bx ,"
bx +"
bx *"
bx )"
bx ("
bx '"
b0 &"
bx %"
bx $"
bx #"
bx ""
bx !"
bx ~
bx }
bx |
bx {
bx z
bx y
bx x
bx w
bx v
bx u
bx t
bx s
bx r
bx q
bx p
bx o
bx n
bx m
xl
bx k
bx j
bx i
bx h
bx g
bx f
bx e
bx d
bx c
bx b
xa
x`
x_
bx ^
bx ]
bx \
x[
xZ
xY
bx X
bx W
bx V
xU
bx T
bx S
bx R
xQ
bx P
bx O
bx N
xM
xL
bx K
bx J
bx I
bx H
xG
xF
xE
bx D
bx C
bx B
xA
bx @
bx ?
bx >
bx =
bx <
bx ;
bx :
bx 9
bx 8
bx 7
b0 6
x5
x4
x3
bx 2
x1
x0
bx /
bx .
bx -
bx ,
x+
bx *
bx )
x(
bx '
bx &
bx %
bx $
bx #
0"
0!
$end
#500
b0 '
b0 d"
b0 <
b0 O"
b0 W"
b100 %
b100 =
b100 N"
b100 g"
b0 )
b0 a"
b0 c"
b0 $
b0 M"
b0 i
b0 V"
b0 f"
1!
#1000
0!
#1500
b0 H
b0 }
b0 8"
0L
0G
0F
b0 N
b0 ~
b0 5"
0E
0M
0A
b0 !"
b0 >
b0 <"
b0 U"
b0 T"
b0 D
b0 9"
b0 B
b0 ="
b0 i"
b0 ?
b0 ;"
b0 k"
b0 C
b0 >"
b0 h"
b0 @
b0 :"
b0 j"
b0 K
b0 6"
b0 J
b0 7"
b0 &
b0 |
b0 I
b0 Q"
b0 S"
b100 O
b100 ?"
b100 R"
b0 P
b0 @"
b0 P"
1!
#2000
0!
#2500
1_
b0 f
b0 p
b0 '"
b0 j
b0 l"
b0 g
b0 m
b0 x
b0 h
b0 o
b0 u
0Q
b0 c
b0 {
b0 ("
b0 X
b0 *"
b0 G"
b0 S
b0 K"
b0 T
b0 J"
b0 V
b0 w
b0 )"
b0 I"
b0 W
b0 n
b0 H"
b0 s
b0 ^
b0 r
b0 -"
b0 C"
b0 ]
b0 q
b0 D"
b0 R
b0 v
b0 y
b0 L"
0U
0Z
0Y
0[
b0 \
b0 ,"
b0 E"
0a
b0 b
b0 t
b0 B"
0`
b100 d
b100 +"
b100 F"
b0 e
b0 z
b0 A"
1!
#3000
0!
#3500
0l
b0 k
b0 ""
b0 $"
b0 2
b0 3"
b0 ["
b0 8
b0 /"
b0 /
b0 #"
b0 4"
b0 9
b0 %"
b0 ."
b0 X"
01
04
b0 7
b0 0"
b0 Y"
03
05
00
b0 :
b0 2"
b100 ;
b100 1"
b100 Z"
1!
#4000
0!
#4500
b0 *
b0 `"
b0 m"
b0 -
b0 ]"
b0 b"
0(
0+
b0 ,
b0 ^"
b100 .
b100 _"
1!
#5000
0!
#5500
1!
#6000
0!
1"
#6500
b1000001000100000110011 <
b1000001000100000110011 O"
b1000001000100000110011 W"
b1000 %
b1000 =
b1000 N"
b1000 g"
b100 $
b100 M"
b100 i
b100 V"
b100 f"
1!
#7000
0!
#7500
b10 N
b10 ~
b10 5"
1A
b10001 !"
b110000000100010110011 <
b110000000100010110011 O"
b110000000100010110011 W"
b1100 %
b1100 =
b1100 N"
b1100 g"
b110011 T"
b10000 D
b10000 9"
b10 B
b10 ="
b10 i"
b10 ?
b10 ;"
b10 k"
b1 C
b1 >"
b1 h"
b1 @
b1 :"
b1 j"
b110011 &
b110011 |
b1000 $
b1000 M"
b1000 i
b1000 V"
b1000 f"
b1000001000100000110011 I
b1000001000100000110011 Q"
b1000001000100000110011 S"
b1000 O
b1000 ?"
b1000 R"
b100 P
b100 @"
b100 P"
1!
#8000
0!
#8500
b10001 D
b10001 9"
b1 B
b1 ="
b1 i"
b1 ?
b1 ;"
b1 k"
b0 C
b0 >"
b0 h"
b10000 @
b10000 :"
b10000 j"
b10 g
b10 m
b10 x
b11 f
b11 p
b11 '"
0_
b100 c
b100 {
b100 ("
b1100010000100000110011 <
b1100010000100000110011 O"
b1100010000100000110011 W"
b10000 %
b10000 =
b10000 N"
b10000 g"
b110000000100010110011 I
b110000000100010110011 Q"
b110000000100010110011 S"
b1100 O
b1100 ?"
b1100 R"
b1000 P
b1000 @"
b1000 P"
b10000 X
b10000 *"
b10000 G"
b10 S
b10 K"
b1 T
b1 J"
b10 V
b10 w
b10 )"
b10 I"
b1 W
b1 n
b1 H"
1U
b10 b
b10 t
b10 B"
b1000 d
b1000 +"
b1000 F"
b100 e
b100 z
b100 A"
b1100 $
b1100 M"
b1100 i
b1100 V"
b1100 f"
1!
#9000
0!
#9500
b10100100000100000110011 <
b10100100000100000110011 O"
b10100100000100000110011 W"
b10100 %
b10100 =
b10100 N"
b10100 g"
b1 g
b1 m
b1 x
b1 f
b1 p
b1 '"
b1000 c
b1000 {
b1000 ("
b10000 D
b10000 9"
b11 B
b11 ="
b11 i"
b11 ?
b11 ;"
b11 k"
b10 C
b10 >"
b10 h"
b10 @
b10 :"
b10 j"
b10000 $
b10000 M"
b10000 i
b10000 V"
b10000 f"
b10000 2
b10000 3"
b10000 ["
b10 /
b10 #"
b10 4"
b11 9
b11 %"
b11 ."
b11 X"
11
b100 :
b100 2"
b1000 ;
b1000 1"
b1000 Z"
b10001 X
b10001 *"
b10001 G"
b1 S
b1 K"
b10000 T
b10000 J"
b1 V
b1 w
b1 )"
b1 I"
b0 W
b0 n
b0 H"
b1100 d
b1100 +"
b1100 F"
b1000 e
b1000 z
b1000 A"
b1100010000100000110011 I
b1100010000100000110011 Q"
b1100010000100000110011 S"
b10000 O
b10000 ?"
b10000 R"
b1100 P
b1100 @"
b1100 P"
1!
#10000
0!
#10500
b11 j
b11 l"
b101 B
b101 ="
b101 i"
b101 ?
b101 ;"
b101 k"
b100 C
b100 >"
b100 h"
b100 @
b100 :"
b100 j"
b11 g
b11 m
b11 x
b101 f
b101 p
b101 '"
b1100 c
b1100 {
b1100 ("
b11 '
b11 d"
b110010000100110110011 <
b110010000100110110011 O"
b110010000100110110011 W"
b11000 %
b11000 =
b11000 N"
b11000 g"
b10100100000100000110011 I
b10100100000100000110011 Q"
b10100100000100000110011 S"
b10100 O
b10100 ?"
b10100 R"
b10000 P
b10000 @"
b10000 P"
b10000 X
b10000 *"
b10000 G"
b11 S
b11 K"
b10 T
b10 J"
b11 V
b11 w
b11 )"
b11 I"
b10 W
b10 n
b10 H"
b10000 d
b10000 +"
b10000 F"
b1100 e
b1100 z
b1100 A"
b10001 2
b10001 3"
b10001 ["
b1 /
b1 #"
b1 4"
b1 9
b1 %"
b1 ."
b1 X"
b1000 :
b1000 2"
b1100 ;
b1100 1"
b1100 Z"
b10000 *
b10000 `"
b10000 m"
b11 -
b11 ]"
b11 b"
1(
b1000 .
b1000 _"
b10100 $
b10100 M"
b10100 i
b10100 V"
b10100 f"
1!
#11000
0!
#11500
b1 j
b1 l"
b110010000101000110011 <
b110010000101000110011 O"
b110010000101000110011 W"
b11100 %
b11100 =
b11100 N"
b11100 g"
b1 '
b1 d"
b1 $"
b101 g
b101 m
b101 x
b1001 f
b1001 p
b1001 '"
b10000 c
b10000 {
b10000 ("
b10011 D
b10011 9"
b1 B
b1 ="
b1 i"
b1 ?
b1 ;"
b1 k"
b0 C
b0 >"
b0 h"
b10010 @
b10010 :"
b10010 j"
b11000 $
b11000 M"
b11000 i
b11000 V"
b11000 f"
b10001 *
b10001 `"
b10001 m"
b1 -
b1 ]"
b1 b"
b1100 .
b1100 _"
b10000 2
b10000 3"
b10000 ["
b11 /
b11 #"
b11 4"
b101 9
b101 %"
b101 ."
b101 X"
b1100 :
b1100 2"
b10000 ;
b10000 1"
b10000 Z"
b101 S
b101 K"
b100 T
b100 J"
b101 V
b101 w
b101 )"
b101 I"
b100 W
b100 n
b100 H"
b10100 d
b10100 +"
b10100 F"
b10000 e
b10000 z
b10000 A"
b110010000100110110011 I
b110010000100110110011 Q"
b110010000100110110011 S"
b11000 O
b11000 ?"
b11000 R"
b10100 P
b10100 @"
b10100 P"
1!
#12000
0!
#12500
b101 j
b101 l"
b10100 D
b10100 9"
b1 g
b1 m
b1 x
b1 f
b1 p
b1 '"
b10100 c
b10100 {
b10100 ("
b10 $"
b101 '
b101 d"
b100010101010000011 <
b100010101010000011 O"
b100010101010000011 W"
b100000 %
b100000 =
b100000 N"
b100000 g"
b110010000101000110011 I
b110010000101000110011 Q"
b110010000101000110011 S"
b11100 O
b11100 ?"
b11100 R"
b11000 P
b11000 @"
b11000 P"
b10011 X
b10011 *"
b10011 G"
b1 S
b1 K"
b10010 T
b10010 J"
b1 V
b1 w
b1 )"
b1 I"
b0 W
b0 n
b0 H"
b11000 d
b11000 +"
b11000 F"
b10100 e
b10100 z
b10100 A"
b101 /
b101 #"
b101 4"
b1001 9
b1001 %"
b1001 ."
b1001 X"
b10000 :
b10000 2"
b10100 ;
b10100 1"
b10100 Z"
b10000 *
b10000 `"
b10000 m"
b101 -
b101 ]"
b101 b"
b10000 .
b10000 _"
b11100 $
b11100 M"
b11100 i
b11100 V"
b11100 f"
1!
#13000
0!
#13500
1G
1F
b0 N
b0 ~
b0 5"
1M
b1001 j
b1001 l"
b1100011 !"
b1000001000101100110011 <
b1000001000101100110011 O"
b1000001000101100110011 W"
b100100 %
b100100 =
b100100 N"
b100100 g"
b1001 '
b1001 d"
b0 $"
b11000 c
b11000 {
b11000 ("
b11 T"
b10101 D
b10101 9"
b0 B
b0 ="
b0 i"
b0 ?
b0 ;"
b0 k"
b100 C
b100 >"
b100 h"
b100 @
b100 :"
b100 j"
b10 K
b10 6"
b11 &
b11 |
b100000 $
b100000 M"
b100000 i
b100000 V"
b100000 f"
b1001 -
b1001 ]"
b1001 b"
b10100 .
b10100 _"
b10011 2
b10011 3"
b10011 ["
b1 /
b1 #"
b1 4"
b1 9
b1 %"
b1 ."
b1 X"
b10100 :
b10100 2"
b11000 ;
b11000 1"
b11000 Z"
b10100 X
b10100 *"
b10100 G"
b11100 d
b11100 +"
b11100 F"
b11000 e
b11000 z
b11000 A"
b100010101010000011 I
b100010101010000011 Q"
b100010101010000011 S"
b100000 O
b100000 ?"
b100000 R"
b11100 P
b11100 @"
b11100 P"
1!
#14000
0!
#14500
0G
0F
b10 N
b10 ~
b10 5"
0M
b10001 !"
b1 j
b1 l"
b110011 T"
b10110 D
b10110 9"
b10 B
b10 ="
b10 i"
b10 ?
b10 ;"
b10 k"
b1 C
b1 >"
b1 h"
b1 @
b1 :"
b1 j"
b0 K
b0 6"
b110011 &
b110011 |
b100 f
b100 p
b100 '"
b0 g
b0 m
b0 x
b11100 c
b11100 {
b11100 ("
b1 '
b1 d"
b1000001000101110110011 <
b1000001000101110110011 O"
b1000001000101110110011 W"
b101000 %
b101000 =
b101000 N"
b101000 g"
b1000001000101100110011 I
b1000001000101100110011 Q"
b1000001000101100110011 S"
b100100 O
b100100 ?"
b100100 R"
b100000 P
b100000 @"
b100000 P"
b10101 X
b10101 *"
b10101 G"
b0 S
b0 K"
b100 T
b100 J"
b0 V
b0 w
b0 )"
b0 I"
b100 W
b100 n
b100 H"
b10 s
b10 ^
b10 r
b10 -"
b10 C"
1Z
1[
1a
b0 b
b0 t
b0 B"
b100000 d
b100000 +"
b100000 F"
b11100 e
b11100 z
b11100 A"
b10100 2
b10100 3"
b10100 ["
b11000 :
b11000 2"
b11100 ;
b11100 1"
b11100 Z"
b10011 *
b10011 `"
b10011 m"
b1 -
b1 ]"
b1 b"
b11000 .
b11000 _"
b100100 $
b100100 M"
b100100 i
b100100 V"
b100100 f"
1!
#15000
0!
#15500
b100010110000000011 <
b100010110000000011 O"
b100010110000000011 W"
b101100 %
b101100 =
b101100 N"
b101100 g"
b10 k
b10 ""
b1 $"
b11 f
b11 p
b11 '"
b10 g
b10 m
b10 x
b100000 c
b100000 {
b100000 ("
b10111 D
b10111 9"
b101000 $
b101000 M"
b101000 i
b101000 V"
b101000 f"
b10100 *
b10100 `"
b10100 m"
b11100 .
b11100 _"
b10101 2
b10101 3"
b10101 ["
b10 8
b10 /"
b0 /
b0 #"
b0 4"
b100 9
b100 %"
b100 ."
b100 X"
14
15
b11100 :
b11100 2"
b100000 ;
b100000 1"
b100000 Z"
b10110 X
b10110 *"
b10110 G"
b10 S
b10 K"
b1 T
b1 J"
b10 V
b10 w
b10 )"
b10 I"
b1 W
b1 n
b1 H"
b0 s
b0 ^
b0 r
b0 -"
b0 C"
0Z
0[
0a
b10 b
b10 t
b10 B"
b100100 d
b100100 +"
b100100 F"
b100000 e
b100000 z
b100000 A"
b1000001000101110110011 I
b1000001000101110110011 Q"
b1000001000101110110011 S"
b101000 O
b101000 ?"
b101000 R"
b100100 P
b100100 @"
b100100 P"
1!
#16000
0!
#16500
1G
1F
b0 N
b0 ~
b0 5"
1M
b1100011 !"
b0 j
b0 l"
b11 T"
b11000 D
b11000 9"
b0 B
b0 ="
b0 i"
b0 ?
b0 ;"
b0 k"
b100 C
b100 >"
b100 h"
b100 @
b100 :"
b100 j"
b10 K
b10 6"
b11 &
b11 |
b100100 c
b100100 {
b100100 ("
b0 k
b0 ""
b0 $"
b0 '
b0 d"
b1000001000110010110011 <
b1000001000110010110011 O"
b1000001000110010110011 W"
b110000 %
b110000 =
b110000 N"
b110000 g"
b100010110000000011 I
b100010110000000011 Q"
b100010110000000011 S"
b101100 O
b101100 ?"
b101100 R"
b101000 P
b101000 @"
b101000 P"
b10111 X
b10111 *"
b10111 G"
b101000 d
b101000 +"
b101000 F"
b100100 e
b100100 z
b100100 A"
b10110 2
b10110 3"
b10110 ["
b0 8
b0 /"
b10 /
b10 #"
b10 4"
b11 9
b11 %"
b11 ."
b11 X"
04
05
b100000 :
b100000 2"
b100100 ;
b100100 1"
b100100 Z"
b10101 *
b10101 `"
b10101 m"
b100 -
b100 ]"
b100 b"
1+
b100000 .
b100000 _"
b101100 $
b101100 M"
b101100 i
b101100 V"
b101100 f"
1!
#17000
0!
#17500
0G
0F
b10 N
b10 ~
b10 5"
0M
b11 j
b11 l"
b10001 !"
b1000001000110100110011 <
b1000001000110100110011 O"
b1000001000110100110011 W"
b110100 %
b110100 =
b110100 N"
b110100 g"
b11 '
b11 d"
b100 f
b100 p
b100 '"
b0 g
b0 m
b0 x
b101000 c
b101000 {
b101000 ("
b110011 T"
b11001 D
b11001 9"
b10 B
b10 ="
b10 i"
b10 ?
b10 ;"
b10 k"
b1 C
b1 >"
b1 h"
b1 @
b1 :"
b1 j"
b0 K
b0 6"
b110011 &
b110011 |
b110000 $
b110000 M"
b110000 i
b110000 V"
b110000 f"
b10110 *
b10110 `"
b10110 m"
b11 -
b11 ]"
b11 b"
0+
b100100 .
b100100 _"
b10111 2
b10111 3"
b10111 ["
b100100 :
b100100 2"
b101000 ;
b101000 1"
b101000 Z"
b11000 X
b11000 *"
b11000 G"
b0 S
b0 K"
b100 T
b100 J"
b0 V
b0 w
b0 )"
b0 I"
b100 W
b100 n
b100 H"
b10 s
b10 ^
b10 r
b10 -"
b10 C"
1Z
1[
1a
b0 b
b0 t
b0 B"
b101100 d
b101100 +"
b101100 F"
b101000 e
b101000 z
b101000 A"
b1000001000110010110011 I
b1000001000110010110011 Q"
b1000001000110010110011 S"
b110000 O
b110000 ?"
b110000 R"
b101100 P
b101100 @"
b101100 P"
1!
#18000
0!
#18500
b11010 D
b11010 9"
b11 f
b11 p
b11 '"
b10 g
b10 m
b10 x
b101100 c
b101100 {
b101100 ("
b10 k
b10 ""
b1 $"
b1101111 <
b1101111 O"
b1101111 W"
b111000 %
b111000 =
b111000 N"
b111000 g"
b1000001000110100110011 I
b1000001000110100110011 Q"
b1000001000110100110011 S"
b110100 O
b110100 ?"
b110100 R"
b110000 P
b110000 @"
b110000 P"
b11001 X
b11001 *"
b11001 G"
b10 S
b10 K"
b1 T
b1 J"
b10 V
b10 w
b10 )"
b10 I"
b1 W
b1 n
b1 H"
b0 s
b0 ^
b0 r
b0 -"
b0 C"
0Z
0[
0a
b10 b
b10 t
b10 B"
b110000 d
b110000 +"
b110000 F"
b101100 e
b101100 z
b101100 A"
b11000 2
b11000 3"
b11000 ["
b10 8
b10 /"
b0 /
b0 #"
b0 4"
b100 9
b100 %"
b100 ."
b100 X"
14
15
b101000 :
b101000 2"
b101100 ;
b101100 1"
b101100 Z"
b10111 *
b10111 `"
b10111 m"
b101000 .
b101000 _"
b110100 $
b110100 M"
b110100 i
b110100 V"
b110100 f"
1!
#19000
0!
#19500
b11 H
b11 }
b11 8"
b0 N
b0 ~
b0 5"
b0 j
b0 l"
b1100000001 !"
bx <
bx O"
bx W"
b111100 %
b111100 =
b111100 N"
b111100 g"
b0 '
b0 d"
b0 k
b0 ""
b0 $"
b110000 c
b110000 {
b110000 ("
b1101111 T"
b0 D
b0 9"
b0 B
b0 ="
b0 i"
b0 ?
b0 ;"
b0 k"
b0 C
b0 >"
b0 h"
b0 @
b0 :"
b0 j"
b1101111 &
b1101111 |
b111000 $
b111000 M"
b111000 i
b111000 V"
b111000 f"
b11000 *
b11000 `"
b11000 m"
b100 -
b100 ]"
b100 b"
1+
b101100 .
b101100 _"
b11001 2
b11001 3"
b11001 ["
b0 8
b0 /"
b10 /
b10 #"
b10 4"
b11 9
b11 %"
b11 ."
b11 X"
04
05
b101100 :
b101100 2"
b110000 ;
b110000 1"
b110000 Z"
b11010 X
b11010 *"
b11010 G"
b110100 d
b110100 +"
b110100 F"
b110000 e
b110000 z
b110000 A"
b1101111 I
b1101111 Q"
b1101111 S"
b111000 O
b111000 ?"
b111000 R"
b110100 P
b110100 @"
b110100 P"
1!
#20000
0!
#20500
b0 H
b0 }
b0 8"
0A
b0 !"
1_
bx T"
bx D
bx 9"
bx B
bx ="
bx i"
bx ?
bx ;"
bx k"
bx C
bx >"
bx h"
bx @
bx :"
bx j"
bx K
bx 6"
bx J
bx 7"
bx &
bx |
b0 g
b0 m
b0 x
b0 f
b0 p
b0 '"
b110100 c
b110100 {
b110100 ("
b11 '
b11 d"
b110000 j
b110000 l"
b1000000 %
b1000000 =
b1000000 N"
b1000000 g"
bx I
bx Q"
bx S"
b111100 O
b111100 ?"
b111100 R"
b111000 P
b111000 @"
b111000 P"
b0 X
b0 *"
b0 G"
b0 S
b0 K"
b0 T
b0 J"
b0 V
b0 w
b0 )"
b0 I"
b0 W
b0 n
b0 H"
b11 \
b11 ,"
b11 E"
b0 b
b0 t
b0 B"
b111000 d
b111000 +"
b111000 F"
b110100 e
b110100 z
b110100 A"
b11010 2
b11010 3"
b11010 ["
b110000 :
b110000 2"
b110100 ;
b110100 1"
b110100 Z"
b11001 *
b11001 `"
b11001 m"
b11 -
b11 ]"
b11 b"
0+
b110000 .
b110000 _"
b111100 $
b111100 M"
b111100 i
b111100 V"
b111100 f"
1!
#21000
0!
