sim.vcd
$date
	Sun May  8 02:05:48 2022
$end
$version
	Icarus Verilog
$end
$timescale
	10ps
$end
$scope module riscv_tb $end
$var reg 1 ! clk $end
$var reg 1 " rstn $end
$var integer 32 # i [31:0] $end
$scope module my_cpu $end
$var wire 32 $ IF_PC [31:0] $end
$var wire 1 ! clk $end
$var wire 32 % forwarded_alu_second [31:0] $end
$var wire 1 & real_ID_flush $end
$var wire 1 " rstn $end
$var wire 1 ' stall $end
$var wire 32 ( alu_in_2 [31:0] $end
$var wire 32 ) alu_in_1 [31:0] $end
$var wire 32 * WB_tmp_write_data [31:0] $end
$var wire 1 + WB_regwrite $end
$var wire 32 , WB_readdata [31:0] $end
$var wire 5 - WB_rd [4:0] $end
$var wire 7 . WB_opcode [6:0] $end
$var wire 1 / WB_memtoreg $end
$var wire 2 0 WB_jump [1:0] $end
$var wire 32 1 WB_alu_result [31:0] $end
$var wire 32 2 WB_PC_PLUS_4 [31:0] $end
$var wire 32 3 NEXT_PC [31:0] $end
$var wire 32 4 MEM_writedata [31:0] $end
$var wire 32 5 MEM_write_data_real [31:0] $end
$var wire 1 6 MEM_taken $end
$var wire 5 7 MEM_rs2 [4:0] $end
$var wire 1 8 MEM_regwrite $end
$var wire 5 9 MEM_rd [4:0] $end
$var wire 7 : MEM_opcode [6:0] $end
$var wire 1 ; MEM_memwrite $end
$var wire 1 < MEM_memtoreg $end
$var wire 1 = MEM_memread $end
$var wire 32 > MEM_mem_read_data [31:0] $end
$var wire 2 ? MEM_jump [1:0] $end
$var wire 3 @ MEM_funct3 [2:0] $end
$var wire 32 A MEM_alu_result [31:0] $end
$var wire 32 B MEM_PC_target [31:0] $end
$var wire 32 C MEM_PC_PLUS_4 [31:0] $end
$var wire 32 D IF_instruction [31:0] $end
$var wire 1 E IF_flush $end
$var wire 32 F IF_PC_PLUS_4 [31:0] $end
$var wire 32 G ID_sextimm [31:0] $end
$var wire 5 H ID_rs2 [4:0] $end
$var wire 5 I ID_rs1 [4:0] $end
$var wire 1 J ID_reg_write_tmp $end
$var wire 1 K ID_reg_write $end
$var wire 32 L ID_readdata2 [31:0] $end
$var wire 32 M ID_readdata1 [31:0] $end
$var wire 5 N ID_rd [4:0] $end
$var wire 7 O ID_opcode [6:0] $end
$var wire 1 P ID_mem_write_tmp $end
$var wire 1 Q ID_mem_write $end
$var wire 1 R ID_mem_to_reg $end
$var wire 1 S ID_mem_read $end
$var wire 2 T ID_jump [1:0] $end
$var wire 32 U ID_instruction [31:0] $end
$var wire 7 V ID_funct7 [6:0] $end
$var wire 3 W ID_funct3 [2:0] $end
$var wire 1 X ID_flush $end
$var wire 10 Y ID_control [9:0] $end
$var wire 1 Z ID_branch $end
$var wire 1 [ ID_alu_src $end
$var wire 2 \ ID_alu_op [1:0] $end
$var wire 32 ] ID_PC_PLUS_4 [31:0] $end
$var wire 32 ^ ID_PC [31:0] $end
$var wire 1 _ EX_taken $end
$var wire 32 ` EX_sextimm [31:0] $end
$var wire 5 a EX_rs2 [4:0] $end
$var wire 5 b EX_rs1 [4:0] $end
$var wire 1 c EX_regwrite $end
$var wire 32 d EX_readdata2 [31:0] $end
$var wire 32 e EX_readdata1 [31:0] $end
$var wire 5 f EX_rd [4:0] $end
$var wire 7 g EX_opcode [6:0] $end
$var wire 1 h EX_memwrite $end
$var wire 1 i EX_memtoreg $end
$var wire 1 j EX_memread $end
$var wire 2 k EX_jump [1:0] $end
$var wire 7 l EX_funct7 [6:0] $end
$var wire 3 m EX_funct3 [2:0] $end
$var wire 1 n EX_forwardM $end
$var wire 10 o EX_control [9:0] $end
$var wire 1 p EX_check $end
$var wire 1 q EX_branch $end
$var wire 1 r EX_alusrc $end
$var wire 2 s EX_aluop [1:0] $end
$var wire 32 t EX_Writedata [31:0] $end
$var wire 32 u EX_PC_branch_target [31:0] $end
$var wire 32 v EX_PC_PLUS_4 [31:0] $end
$var wire 32 w EX_PC [31:0] $end
$var wire 2 x EX_ForwardS [1:0] $end
$var wire 2 y EX_ForwardB [1:0] $end
$var wire 2 z EX_ForwardA [1:0] $end
$var wire 32 { EX_ALU_result [31:0] $end
$var wire 32 | EX_ALU_in [31:0] $end
$var wire 4 } EX_ALU_func [3:0] $end
$var reg 1 ~ JALR_dependence $end
$var reg 32 !" PC [31:0] $end
$var reg 32 "" WB_write_data [31:0] $end
$var reg 32 #" forwarded_alu_second_tmp [31:0] $end
$var reg 2 $" maskmode [1:0] $end
$var reg 1 %" sext $end
$scope module EX_write_data_mux $end
$var wire 32 &" in2 [31:0] $end
$var wire 32 '" in3 [31:0] $end
$var wire 2 (" select [1:0] $end
$var wire 32 )" in1 [31:0] $end
$var reg 32 *" out [31:0] $end
$upscope $end
$scope module alu_in_1_mux $end
$var wire 32 +" in2 [31:0] $end
$var wire 32 ," in3 [31:0] $end
$var wire 2 -" select [1:0] $end
$var wire 32 ." in1 [31:0] $end
$var reg 32 /" out [31:0] $end
$upscope $end
$scope module alu_in_2_mux $end
$var wire 32 0" in2 [31:0] $end
$var wire 32 1" in3 [31:0] $end
$var wire 2 2" select [1:0] $end
$var wire 32 3" in1 [31:0] $end
$var reg 32 4" out [31:0] $end
$upscope $end
$scope module m_alu $end
$var wire 32 5" in_a [31:0] $end
$var wire 32 6" in_b [31:0] $end
$var wire 4 7" alu_func [3:0] $end
$var reg 1 p check $end
$var reg 32 8" result [31:0] $end
$upscope $end
$scope module m_alu_control $end
$var wire 7 9" funct7 [6:0] $end
$var wire 3 :" funct3 [2:0] $end
$var wire 4 ;" funct [3:0] $end
$var wire 2 <" alu_op [1:0] $end
$var reg 4 =" alu_func [3:0] $end
$upscope $end
$scope module m_alu_mux $end
$var wire 1 r select $end
$var wire 32 >" in2 [31:0] $end
$var wire 32 ?" in1 [31:0] $end
$var reg 32 @" out [31:0] $end
$upscope $end
$scope module m_branch_control $end
$var wire 1 p check $end
$var wire 1 q branch $end
$var reg 1 _ taken $end
$upscope $end
$scope module m_branch_target_adder $end
$var wire 32 A" in_b [31:0] $end
$var wire 32 B" in_a [31:0] $end
$var reg 32 C" result [31:0] $end
$upscope $end
$scope module m_control $end
$var wire 7 D" opcode [6:0] $end
$var wire 1 J reg_write $end
$var wire 1 P mem_write $end
$var wire 1 R mem_to_reg $end
$var wire 1 S mem_read $end
$var wire 2 E" jump [1:0] $end
$var wire 1 X id_flush $end
$var wire 1 Z branch $end
$var wire 1 [ alu_src $end
$var wire 2 F" alu_op [1:0] $end
$var reg 10 G" controls [9:0] $end
$upscope $end
$scope module m_data_memory $end
$var wire 1 ! clk $end
$var wire 2 H" maskmode [1:0] $end
$var wire 1 %" sext $end
$var wire 32 I" write_data [31:0] $end
$var wire 1 ; mem_write $end
$var wire 1 = mem_read $end
$var wire 8 J" address_internal [7:0] $end
$var wire 32 K" address [31:0] $end
$var reg 32 L" read_data [31:0] $end
$upscope $end
$scope module m_exmem_reg $end
$var wire 1 ! clk $end
$var wire 32 M" ex_alu_result [31:0] $end
$var wire 32 N" ex_pc_target [31:0] $end
$var wire 1 _ ex_taken $end
$var wire 32 O" ex_writedata [31:0] $end
$var wire 5 P" ex_rs2 [4:0] $end
$var wire 1 c ex_regwrite $end
$var wire 5 Q" ex_rd [4:0] $end
$var wire 32 R" ex_pc_plus_4 [31:0] $end
$var wire 7 S" ex_opcode [6:0] $end
$var wire 1 h ex_memwrite $end
$var wire 1 i ex_memtoreg $end
$var wire 1 j ex_memread $end
$var wire 2 T" ex_jump [1:0] $end
$var wire 3 U" ex_funct3 [2:0] $end
$var reg 32 V" mem_alu_result [31:0] $end
$var reg 3 W" mem_funct3 [2:0] $end
$var reg 2 X" mem_jump [1:0] $end
$var reg 1 = mem_memread $end
$var reg 1 < mem_memtoreg $end
$var reg 1 ; mem_memwrite $end
$var reg 7 Y" mem_opcode [6:0] $end
$var reg 32 Z" mem_pc_plus_4 [31:0] $end
$var reg 32 [" mem_pc_target [31:0] $end
$var reg 5 \" mem_rd [4:0] $end
$var reg 1 8 mem_regwrite $end
$var reg 5 ]" mem_rs2 [4:0] $end
$var reg 1 6 mem_taken $end
$var reg 32 ^" mem_writedata [31:0] $end
$upscope $end
$scope module m_forwarding $end
$var wire 7 _" mem_opcode [6:0] $end
$var wire 5 `" mem_rd [4:0] $end
$var wire 5 a" mem_rs2 [4:0] $end
$var wire 5 b" wb_rd [4:0] $end
$var wire 7 c" wb_opcode [6:0] $end
$var wire 5 d" ex_rs2 [4:0] $end
$var wire 5 e" ex_rs1 [4:0] $end
$var wire 7 f" ex_opcode [6:0] $end
$var reg 2 g" forwardA [1:0] $end
$var reg 2 h" forwardB [1:0] $end
$var reg 2 i" forwardS [1:0] $end
$var reg 1 n forwardmem $end
$upscope $end
$scope module m_hazard $end
$var wire 32 j" ex_alu_result [31:0] $end
$var wire 1 _ ex_branch_taken $end
$var wire 32 k" ex_branch_target [31:0] $end
$var wire 1 P id_mem_write $end
$var wire 7 l" id_opcode [6:0] $end
$var wire 1 J id_reg_write $end
$var wire 5 m" id_rs1 [4:0] $end
$var wire 5 n" id_rs2 [4:0] $end
$var wire 32 o" if_pc_plus_4 [31:0] $end
$var wire 1 E if_flush $end
$var wire 5 p" ex_rd [4:0] $end
$var wire 7 q" ex_opcode [6:0] $end
$var wire 2 r" ex_jump [1:0] $end
$var reg 1 s" Load_dep_1 $end
$var reg 1 t" Load_dep_2 $end
$var reg 32 u" NEXT_PC [31:0] $end
$var reg 1 v" ex_mem_flush $end
$var reg 1 Q id_mem_write_real $end
$var reg 1 K id_reg_write_real $end
$var reg 1 E if_flush_tmp $end
$var reg 1 ' stall $end
$upscope $end
$scope module m_idex_reg $end
$var wire 1 ! clk $end
$var wire 1 & flush $end
$var wire 2 w" id_aluop [1:0] $end
$var wire 1 [ id_alusrc $end
$var wire 1 Z id_branch $end
$var wire 3 x" id_funct3 [2:0] $end
$var wire 7 y" id_funct7 [6:0] $end
$var wire 2 z" id_jump [1:0] $end
$var wire 1 S id_memread $end
$var wire 1 R id_memtoreg $end
$var wire 1 Q id_memwrite $end
$var wire 7 {" id_opcode [6:0] $end
$var wire 5 |" id_rd [4:0] $end
$var wire 1 K id_regwrite $end
$var wire 5 }" id_rs1 [4:0] $end
$var wire 5 ~" id_rs2 [4:0] $end
$var wire 1 ' stall $end
$var wire 32 !# id_sextimm [31:0] $end
$var wire 32 "# id_readdata2 [31:0] $end
$var wire 32 ## id_readdata1 [31:0] $end
$var wire 32 $# id_pc_plus_4 [31:0] $end
$var wire 32 %# id_PC [31:0] $end
$var reg 32 &# ex_PC [31:0] $end
$var reg 2 '# ex_aluop [1:0] $end
$var reg 1 r ex_alusrc $end
$var reg 1 q ex_branch $end
$var reg 3 (# ex_funct3 [2:0] $end
$var reg 7 )# ex_funct7 [6:0] $end
$var reg 2 *# ex_jump [1:0] $end
$var reg 1 j ex_memread $end
$var reg 1 i ex_memtoreg $end
$var reg 1 h ex_memwrite $end
$var reg 7 +# ex_opcode [6:0] $end
$var reg 32 ,# ex_pc_plus_4 [31:0] $end
$var reg 5 -# ex_rd [4:0] $end
$var reg 32 .# ex_readdata1 [31:0] $end
$var reg 32 /# ex_readdata2 [31:0] $end
$var reg 1 c ex_regwrite $end
$var reg 5 0# ex_rs1 [4:0] $end
$var reg 5 1# ex_rs2 [4:0] $end
$var reg 32 2# ex_sextimm [31:0] $end
$upscope $end
$scope module m_ifid_reg $end
$var wire 1 ! clk $end
$var wire 32 3# if_PC [31:0] $end
$var wire 1 E if_flush $end
$var wire 1 ' stall $end
$var wire 32 4# if_pc_plus_4 [31:0] $end
$var wire 32 5# if_instruction [31:0] $end
$var reg 32 6# id_PC [31:0] $end
$var reg 1 X id_flush $end
$var reg 32 7# id_instruction [31:0] $end
$var reg 32 8# id_pc_plus_4 [31:0] $end
$upscope $end
$scope module m_immediate_generator $end
$var wire 32 9# instruction [31:0] $end
$var wire 7 :# opcode [6:0] $end
$var reg 32 ;# sextimm [31:0] $end
$upscope $end
$scope module m_instruction_memory $end
$var wire 32 <# address [31:0] $end
$var reg 32 =# instruction [31:0] $end
$upscope $end
$scope module m_memwb_reg $end
$var wire 1 ! clk $end
$var wire 32 ># mem_alu_result [31:0] $end
$var wire 2 ?# mem_jump [1:0] $end
$var wire 1 < mem_memtoreg $end
$var wire 7 @# mem_opcode [6:0] $end
$var wire 32 A# mem_pc_plus_4 [31:0] $end
$var wire 5 B# mem_rd [4:0] $end
$var wire 32 C# mem_readdata [31:0] $end
$var wire 1 8 mem_regwrite $end
$var reg 32 D# wb_alu_result [31:0] $end
$var reg 2 E# wb_jump [1:0] $end
$var reg 1 / wb_memtoreg $end
$var reg 7 F# wb_opcode [6:0] $end
$var reg 32 G# wb_pc_plus_4 [31:0] $end
$var reg 5 H# wb_rd [4:0] $end
$var reg 32 I# wb_readdata [31:0] $end
$var reg 1 + wb_regwrite $end
$upscope $end
$scope module m_mux_2x1 $end
$var wire 32 J# in1 [31:0] $end
$var wire 32 K# in2 [31:0] $end
$var wire 1 / select $end
$var reg 32 L# out [31:0] $end
$upscope $end
$scope module m_pc_plus_4_adder $end
$var wire 32 M# in_a [31:0] $end
$var wire 32 N# in_b [31:0] $end
$var reg 32 O# result [31:0] $end
$upscope $end
$scope module m_register_file $end
$var wire 1 ! clk $end
$var wire 32 P# readdata1 [31:0] $end
$var wire 32 Q# readdata2 [31:0] $end
$var wire 5 R# readreg1 [4:0] $end
$var wire 5 S# readreg2 [4:0] $end
$var wire 1 + wen $end
$var wire 32 T# writedata [31:0] $end
$var wire 5 U# writereg [4:0] $end
$upscope $end
$scope module m_write_data_mux $end
$var wire 32 V# in1 [31:0] $end
$var wire 32 W# in2 [31:0] $end
$var wire 1 n select $end
$var reg 32 X# out [31:0] $end
$upscope $end
$upscope $end
$upscope $end
$enddefinitions $end
#0
$dumpvars
bx X#
bx W#
bx V#
bx U#
bx T#
bx S#
bx R#
bx Q#
bx P#
bx O#
bx N#
b100 M#
bx L#
bx K#
bx J#
bx I#
bx H#
bx G#
bx F#
bx E#
bx D#
b0 C#
bx B#
bx A#
bx @#
bx ?#
bx >#
bx =#
bx <#
bx ;#
bx :#
bx 9#
bx 8#
bx 7#
bx 6#
bx 5#
bx 4#
bx 3#
bx 2#
bx 1#
bx 0#
bx /#
bx .#
bx -#
bx ,#
bx +#
bx *#
bx )#
bx (#
bx '#
bx &#
bx %#
bx $#
bx ##
bx "#
bx !#
bx ~"
bx }"
bx |"
bx {"
bx z"
bx y"
bx x"
bx w"
xv"
bx u"
xt"
xs"
bx r"
bx q"
bx p"
bx o"
bx n"
bx m"
bx l"
bx k"
bx j"
bx i"
bx h"
bx g"
bx f"
bx e"
bx d"
bx c"
bx b"
bx a"
bx `"
bx _"
bx ^"
bx ]"
bx \"
bx ["
bx Z"
bx Y"
bx X"
bx W"
bx V"
bx U"
bx T"
bx S"
bx R"
bx Q"
bx P"
bx O"
bx N"
bx M"
b0 L"
bx K"
bx J"
bx I"
bx H"
bx G"
bx F"
bx E"
bx D"
bx C"
bx B"
bx A"
bx @"
bx ?"
bx >"
bx ="
bx <"
bx ;"
bx :"
bx 9"
bx 8"
bx 7"
bx 6"
bx 5"
bx 4"
bx 3"
bx 2"
bx 1"
bx 0"
bx /"
bx ."
bx -"
bx ,"
bx +"
bx *"
bx )"
bx ("
bx '"
bx &"
x%"
bx $"
bx #"
bx ""
bx !"
x~
bx }
bx |
bx {
bx z
bx y
bx x
bx w
bx v
bx u
bx t
bx s
xr
xq
xp
bx o
xn
bx m
bx l
bx k
xj
xi
xh
bx g
bx f
bx e
bx d
xc
bx b
bx a
bx `
x_
bx ^
bx ]
bx \
x[
xZ
bx Y
xX
bx W
bx V
bx U
bx T
xS
xR
xQ
xP
bx O
bx N
bx M
bx L
xK
xJ
bx I
bx H
bx G
bx F
xE
bx D
bx C
bx B
bx A
bx @
bx ?
b0 >
x=
x<
x;
bx :
bx 9
x8
bx 7
x6
bx 5
bx 4
bx 3
bx 2
bx 1
bx 0
x/
bx .
bx -
bx ,
x+
bx *
bx )
bx (
x'
x&
bx %
bx $
bx #
0"
0!
$end
#500
0E
b100 3
b100 u"
b0 *
b0 L#
b0 D
b0 5#
b0 =#
b100 F
b100 o"
b100 4#
b100 O#
b0 ,
b0 I#
b0 K#
b0 $
b0 3#
b0 !"
b0 <#
b0 N#
1!
#1000
0!
#1500
0K
0Q
0'
b0 T
b0 E"
b0 z"
0Z
0S
0R
b0 \
b0 F"
b0 w"
0P
b0 Y
0[
0J
0t"
0s"
0&
b0 G"
b0 G
b0 !#
b0 ;#
b0 :#
b0 N
b0 |"
b0 L
b0 "#
b0 Q#
b0 H
b0 n"
b0 ~"
b0 S#
b0 M
b0 ##
b0 P#
b0 I
b0 m"
b0 }"
b0 R#
b0 W
b0 x"
b0 V
b0 y"
b0 O
b0 D"
b0 l"
b0 {"
0X
b0 U
b0 7#
b0 9#
b100 ]
b100 $#
b100 8#
b0 ^
b0 %#
b0 6#
1!
#2000
0!
#2500
b0 {
b0 8"
b0 M"
b0 j"
1p
b0 t
b0 *"
b0 O"
b0 )
b0 /"
b0 5"
b0 (
b0 4"
b0 6"
b0 x
b0 ("
b0 i"
b0 y
b0 2"
b0 h"
b0 z
b0 -"
b0 g"
0n
b0 |
b0 3"
b0 @"
b0 }
b0 7"
b0 ="
0_
b0 u
b0 C"
b0 N"
b0 k"
b0 g
b0 S"
b0 f"
b0 q"
b0 +#
b0 f
b0 Q"
b0 p"
b0 -#
b0 a
b0 P"
b0 d"
b0 1#
b0 b
b0 e"
b0 0#
b0 d
b0 )"
b0 ?"
b0 /#
b0 e
b0 ."
b0 .#
b0 ;"
b0 m
b0 :"
b0 U"
b0 (#
b0 l
b0 9"
b0 )#
b0 `
b0 >"
b0 A"
b0 2#
0c
0i
0h
0j
b0 k
b0 T"
b0 r"
b0 *#
0r
b0 s
b0 <"
b0 '#
b0 o
0q
b100 v
b100 R"
b100 ,#
b0 w
b0 B"
b0 &#
1!
#3000
0!
#3500
0%"
b0 $"
b0 H"
b0 5
b0 I"
b0 X#
b0 J"
0~
b0 %
b0 &"
b0 +"
b0 0"
b0 #"
b0 7
b0 ]"
b0 a"
b0 9
b0 \"
b0 `"
b0 B#
b0 :
b0 Y"
b0 _"
b0 @#
08
0;
b0 @
b0 W"
b0 4
b0 ^"
b0 V#
b0 A
b0 K"
b0 V"
b0 >#
0<
b0 ?
b0 X"
b0 ?#
0=
06
b0 B
b0 ["
b100 C
b100 Z"
b100 A#
1!
#4000
0!
#4500
b0 ""
b0 '"
b0 ,"
b0 1"
b0 T#
b0 W#
b0 .
b0 c"
b0 F#
b0 -
b0 b"
b0 H#
b0 U#
b0 1
b0 D#
b0 J#
0+
0/
b0 0
b0 E#
b100 2
b100 G#
1!
#5000
0!
#5500
1!
#6000
0!
1"
#6500
b1000 3
b1000 u"
b110100000000000000001101111 D
b110100000000000000001101111 5#
b110100000000000000001101111 =#
b1000 F
b1000 o"
b1000 4#
b1000 O#
b100 $
b100 3#
b100 !"
b100 <#
b100 N#
1!
#7000
0!
#7500
1K
b1100000001 Y
b11 T
b11 E"
b11 z"
1J
b1100 3
b1100 u"
b1100000001 G"
b11111101000000010000000100010011 D
b11111101000000010000000100010011 5#
b11111101000000010000000100010011 =#
b1100 F
b1100 o"
b1100 4#
b1100 O#
b1101000 G
b1101000 !#
b1101000 ;#
b1101111 :#
b1000 H
b1000 n"
b1000 ~"
b1000 S#
b11 V
b11 y"
b1101111 O
b1101111 D"
b1101111 l"
b1101111 {"
b1000 $
b1000 3#
b1000 !"
b1000 <#
b1000 N#
b110100000000000000001101111 U
b110100000000000000001101111 7#
b110100000000000000001101111 9#
b1000 ]
b1000 $#
b1000 8#
b100 ^
b100 %#
b100 6#
1!
#8000
0!
#8500
b0 T
b0 E"
b0 z"
b11 \
b11 F"
b11 w"
1[
b11011 G"
1&
b11111111111111111111111111010000 G
b11111111111111111111111111010000 !#
b11111111111111111111111111010000 ;#
b10011 :#
b10 N
b10 |"
b10000 H
b10000 n"
b10000 ~"
b10000 S#
b1100100 M
b1100100 ##
b1100100 P#
b10 I
b10 m"
b10 }"
b10 R#
b1111110 V
b1111110 y"
b10011 O
b10011 D"
b10011 l"
b10011 {"
1E
b11010 Y
0K
b1101100 3
b1101100 u"
b1101100 u
b1101100 C"
b1101100 N"
b1101100 k"
b10100000010010011000100011 D
b10100000010010011000100011 5#
b10100000010010011000100011 =#
b10000 F
b10000 o"
b10000 4#
b10000 O#
b11111101000000010000000100010011 U
b11111101000000010000000100010011 7#
b11111101000000010000000100010011 9#
b1100 ]
b1100 $#
b1100 8#
b1000 ^
b1000 %#
b1000 6#
b1101111 g
b1101111 S"
b1101111 f"
b1101111 q"
b1101111 +#
b1000 a
b1000 P"
b1000 d"
b1000 1#
b11 l
b11 9"
b11 )#
b1101000 `
b1101000 >"
b1101000 A"
b1101000 2#
1c
b1100000001 o
b11 k
b11 T"
b11 r"
b11 *#
b1000 v
b1000 R"
b1000 ,#
b100 w
b100 B"
b100 &#
b1100 $
b1100 3#
b1100 !"
b1100 <#
b1100 N#
1!
#9000
0!
#9500
0p
b1100100 {
b1100100 8"
b1100100 M"
b1100100 j"
b0 \
b0 F"
b0 w"
0[
0J
b11111110000000010000000100010011 D
b11111110000000010000000100010011 5#
b11111110000000010000000100010011 =#
b1110000 F
b1110000 o"
b1110000 4#
b1110000 O#
b1100100 )
b1100100 /"
b1100100 5"
b1000 ;"
0E
b0 Y
0K
b1110000 3
b1110000 u"
b11111111111111111111111111011000 u
b11111111111111111111111111011000 C"
b11111111111111111111111111011000 N"
b11111111111111111111111111011000 k"
b0 G"
b101100 G
b101100 !#
b101100 ;#
b100011 :#
b1100 N
b1100 |"
b1000 H
b1000 n"
b1000 ~"
b1000 S#
b10 W
b10 x"
b1 V
b1 y"
b100011 O
b100011 D"
b100011 l"
b100011 {"
b1101100 $
b1101100 3#
b1101100 !"
b1101100 <#
b1101100 N#
b1000 7
b1000 ]"
b1000 a"
b1101111 :
b1101111 Y"
b1101111 _"
b1101111 @#
18
b11 ?
b11 X"
b11 ?#
b1101100 B
b1101100 ["
b1000 C
b1000 Z"
b1000 A#
b10011 g
b10011 S"
b10011 f"
b10011 q"
b10011 +#
b0 a
b0 P"
b0 d"
b0 1#
b1100100 e
b1100100 ."
b1100100 .#
b1111110 l
b1111110 9"
b1111110 )#
b11111111111111111111111111010000 `
b11111111111111111111111111010000 >"
b11111111111111111111111111010000 A"
b11111111111111111111111111010000 2#
0c
b0 o
b0 k
b0 T"
b0 r"
b0 *#
b1100 v
b1100 R"
b1100 ,#
b1000 w
b1000 B"
b1000 &#
1X
b10100000010010011000100011 U
b10100000010010011000100011 7#
b10100000010010011000100011 9#
b10000 ]
b10000 $#
b10000 8#
b1100 ^
b1100 %#
b1100 6#
1!
#10000
0!
#10500
1K
b11 \
b11 F"
b11 w"
b11011 Y
1[
1J
b1110100 3
b1110100 u"
0&
b11011 G"
b11111111111111111111111111100000 G
b11111111111111111111111111100000 !#
b11111111111111111111111111100000 ;#
b10011 :#
b10 N
b10 |"
b0 H
b0 n"
b0 ~"
b0 S#
b0 W
b0 x"
b1111111 V
b1111111 y"
b10011 O
b10011 D"
b10011 l"
b10011 {"
b111000 u
b111000 C"
b111000 N"
b111000 k"
b11001 J"
b1100100 %
b1100100 &"
b1100100 +"
b1100100 0"
b1100100 #"
b1000 ""
b1000 '"
b1000 ,"
b1000 1"
b1000 T#
b1000 W#
b100010010111000100011 D
b100010010111000100011 5#
b100010010111000100011 =#
b1110100 F
b1110100 o"
b1110100 4#
b1110100 O#
0X
b11111110000000010000000100010011 U
b11111110000000010000000100010011 7#
b11111110000000010000000100010011 9#
b1110000 ]
b1110000 $#
b1110000 8#
b1101100 ^
b1101100 %#
b1101100 6#
b100011 g
b100011 S"
b100011 f"
b100011 q"
b100011 +#
b10 ;"
b10 m
b10 :"
b10 U"
b10 (#
b1 l
b1 9"
b1 )#
b101100 `
b101100 >"
b101100 A"
b101100 2#
b10000 v
b10000 R"
b10000 ,#
b1100 w
b1100 B"
b1100 &#
b0 7
b0 ]"
b0 a"
b10011 :
b10011 Y"
b10011 _"
b10011 @#
08
b1100100 A
b1100100 K"
b1100100 V"
b1100100 >#
b0 ?
b0 X"
b0 ?#
b11111111111111111111111111011000 B
b11111111111111111111111111011000 ["
b1100 C
b1100 Z"
b1100 A#
b1101111 .
b1101111 c"
b1101111 F#
1+
b11 0
b11 E#
b1000 2
b1000 G#
b1110000 $
b1110000 3#
b1110000 !"
b1110000 <#
b1110000 N#
1!
#11000
b0 L
b0 "#
b0 Q#
0!
#11500
0K
1Q
b1000100 {
b1000100 8"
b1000100 M"
b1000100 j"
b110 Y
b0 \
b0 F"
b0 w"
1P
0J
b11111111111111111111111111100000 (
b11111111111111111111111111100000 4"
b11111111111111111111111111100000 6"
b1111000 3
b1111000 u"
b110 G"
b100000010010110000100011 D
b100000010010110000100011 5#
b100000010010110000100011 =#
b1111000 F
b1111000 o"
b1111000 4#
b1111000 O#
b1100100 *
b1100100 L#
b1100100 ""
b1100100 '"
b1100100 ,"
b1100100 1"
b1100100 T#
b1100100 W#
b10 $"
b10 H"
b11111111111111111111111111100000 |
b11111111111111111111111111100000 3"
b11111111111111111111111111100000 @"
b1001100 u
b1001100 C"
b1001100 N"
b1001100 k"
b11100 G
b11100 !#
b11100 ;#
b100011 :#
b11100 N
b11100 |"
b1 H
b1 n"
b1 ~"
b1 S#
b10 W
b10 x"
b0 V
b0 y"
b100011 O
b100011 D"
b100011 l"
b100011 {"
b1110100 $
b1110100 3#
b1110100 !"
b1110100 <#
b1110100 N#
b10011 .
b10011 c"
b10011 F#
b1100100 1
b1100100 D#
b1100100 J#
0+
b0 0
b0 E#
b1100 2
b1100 G#
b100011 :
b100011 Y"
b100011 _"
b100011 @#
b10 @
b10 W"
b111000 B
b111000 ["
b10000 C
b10000 Z"
b10000 A#
b10011 g
b10011 S"
b10011 f"
b10011 q"
b10011 +#
b10 f
b10 Q"
b10 p"
b10 -#
b10 b
b10 e"
b10 0#
b1000 ;"
b0 m
b0 :"
b0 U"
b0 (#
b1111111 l
b1111111 9"
b1111111 )#
b11111111111111111111111111100000 `
b11111111111111111111111111100000 >"
b11111111111111111111111111100000 A"
b11111111111111111111111111100000 2#
1c
1r
b11011 o
b11 s
b11 <"
b11 '#
b1110000 v
b1110000 R"
b1110000 ,#
b1101100 w
b1101100 B"
b1101100 &#
b100010010111000100011 U
b100010010111000100011 7#
b100010010111000100011 9#
b1110100 ]
b1110100 $#
b1110100 8#
b1110000 ^
b1110000 %#
b1110000 6#
1!
#12000
0!
#12500
b1100000 {
b1100000 8"
b1100000 M"
b1100000 j"
b11100 (
b11100 4"
b11100 6"
b1000100 )
b1000100 /"
b1000100 5"
b1111100 3
b1111100 u"
b11000 G
b11000 !#
b11000 ;#
b11000 N
b11000 |"
b1000 H
b1000 n"
b1000 ~"
b1000 S#
b11100 |
b11100 3"
b11100 @"
b10001100 u
b10001100 C"
b10001100 N"
b10001100 k"
b0 $"
b0 H"
b10001 J"
b1000100 %
b1000100 &"
b1000100 +"
b1000100 0"
b1000100 #"
b1 z
b1 -"
b1 g"
b10000000010000010000010011 D
b10000000010000010000010011 5#
b10000000010000010000010011 =#
b1111100 F
b1111100 o"
b1111100 4#
b1111100 O#
b100000010010110000100011 U
b100000010010110000100011 7#
b100000010010110000100011 9#
b1111000 ]
b1111000 $#
b1111000 8#
b1110100 ^
b1110100 %#
b1110100 6#
b100011 g
b100011 S"
b100011 f"
b100011 q"
b100011 +#
b11100 f
b11100 Q"
b11100 p"
b11100 -#
b1 a
b1 P"
b1 d"
b1 1#
b10 ;"
b10 m
b10 :"
b10 U"
b10 (#
b0 l
b0 9"
b0 )#
b11100 `
b11100 >"
b11100 A"
b11100 2#
0c
1h
b110 o
b0 s
b0 <"
b0 '#
b1110100 v
b1110100 R"
b1110100 ,#
b1110000 w
b1110000 B"
b1110000 &#
b10 9
b10 \"
b10 `"
b10 B#
b10011 :
b10011 Y"
b10011 _"
b10011 @#
18
b0 @
b0 W"
b1000100 A
b1000100 K"
b1000100 V"
b1000100 >#
b1001100 B
b1001100 ["
b1110000 C
b1110000 Z"
b1110000 A#
b100011 .
b100011 c"
b100011 F#
b10000 2
b10000 G#
b1111000 $
b1111000 3#
b1111000 !"
b1111000 <#
b1111000 N#
1!
#13000
0!
