sim.vcd
$date
	Fri May  6 15:17:34 2022
$end
$version
	Icarus Verilog
$end
$timescale
	10ps
$end
$scope module riscv_tb $end
$var reg 1 ! clk $end
$var reg 1 " rstn $end
$var integer 32 # i [31:0] $end
$scope module my_cpu $end
$var wire 32 $ IF_PC [31:0] $end
$var wire 1 ! clk $end
$var wire 32 % forwarded_alu_second [31:0] $end
$var wire 1 & real_ID_flush $end
$var wire 1 " rstn $end
$var wire 1 ' stall $end
$var wire 32 ( alu_in_2 [31:0] $end
$var wire 32 ) alu_in_1 [31:0] $end
$var wire 32 * WB_tmp_write_data [31:0] $end
$var wire 1 + WB_regwrite $end
$var wire 32 , WB_readdata [31:0] $end
$var wire 5 - WB_rd [4:0] $end
$var wire 7 . WB_opcode [6:0] $end
$var wire 1 / WB_memtoreg $end
$var wire 2 0 WB_jump [1:0] $end
$var wire 32 1 WB_alu_result [31:0] $end
$var wire 32 2 WB_PC_PLUS_4 [31:0] $end
$var wire 32 3 NEXT_PC [31:0] $end
$var wire 32 4 MEM_writedata [31:0] $end
$var wire 1 5 MEM_taken $end
$var wire 1 6 MEM_regwrite $end
$var wire 5 7 MEM_rd [4:0] $end
$var wire 7 8 MEM_opcode [6:0] $end
$var wire 1 9 MEM_memwrite $end
$var wire 1 : MEM_memtoreg $end
$var wire 1 ; MEM_memread $end
$var wire 32 < MEM_mem_read_data [31:0] $end
$var wire 2 = MEM_jump [1:0] $end
$var wire 3 > MEM_funct3 [2:0] $end
$var wire 32 ? MEM_alu_result [31:0] $end
$var wire 32 @ MEM_PC_target [31:0] $end
$var wire 32 A MEM_PC_PLUS_4 [31:0] $end
$var wire 32 B IF_instruction [31:0] $end
$var wire 1 C IF_flush $end
$var wire 32 D IF_PC_PLUS_4 [31:0] $end
$var wire 32 E ID_sextimm [31:0] $end
$var wire 5 F ID_rs2 [4:0] $end
$var wire 5 G ID_rs1 [4:0] $end
$var wire 1 H ID_reg_write_tmp $end
$var wire 1 I ID_reg_write $end
$var wire 32 J ID_readdata2 [31:0] $end
$var wire 32 K ID_readdata1 [31:0] $end
$var wire 5 L ID_rd [4:0] $end
$var wire 7 M ID_opcode [6:0] $end
$var wire 1 N ID_mem_write_tmp $end
$var wire 1 O ID_mem_write $end
$var wire 1 P ID_mem_to_reg $end
$var wire 1 Q ID_mem_read $end
$var wire 2 R ID_jump [1:0] $end
$var wire 32 S ID_instruction [31:0] $end
$var wire 7 T ID_funct7 [6:0] $end
$var wire 3 U ID_funct3 [2:0] $end
$var wire 1 V ID_flush $end
$var wire 10 W ID_control [9:0] $end
$var wire 1 X ID_branch $end
$var wire 1 Y ID_alu_src $end
$var wire 2 Z ID_alu_op [1:0] $end
$var wire 32 [ ID_PC_PLUS_4 [31:0] $end
$var wire 32 \ ID_PC [31:0] $end
$var wire 1 ] EX_taken $end
$var wire 32 ^ EX_sextimm [31:0] $end
$var wire 5 _ EX_rs2 [4:0] $end
$var wire 5 ` EX_rs1 [4:0] $end
$var wire 1 a EX_regwrite $end
$var wire 32 b EX_readdata2 [31:0] $end
$var wire 32 c EX_readdata1 [31:0] $end
$var wire 5 d EX_rd [4:0] $end
$var wire 7 e EX_opcode [6:0] $end
$var wire 1 f EX_memwrite $end
$var wire 1 g EX_memtoreg $end
$var wire 1 h EX_memread $end
$var wire 2 i EX_jump [1:0] $end
$var wire 7 j EX_funct7 [6:0] $end
$var wire 3 k EX_funct3 [2:0] $end
$var wire 10 l EX_control [9:0] $end
$var wire 1 m EX_check $end
$var wire 1 n EX_branch $end
$var wire 1 o EX_alusrc $end
$var wire 2 p EX_aluop [1:0] $end
$var wire 32 q EX_Writedata [31:0] $end
$var wire 32 r EX_PC_branch_target [31:0] $end
$var wire 32 s EX_PC_PLUS_4 [31:0] $end
$var wire 32 t EX_PC [31:0] $end
$var wire 2 u EX_ForwardB [1:0] $end
$var wire 2 v EX_ForwardA [1:0] $end
$var wire 32 w EX_ALU_result [31:0] $end
$var wire 32 x EX_ALU_in [31:0] $end
$var wire 4 y EX_ALU_func [3:0] $end
$var reg 1 z JALR_dependence $end
$var reg 32 { PC [31:0] $end
$var reg 32 | WB_write_data [31:0] $end
$var reg 32 } forwarded_alu_second_tmp [31:0] $end
$var reg 2 ~ maskmode [1:0] $end
$var reg 1 !" sext $end
$scope module EX_write_data_mux $end
$var wire 32 "" in2 [31:0] $end
$var wire 32 #" in3 [31:0] $end
$var wire 2 $" select [1:0] $end
$var wire 32 %" in1 [31:0] $end
$var reg 32 &" out [31:0] $end
$upscope $end
$scope module alu_in_1_mux $end
$var wire 32 '" in2 [31:0] $end
$var wire 32 (" in3 [31:0] $end
$var wire 2 )" select [1:0] $end
$var wire 32 *" in1 [31:0] $end
$var reg 32 +" out [31:0] $end
$upscope $end
$scope module alu_in_2_mux $end
$var wire 32 ," in2 [31:0] $end
$var wire 32 -" in3 [31:0] $end
$var wire 2 ." select [1:0] $end
$var wire 32 /" in1 [31:0] $end
$var reg 32 0" out [31:0] $end
$upscope $end
$scope module m_alu $end
$var wire 32 1" in_a [31:0] $end
$var wire 32 2" in_b [31:0] $end
$var wire 4 3" alu_func [3:0] $end
$var reg 1 m check $end
$var reg 32 4" result [31:0] $end
$upscope $end
$scope module m_alu_control $end
$var wire 7 5" funct7 [6:0] $end
$var wire 3 6" funct3 [2:0] $end
$var wire 4 7" funct [3:0] $end
$var wire 2 8" alu_op [1:0] $end
$var reg 4 9" alu_func [3:0] $end
$upscope $end
$scope module m_alu_mux $end
$var wire 1 o select $end
$var wire 32 :" in2 [31:0] $end
$var wire 32 ;" in1 [31:0] $end
$var reg 32 <" out [31:0] $end
$upscope $end
$scope module m_branch_control $end
$var wire 1 m check $end
$var wire 1 n branch $end
$var reg 1 ] taken $end
$upscope $end
$scope module m_branch_target_adder $end
$var wire 32 =" in_b [31:0] $end
$var wire 32 >" in_a [31:0] $end
$var reg 32 ?" result [31:0] $end
$upscope $end
$scope module m_control $end
$var wire 7 @" opcode [6:0] $end
$var wire 1 H reg_write $end
$var wire 1 N mem_write $end
$var wire 1 P mem_to_reg $end
$var wire 1 Q mem_read $end
$var wire 2 A" jump [1:0] $end
$var wire 1 V id_flush $end
$var wire 1 X branch $end
$var wire 1 Y alu_src $end
$var wire 2 B" alu_op [1:0] $end
$var reg 10 C" controls [9:0] $end
$upscope $end
$scope module m_data_memory $end
$var wire 1 ! clk $end
$var wire 2 D" maskmode [1:0] $end
$var wire 1 !" sext $end
$var wire 32 E" write_data [31:0] $end
$var wire 1 9 mem_write $end
$var wire 1 ; mem_read $end
$var wire 8 F" address_internal [7:0] $end
$var wire 32 G" address [31:0] $end
$var reg 32 H" read_data [31:0] $end
$upscope $end
$scope module m_exmem_reg $end
$var wire 1 ! clk $end
$var wire 32 I" ex_alu_result [31:0] $end
$var wire 32 J" ex_pc_target [31:0] $end
$var wire 1 ] ex_taken $end
$var wire 32 K" ex_writedata [31:0] $end
$var wire 1 a ex_regwrite $end
$var wire 5 L" ex_rd [4:0] $end
$var wire 32 M" ex_pc_plus_4 [31:0] $end
$var wire 7 N" ex_opcode [6:0] $end
$var wire 1 f ex_memwrite $end
$var wire 1 g ex_memtoreg $end
$var wire 1 h ex_memread $end
$var wire 2 O" ex_jump [1:0] $end
$var wire 3 P" ex_funct3 [2:0] $end
$var reg 32 Q" mem_alu_result [31:0] $end
$var reg 3 R" mem_funct3 [2:0] $end
$var reg 2 S" mem_jump [1:0] $end
$var reg 1 ; mem_memread $end
$var reg 1 : mem_memtoreg $end
$var reg 1 9 mem_memwrite $end
$var reg 7 T" mem_opcode [6:0] $end
$var reg 32 U" mem_pc_plus_4 [31:0] $end
$var reg 32 V" mem_pc_target [31:0] $end
$var reg 5 W" mem_rd [4:0] $end
$var reg 1 6 mem_regwrite $end
$var reg 1 5 mem_taken $end
$var reg 32 X" mem_writedata [31:0] $end
$upscope $end
$scope module m_forwarding $end
$var wire 7 Y" mem_opcode [6:0] $end
$var wire 5 Z" mem_rd [4:0] $end
$var wire 5 [" wb_rd [4:0] $end
$var wire 7 \" wb_opcode [6:0] $end
$var wire 5 ]" ex_rs2 [4:0] $end
$var wire 5 ^" ex_rs1 [4:0] $end
$var wire 7 _" ex_opcode [6:0] $end
$var reg 2 `" forwardA [1:0] $end
$var reg 2 a" forwardB [1:0] $end
$upscope $end
$scope module m_hazard $end
$var wire 32 b" ex_alu_result [31:0] $end
$var wire 1 ] ex_branch_taken $end
$var wire 32 c" ex_branch_target [31:0] $end
$var wire 1 N id_mem_write $end
$var wire 7 d" id_opcode [6:0] $end
$var wire 1 H id_reg_write $end
$var wire 5 e" id_rs1 [4:0] $end
$var wire 5 f" id_rs2 [4:0] $end
$var wire 32 g" if_pc_plus_4 [31:0] $end
$var wire 1 C if_flush $end
$var wire 5 h" ex_rd [4:0] $end
$var wire 7 i" ex_opcode [6:0] $end
$var wire 2 j" ex_jump [1:0] $end
$var reg 1 k" Load_dep_1 $end
$var reg 1 l" Load_dep_2 $end
$var reg 32 m" NEXT_PC [31:0] $end
$var reg 1 n" ex_mem_flush $end
$var reg 1 O id_mem_write_real $end
$var reg 1 I id_reg_write_real $end
$var reg 1 C if_flush_tmp $end
$var reg 1 ' stall $end
$upscope $end
$scope module m_idex_reg $end
$var wire 1 ! clk $end
$var wire 1 & flush $end
$var wire 2 o" id_aluop [1:0] $end
$var wire 1 Y id_alusrc $end
$var wire 1 X id_branch $end
$var wire 3 p" id_funct3 [2:0] $end
$var wire 7 q" id_funct7 [6:0] $end
$var wire 2 r" id_jump [1:0] $end
$var wire 1 Q id_memread $end
$var wire 1 P id_memtoreg $end
$var wire 1 O id_memwrite $end
$var wire 7 s" id_opcode [6:0] $end
$var wire 5 t" id_rd [4:0] $end
$var wire 1 I id_regwrite $end
$var wire 5 u" id_rs1 [4:0] $end
$var wire 5 v" id_rs2 [4:0] $end
$var wire 1 ' stall $end
$var wire 32 w" id_sextimm [31:0] $end
$var wire 32 x" id_readdata2 [31:0] $end
$var wire 32 y" id_readdata1 [31:0] $end
$var wire 32 z" id_pc_plus_4 [31:0] $end
$var wire 32 {" id_PC [31:0] $end
$var reg 32 |" ex_PC [31:0] $end
$var reg 2 }" ex_aluop [1:0] $end
$var reg 1 o ex_alusrc $end
$var reg 1 n ex_branch $end
$var reg 3 ~" ex_funct3 [2:0] $end
$var reg 7 !# ex_funct7 [6:0] $end
$var reg 2 "# ex_jump [1:0] $end
$var reg 1 h ex_memread $end
$var reg 1 g ex_memtoreg $end
$var reg 1 f ex_memwrite $end
$var reg 7 ## ex_opcode [6:0] $end
$var reg 32 $# ex_pc_plus_4 [31:0] $end
$var reg 5 %# ex_rd [4:0] $end
$var reg 32 &# ex_readdata1 [31:0] $end
$var reg 32 '# ex_readdata2 [31:0] $end
$var reg 1 a ex_regwrite $end
$var reg 5 (# ex_rs1 [4:0] $end
$var reg 5 )# ex_rs2 [4:0] $end
$var reg 32 *# ex_sextimm [31:0] $end
$upscope $end
$scope module m_ifid_reg $end
$var wire 1 ! clk $end
$var wire 32 +# if_PC [31:0] $end
$var wire 1 C if_flush $end
$var wire 1 ' stall $end
$var wire 32 ,# if_pc_plus_4 [31:0] $end
$var wire 32 -# if_instruction [31:0] $end
$var reg 32 .# id_PC [31:0] $end
$var reg 1 V id_flush $end
$var reg 32 /# id_instruction [31:0] $end
$var reg 32 0# id_pc_plus_4 [31:0] $end
$upscope $end
$scope module m_immediate_generator $end
$var wire 32 1# instruction [31:0] $end
$var wire 7 2# opcode [6:0] $end
$var reg 32 3# sextimm [31:0] $end
$upscope $end
$scope module m_instruction_memory $end
$var wire 32 4# address [31:0] $end
$var reg 32 5# instruction [31:0] $end
$upscope $end
$scope module m_memwb_reg $end
$var wire 1 ! clk $end
$var wire 32 6# mem_alu_result [31:0] $end
$var wire 2 7# mem_jump [1:0] $end
$var wire 1 : mem_memtoreg $end
$var wire 7 8# mem_opcode [6:0] $end
$var wire 32 9# mem_pc_plus_4 [31:0] $end
$var wire 5 :# mem_rd [4:0] $end
$var wire 32 ;# mem_readdata [31:0] $end
$var wire 1 6 mem_regwrite $end
$var reg 32 <# wb_alu_result [31:0] $end
$var reg 2 =# wb_jump [1:0] $end
$var reg 1 / wb_memtoreg $end
$var reg 7 ># wb_opcode [6:0] $end
$var reg 32 ?# wb_pc_plus_4 [31:0] $end
$var reg 5 @# wb_rd [4:0] $end
$var reg 32 A# wb_readdata [31:0] $end
$var reg 1 + wb_regwrite $end
$upscope $end
$scope module m_mux_2x1 $end
$var wire 32 B# in1 [31:0] $end
$var wire 32 C# in2 [31:0] $end
$var wire 1 / select $end
$var reg 32 D# out [31:0] $end
$upscope $end
$scope module m_pc_plus_4_adder $end
$var wire 32 E# in_a [31:0] $end
$var wire 32 F# in_b [31:0] $end
$var reg 32 G# result [31:0] $end
$upscope $end
$scope module m_register_file $end
$var wire 1 ! clk $end
$var wire 32 H# readdata1 [31:0] $end
$var wire 32 I# readdata2 [31:0] $end
$var wire 5 J# readreg1 [4:0] $end
$var wire 5 K# readreg2 [4:0] $end
$var wire 1 + wen $end
$var wire 32 L# writedata [31:0] $end
$var wire 5 M# writereg [4:0] $end
$upscope $end
$upscope $end
$upscope $end
$enddefinitions $end
#0
$dumpvars
bx M#
bx L#
bx K#
bx J#
bx I#
bx H#
bx G#
bx F#
b100 E#
bx D#
bx C#
bx B#
bx A#
bx @#
bx ?#
bx >#
bx =#
bx <#
b0 ;#
bx :#
bx 9#
bx 8#
bx 7#
bx 6#
bx 5#
bx 4#
bx 3#
bx 2#
bx 1#
bx 0#
bx /#
bx .#
bx -#
bx ,#
bx +#
bx *#
bx )#
bx (#
bx '#
bx &#
bx %#
bx $#
bx ##
bx "#
bx !#
bx ~"
bx }"
bx |"
bx {"
bx z"
bx y"
bx x"
bx w"
bx v"
bx u"
bx t"
bx s"
bx r"
bx q"
bx p"
bx o"
xn"
bx m"
xl"
xk"
bx j"
bx i"
bx h"
bx g"
bx f"
bx e"
bx d"
bx c"
bx b"
bx a"
bx `"
bx _"
bx ^"
bx ]"
bx \"
bx ["
bx Z"
bx Y"
bx X"
bx W"
bx V"
bx U"
bx T"
bx S"
bx R"
bx Q"
bx P"
bx O"
bx N"
bx M"
bx L"
bx K"
bx J"
bx I"
b0 H"
bx G"
bx F"
bx E"
bx D"
bx C"
bx B"
bx A"
bx @"
bx ?"
bx >"
bx ="
bx <"
bx ;"
bx :"
bx 9"
bx 8"
bx 7"
bx 6"
bx 5"
bx 4"
bx 3"
bx 2"
bx 1"
bx 0"
bx /"
bx ."
bx -"
bx ,"
bx +"
bx *"
bx )"
bx ("
bx '"
bx &"
bx %"
bx $"
bx #"
bx ""
x!"
bx ~
bx }
bx |
bx {
xz
bx y
bx x
bx w
bx v
bx u
bx t
bx s
bx r
bx q
bx p
xo
xn
xm
bx l
bx k
bx j
bx i
xh
xg
xf
bx e
bx d
bx c
bx b
xa
bx `
bx _
bx ^
x]
bx \
bx [
bx Z
xY
xX
bx W
xV
bx U
bx T
bx S
bx R
xQ
xP
xO
xN
bx M
bx L
bx K
bx J
xI
xH
bx G
bx F
bx E
bx D
xC
bx B
bx A
bx @
bx ?
bx >
bx =
b0 <
x;
x:
x9
bx 8
bx 7
x6
x5
bx 4
bx 3
bx 2
bx 1
bx 0
x/
bx .
bx -
bx ,
x+
bx *
bx )
bx (
x'
x&
bx %
bx $
bx #
0"
0!
$end
#500
0C
b100 3
b100 m"
b0 *
b0 D#
b0 B
b0 -#
b0 5#
b100 D
b100 g"
b100 ,#
b100 G#
b0 ,
b0 A#
b0 C#
b0 $
b0 +#
b0 {
b0 4#
b0 F#
1!
#1000
0!
#1500
0I
0O
0'
b0 R
b0 A"
b0 r"
0X
0Q
0P
b0 Z
b0 B"
b0 o"
0N
b0 W
0Y
0H
0l"
0k"
0&
b0 C"
b0 E
b0 w"
b0 3#
b0 2#
b0 L
b0 t"
b0 J
b0 x"
b0 I#
b0 F
b0 f"
b0 v"
b0 K#
b0 K
b0 y"
b0 H#
b0 G
b0 e"
b0 u"
b0 J#
b0 U
b0 p"
b0 T
b0 q"
b0 M
b0 @"
b0 d"
b0 s"
0V
b0 S
b0 /#
b0 1#
b100 [
b100 z"
b100 0#
b0 \
b0 {"
b0 .#
1!
#2000
0!
#2500
b0 w
b0 4"
b0 I"
b0 b"
1m
b0 q
b0 &"
b0 K"
b0 )
b0 +"
b0 1"
b0 (
b0 0"
b0 2"
b0 u
b0 $"
b0 ."
b0 a"
b0 v
b0 )"
b0 `"
b0 x
b0 /"
b0 <"
b0 y
b0 3"
b0 9"
0]
b0 r
b0 ?"
b0 J"
b0 c"
b0 e
b0 N"
b0 _"
b0 i"
b0 ##
b0 d
b0 L"
b0 h"
b0 %#
b0 _
b0 ]"
b0 )#
b0 `
b0 ^"
b0 (#
b0 b
b0 %"
b0 ;"
b0 '#
b0 c
b0 *"
b0 &#
b0 7"
b0 k
b0 6"
b0 P"
b0 ~"
b0 j
b0 5"
b0 !#
b0 ^
b0 :"
b0 ="
b0 *#
0a
0g
0f
0h
b0 i
b0 O"
b0 j"
b0 "#
0o
b0 p
b0 8"
b0 }"
b0 l
0n
b100 s
b100 M"
b100 $#
b0 t
b0 >"
b0 |"
1!
#3000
0!
#3500
0!"
b0 ~
b0 D"
b0 F"
0z
b0 %
b0 ""
b0 '"
b0 ,"
b0 }
b0 7
b0 W"
b0 Z"
b0 :#
b0 8
b0 T"
b0 Y"
b0 8#
06
09
b0 >
b0 R"
b0 4
b0 E"
b0 X"
b0 ?
b0 G"
b0 Q"
b0 6#
0:
b0 =
b0 S"
b0 7#
0;
05
b0 @
b0 V"
b100 A
b100 U"
b100 9#
1!
#4000
0!
#4500
b0 |
b0 #"
b0 ("
b0 -"
b0 L#
b0 .
b0 \"
b0 >#
b0 -
b0 ["
b0 @#
b0 M#
b0 1
b0 <#
b0 B#
0+
0/
b0 0
b0 =#
b100 2
b100 ?#
1!
#5000
0!
#5500
1!
#6000
0!
1"
#6500
b1000 3
b1000 m"
b1000010000000000000001101111 B
b1000010000000000000001101111 -#
b1000010000000000000001101111 5#
b1000 D
b1000 g"
b1000 ,#
b1000 G#
b100 $
b100 +#
b100 {
b100 4#
b100 F#
1!
#7000
0!
#7500
1I
b1100000001 W
b11 R
b11 A"
b11 r"
1H
b1100 3
b1100 m"
b1100000001 C"
b11111110000000010000000100010011 B
b11111110000000010000000100010011 -#
b11111110000000010000000100010011 5#
b1100 D
b1100 g"
b1100 ,#
b1100 G#
b10000100 E
b10000100 w"
b10000100 3#
b1101111 2#
b100 F
b100 f"
b100 v"
b100 K#
b100 T
b100 q"
b1101111 M
b1101111 @"
b1101111 d"
b1101111 s"
b1000 $
b1000 +#
b1000 {
b1000 4#
b1000 F#
b1000010000000000000001101111 S
b1000010000000000000001101111 /#
b1000010000000000000001101111 1#
b1000 [
b1000 z"
b1000 0#
b100 \
b100 {"
b100 .#
1!
#8000
0!
#8500
b0 R
b0 A"
b0 r"
b11 Z
b11 B"
b11 o"
1Y
b11011 C"
1&
b11111111111111111111111111100000 E
b11111111111111111111111111100000 w"
b11111111111111111111111111100000 3#
b10011 2#
b10 L
b10 t"
b0 F
b0 f"
b0 v"
b0 K#
b1000000000 K
b1000000000 y"
b1000000000 H#
b10 G
b10 e"
b10 u"
b10 J#
b1111111 T
b1111111 q"
b10011 M
b10011 @"
b10011 d"
b10011 s"
1C
b11010 W
0I
b10001000 3
b10001000 m"
b10001000 r
b10001000 ?"
b10001000 J"
b10001000 c"
b100010010111000100011 B
b100010010111000100011 -#
b100010010111000100011 5#
b10000 D
b10000 g"
b10000 ,#
b10000 G#
b11111110000000010000000100010011 S
b11111110000000010000000100010011 /#
b11111110000000010000000100010011 1#
b1100 [
b1100 z"
b1100 0#
b1000 \
b1000 {"
b1000 .#
b1101111 e
b1101111 N"
b1101111 _"
b1101111 i"
b1101111 ##
b100 _
b100 ]"
b100 )#
b100 j
b100 5"
b100 !#
b10000100 ^
b10000100 :"
b10000100 ="
b10000100 *#
1a
b1100000001 l
b11 i
b11 O"
b11 j"
b11 "#
b1000 s
b1000 M"
b1000 $#
b100 t
b100 >"
b100 |"
b1100 $
b1100 +#
b1100 {
b1100 4#
b1100 F#
1!
#9000
0!
#9500
0m
b1000000000 w
b1000000000 4"
b1000000000 I"
b1000000000 b"
b0 Z
b0 B"
b0 o"
0Y
0H
b11111110000000010000000100010011 B
b11111110000000010000000100010011 -#
b11111110000000010000000100010011 5#
b10001100 D
b10001100 g"
b10001100 ,#
b10001100 G#
b1000000000 )
b1000000000 +"
b1000000000 1"
b1000 7"
0C
b0 W
0I
b10001100 3
b10001100 m"
b11111111111111111111111111101000 r
b11111111111111111111111111101000 ?"
b11111111111111111111111111101000 J"
b11111111111111111111111111101000 c"
b0 C"
b11100 E
b11100 w"
b11100 3#
b100011 2#
b11100 L
b11100 t"
b1 F
b1 f"
b1 v"
b1 K#
b10 U
b10 p"
b0 T
b0 q"
b100011 M
b100011 @"
b100011 d"
b100011 s"
b10001000 $
b10001000 +#
b10001000 {
b10001000 4#
b10001000 F#
b1101111 8
b1101111 T"
b1101111 Y"
b1101111 8#
16
b11 =
b11 S"
b11 7#
b10001000 @
b10001000 V"
b1000 A
b1000 U"
b1000 9#
b10011 e
b10011 N"
b10011 _"
b10011 i"
b10011 ##
b0 _
b0 ]"
b0 )#
b1000000000 c
b1000000000 *"
b1000000000 &#
b1111111 j
b1111111 5"
b1111111 !#
b11111111111111111111111111100000 ^
b11111111111111111111111111100000 :"
b11111111111111111111111111100000 ="
b11111111111111111111111111100000 *#
0a
b0 l
b0 i
b0 O"
b0 j"
b0 "#
b1100 s
b1100 M"
b1100 $#
b1000 t
b1000 >"
b1000 |"
1V
b100010010111000100011 S
b100010010111000100011 /#
b100010010111000100011 1#
b10000 [
b10000 z"
b10000 0#
b1100 \
b1100 {"
b1100 .#
1!
#10000
0!
#10500
1I
b11 Z
b11 B"
b11 o"
b11011 W
1Y
1H
b10010000 3
b10010000 m"
0&
b11011 C"
b11111111111111111111111111100000 E
b11111111111111111111111111100000 w"
b11111111111111111111111111100000 3#
b10011 2#
b10 L
b10 t"
b0 F
b0 f"
b0 v"
b0 K#
b0 U
b0 p"
b1111111 T
b1111111 q"
b10011 M
b10011 @"
b10011 d"
b10011 s"
b101000 r
b101000 ?"
b101000 J"
b101000 c"
b10000000 F"
b1000000000 %
b1000000000 ""
b1000000000 '"
b1000000000 ,"
b1000000000 }
b1000 |
b1000 #"
b1000 ("
b1000 -"
b1000 L#
b100010010111000100011 B
b100010010111000100011 -#
b100010010111000100011 5#
b10010000 D
b10010000 g"
b10010000 ,#
b10010000 G#
0V
b11111110000000010000000100010011 S
b11111110000000010000000100010011 /#
b11111110000000010000000100010011 1#
b10001100 [
b10001100 z"
b10001100 0#
b10001000 \
b10001000 {"
b10001000 .#
b100011 e
b100011 N"
b100011 _"
b100011 i"
b100011 ##
b10 7"
b10 k
b10 6"
b10 P"
b10 ~"
b0 j
b0 5"
b0 !#
b11100 ^
b11100 :"
b11100 ="
b11100 *#
b10000 s
b10000 M"
b10000 $#
b1100 t
b1100 >"
b1100 |"
b10011 8
b10011 T"
b10011 Y"
b10011 8#
06
b1000000000 ?
b1000000000 G"
b1000000000 Q"
b1000000000 6#
b0 =
b0 S"
b0 7#
b11111111111111111111111111101000 @
b11111111111111111111111111101000 V"
b1100 A
b1100 U"
b1100 9#
b1101111 .
b1101111 \"
b1101111 >#
1+
b11 0
b11 =#
b1000 2
b1000 ?#
b10001100 $
b10001100 +#
b10001100 {
b10001100 4#
b10001100 F#
1!
#11000
b0 J
b0 x"
b0 I#
0!
#11500
0I
1O
b111100000 w
b111100000 4"
b111100000 I"
b111100000 b"
b110 W
b0 Z
b0 B"
b0 o"
1N
0H
b11111111111111111111111111100000 (
b11111111111111111111111111100000 0"
b11111111111111111111111111100000 2"
b10010100 3
b10010100 m"
b110 C"
b100000010010110000100011 B
b100000010010110000100011 -#
b100000010010110000100011 5#
b10010100 D
b10010100 g"
b10010100 ,#
b10010100 G#
b1000000000 *
b1000000000 D#
b1000000000 |
b1000000000 #"
b1000000000 ("
b1000000000 -"
b1000000000 L#
b10 ~
b10 D"
b11111111111111111111111111100000 x
b11111111111111111111111111100000 /"
b11111111111111111111111111100000 <"
b1101000 r
b1101000 ?"
b1101000 J"
b1101000 c"
b11100 E
b11100 w"
b11100 3#
b100011 2#
b11100 L
b11100 t"
b1 F
b1 f"
b1 v"
b1 K#
b10 U
b10 p"
b0 T
b0 q"
b100011 M
b100011 @"
b100011 d"
b100011 s"
b10010000 $
b10010000 +#
b10010000 {
b10010000 4#
b10010000 F#
b10011 .
b10011 \"
b10011 >#
b1000000000 1
b1000000000 <#
b1000000000 B#
0+
b0 0
b0 =#
b1100 2
b1100 ?#
b100011 8
b100011 T"
b100011 Y"
b100011 8#
b10 >
b10 R"
b101000 @
b101000 V"
b10000 A
b10000 U"
b10000 9#
b10011 e
b10011 N"
b10011 _"
b10011 i"
b10011 ##
b10 d
b10 L"
b10 h"
b10 %#
b10 `
b10 ^"
b10 (#
b1000 7"
b0 k
b0 6"
b0 P"
b0 ~"
b1111111 j
b1111111 5"
b1111111 !#
b11111111111111111111111111100000 ^
b11111111111111111111111111100000 :"
b11111111111111111111111111100000 ="
b11111111111111111111111111100000 *#
1a
1o
b11011 l
b11 p
b11 8"
b11 }"
b10001100 s
b10001100 M"
b10001100 $#
b10001000 t
b10001000 >"
b10001000 |"
b100010010111000100011 S
b100010010111000100011 /#
b100010010111000100011 1#
b10010000 [
b10010000 z"
b10010000 0#
b10001100 \
b10001100 {"
b10001100 .#
1!
#12000
0!
#12500
b111111100 w
b111111100 4"
b111111100 I"
b111111100 b"
b11100 (
b11100 0"
b11100 2"
b111100000 )
b111100000 +"
b111100000 1"
b10011000 3
b10011000 m"
b11000 E
b11000 w"
b11000 3#
b11000 L
b11000 t"
b1000 F
b1000 f"
b1000 v"
b1000 K#
b11100 x
b11100 /"
b11100 <"
b10101000 r
b10101000 ?"
b10101000 J"
b10101000 c"
b0 ~
b0 D"
b1111000 F"
b111100000 %
b111100000 ""
b111100000 '"
b111100000 ,"
b111100000 }
b1 v
b1 )"
b1 `"
b10000000010000010000010011 B
b10000000010000010000010011 -#
b10000000010000010000010011 5#
b10011000 D
b10011000 g"
b10011000 ,#
b10011000 G#
b100000010010110000100011 S
b100000010010110000100011 /#
b100000010010110000100011 1#
b10010100 [
b10010100 z"
b10010100 0#
b10010000 \
b10010000 {"
b10010000 .#
b100011 e
b100011 N"
b100011 _"
b100011 i"
b100011 ##
b11100 d
b11100 L"
b11100 h"
b11100 %#
b1 _
b1 ]"
b1 )#
b10 7"
b10 k
b10 6"
b10 P"
b10 ~"
b0 j
b0 5"
b0 !#
b11100 ^
b11100 :"
b11100 ="
b11100 *#
0a
1f
b110 l
b0 p
b0 8"
b0 }"
b10010000 s
b10010000 M"
b10010000 $#
b10001100 t
b10001100 >"
b10001100 |"
b10 7
b10 W"
b10 Z"
b10 :#
b10011 8
b10011 T"
b10011 Y"
b10011 8#
16
b0 >
b0 R"
b111100000 ?
b111100000 G"
b111100000 Q"
b111100000 6#
b1101000 @
b1101000 V"
b10001100 A
b10001100 U"
b10001100 9#
b100011 .
b100011 \"
b100011 >#
b10000 2
b10000 ?#
b10010100 $
b10010100 +#
b10010100 {
b10010100 4#
b10010100 F#
1!
#13000
0!
#13500
1I
0O
b111111000 w
b111111000 4"
b111111000 I"
b111111000 b"
b11011 W
b11 Z
b11 B"
b11 o"
0N
1H
b10011100 3
b10011100 m"
b111100000 |
b111100000 #"
b111100000 ("
b111100000 -"
b111100000 L#
b111100000 )
b111100000 +"
b111100000 1"
b11000 (
b11000 0"
b11000 2"
b11011 C"
b1100000000011110010011 B
b1100000000011110010011 -#
b1100000000011110010011 5#
b10011100 D
b10011100 g"
b10011100 ,#
b10011100 G#
b111100000 *
b111100000 D#
b10 ~
b10 D"
b1111111 F"
b111111100 %
b111111100 ""
b111111100 '"
b111111100 ,"
b111111100 }
b10 v
b10 )"
b10 `"
b11000 x
b11000 /"
b11000 <"
b100000 E
b100000 w"
b100000 3#
b10011 2#
b1000 L
b1000 t"
b0 F
b0 f"
b0 v"
b0 K#
b0 U
b0 p"
b1 T
b1 q"
b10011 M
b10011 @"
b10011 d"
b10011 s"
b10011000 $
b10011000 +#
b10011000 {
b10011000 4#
b10011000 F#
b10011 .
b10011 \"
b10011 >#
b10 -
b10 ["
b10 @#
b10 M#
b111100000 1
b111100000 <#
b111100000 B#
1+
b10001100 2
b10001100 ?#
b11100 7
b11100 W"
b11100 Z"
b11100 :#
b100011 8
b100011 T"
b100011 Y"
b100011 8#
06
19
b10 >
b10 R"
b111111100 ?
b111111100 G"
b111111100 Q"
b111111100 6#
b10101000 @
b10101000 V"
b10010000 A
b10010000 U"
b10010000 9#
b11000 d
b11000 L"
b11000 h"
b11000 %#
b1000 _
b1000 ]"
b1000 )#
b11000 ^
b11000 :"
b11000 ="
b11000 *#
b10010100 s
b10010100 M"
b10010100 $#
b10010000 t
b10010000 >"
b10010000 |"
b10000000010000010000010011 S
b10000000010000010000010011 /#
b10000000010000010000010011 1#
b10011000 [
b10011000 z"
b10011000 0#
b10010100 \
b10010100 {"
b10010100 .#
1!
#14000
b111100000 K
b111100000 y"
b111100000 H#
0!
