sim.vcd
$date
	Tue May  3 23:31:57 2022
$end
$version
	Icarus Verilog
$end
$timescale
	10ps
$end
$scope module riscv_tb $end
$var reg 1 ! clk $end
$var reg 1 " rstn $end
$var integer 32 # i [31:0] $end
$scope module my_cpu $end
$var wire 32 $ IF_PC [31:0] $end
$var wire 1 ! clk $end
$var wire 1 " rstn $end
$var wire 32 % alu_in_2 [31:0] $end
$var wire 32 & alu_in_1 [31:0] $end
$var wire 32 ' WB_tmp_write_data [31:0] $end
$var wire 1 ( WB_regwrite $end
$var wire 32 ) WB_readdata [31:0] $end
$var wire 5 * WB_rd [4:0] $end
$var wire 7 + WB_opcode [6:0] $end
$var wire 1 , WB_memtoreg $end
$var wire 2 - WB_jump [1:0] $end
$var wire 32 . WB_alu_result [31:0] $end
$var wire 32 / WB_PC_PLUS_4 [31:0] $end
$var wire 32 0 NEXT_PC [31:0] $end
$var wire 32 1 MEM_writedata [31:0] $end
$var wire 1 2 MEM_taken $end
$var wire 1 3 MEM_regwrite $end
$var wire 5 4 MEM_rd [4:0] $end
$var wire 7 5 MEM_opcode [6:0] $end
$var wire 1 6 MEM_memwrite $end
$var wire 1 7 MEM_memtoreg $end
$var wire 1 8 MEM_memread $end
$var wire 32 9 MEM_mem_read_data [31:0] $end
$var wire 2 : MEM_jump [1:0] $end
$var wire 3 ; MEM_funct3 [2:0] $end
$var wire 32 < MEM_alu_result [31:0] $end
$var wire 32 = MEM_PC_target [31:0] $end
$var wire 32 > MEM_PC_PLUS_4 [31:0] $end
$var wire 32 ? IF_instruction [31:0] $end
$var wire 1 @ IF_flush $end
$var wire 32 A IF_PC_PLUS_4 [31:0] $end
$var wire 32 B ID_sextimm [31:0] $end
$var wire 5 C ID_rs2 [4:0] $end
$var wire 5 D ID_rs1 [4:0] $end
$var wire 1 E ID_reg_write_tmp $end
$var wire 1 F ID_reg_write $end
$var wire 32 G ID_readdata2 [31:0] $end
$var wire 32 H ID_readdata1 [31:0] $end
$var wire 5 I ID_rd [4:0] $end
$var wire 7 J ID_opcode [6:0] $end
$var wire 1 K ID_mem_write_tmp $end
$var wire 1 L ID_mem_write $end
$var wire 1 M ID_mem_to_reg $end
$var wire 1 N ID_mem_read $end
$var wire 2 O ID_jump [1:0] $end
$var wire 32 P ID_instruction [31:0] $end
$var wire 7 Q ID_funct7 [6:0] $end
$var wire 3 R ID_funct3 [2:0] $end
$var wire 1 S ID_flush $end
$var wire 1 T ID_branch $end
$var wire 1 U ID_alu_src $end
$var wire 2 V ID_alu_op [1:0] $end
$var wire 32 W ID_PC_PLUS_4 [31:0] $end
$var wire 32 X ID_PC [31:0] $end
$var wire 1 Y EX_taken $end
$var wire 32 Z EX_sextimm [31:0] $end
$var wire 5 [ EX_rs2 [4:0] $end
$var wire 5 \ EX_rs1 [4:0] $end
$var wire 1 ] EX_regwrite $end
$var wire 32 ^ EX_readdata2 [31:0] $end
$var wire 32 _ EX_readdata1 [31:0] $end
$var wire 5 ` EX_rd [4:0] $end
$var wire 7 a EX_opcode [6:0] $end
$var wire 1 b EX_memwrite $end
$var wire 1 c EX_memtoreg $end
$var wire 1 d EX_memread $end
$var wire 2 e EX_jump [1:0] $end
$var wire 7 f EX_funct7 [6:0] $end
$var wire 3 g EX_funct3 [2:0] $end
$var wire 1 h EX_check $end
$var wire 1 i EX_branch $end
$var wire 1 j EX_alusrc $end
$var wire 2 k EX_aluop [1:0] $end
$var wire 32 l EX_PC_branch_target [31:0] $end
$var wire 32 m EX_PC_PLUS_4 [31:0] $end
$var wire 32 n EX_PC [31:0] $end
$var wire 2 o EX_ForwardB [1:0] $end
$var wire 2 p EX_ForwardA [1:0] $end
$var wire 32 q EX_ALU_result [31:0] $end
$var wire 32 r EX_ALU_in [31:0] $end
$var wire 4 s EX_ALU_func [3:0] $end
$var reg 32 t PC [31:0] $end
$var reg 32 u WB_write_data [31:0] $end
$var reg 2 v maskmode [1:0] $end
$var reg 1 w sext $end
$scope module alu_in_1_mux $end
$var wire 2 x select [1:0] $end
$var wire 32 y in3 [31:0] $end
$var wire 32 z in2 [31:0] $end
$var wire 32 { in1 [31:0] $end
$var reg 32 | out [31:0] $end
$upscope $end
$scope module alu_in_2_mux $end
$var wire 2 } select [1:0] $end
$var wire 32 ~ in3 [31:0] $end
$var wire 32 !" in2 [31:0] $end
$var wire 32 "" in1 [31:0] $end
$var reg 32 #" out [31:0] $end
$upscope $end
$scope module m_alu $end
$var wire 32 $" in_a [31:0] $end
$var wire 32 %" in_b [31:0] $end
$var wire 4 &" alu_func [3:0] $end
$var reg 1 h check $end
$var reg 32 '" result [31:0] $end
$upscope $end
$scope module m_alu_control $end
$var wire 7 (" funct7 [6:0] $end
$var wire 3 )" funct3 [2:0] $end
$var wire 4 *" funct [3:0] $end
$var wire 2 +" alu_op [1:0] $end
$var reg 4 ," alu_func [3:0] $end
$upscope $end
$scope module m_alu_mux $end
$var wire 1 j select $end
$var wire 32 -" in2 [31:0] $end
$var wire 32 ." in1 [31:0] $end
$var reg 32 /" out [31:0] $end
$upscope $end
$scope module m_branch_control $end
$var wire 1 h check $end
$var wire 1 i branch $end
$var reg 1 Y taken $end
$upscope $end
$scope module m_branch_target_adder $end
$var wire 32 0" in_b [31:0] $end
$var wire 32 1" in_a [31:0] $end
$var reg 32 2" result [31:0] $end
$upscope $end
$scope module m_control $end
$var wire 7 3" opcode [6:0] $end
$var wire 1 E reg_write $end
$var wire 1 K mem_write $end
$var wire 1 M mem_to_reg $end
$var wire 1 N mem_read $end
$var wire 2 4" jump [1:0] $end
$var wire 1 S id_flush $end
$var wire 1 T branch $end
$var wire 1 U alu_src $end
$var wire 2 5" alu_op [1:0] $end
$var reg 10 6" controls [9:0] $end
$upscope $end
$scope module m_data_memory $end
$var wire 1 ! clk $end
$var wire 2 7" maskmode [1:0] $end
$var wire 1 w sext $end
$var wire 32 8" write_data [31:0] $end
$var wire 1 6 mem_write $end
$var wire 1 8 mem_read $end
$var wire 8 9" address_internal [7:0] $end
$var wire 32 :" address [31:0] $end
$var reg 32 ;" read_data [31:0] $end
$upscope $end
$scope module m_exmem_reg $end
$var wire 1 ! clk $end
$var wire 32 <" ex_alu_result [31:0] $end
$var wire 32 =" ex_pc_target [31:0] $end
$var wire 1 Y ex_taken $end
$var wire 32 >" ex_writedata [31:0] $end
$var wire 1 ] ex_regwrite $end
$var wire 5 ?" ex_rd [4:0] $end
$var wire 32 @" ex_pc_plus_4 [31:0] $end
$var wire 7 A" ex_opcode [6:0] $end
$var wire 1 b ex_memwrite $end
$var wire 1 c ex_memtoreg $end
$var wire 1 d ex_memread $end
$var wire 2 B" ex_jump [1:0] $end
$var wire 3 C" ex_funct3 [2:0] $end
$var reg 32 D" mem_alu_result [31:0] $end
$var reg 3 E" mem_funct3 [2:0] $end
$var reg 2 F" mem_jump [1:0] $end
$var reg 1 8 mem_memread $end
$var reg 1 7 mem_memtoreg $end
$var reg 1 6 mem_memwrite $end
$var reg 7 G" mem_opcode [6:0] $end
$var reg 32 H" mem_pc_plus_4 [31:0] $end
$var reg 32 I" mem_pc_target [31:0] $end
$var reg 5 J" mem_rd [4:0] $end
$var reg 1 3 mem_regwrite $end
$var reg 1 2 mem_taken $end
$var reg 32 K" mem_writedata [31:0] $end
$upscope $end
$scope module m_forwarding $end
$var wire 7 L" mem_opcode [6:0] $end
$var wire 5 M" mem_rd [4:0] $end
$var wire 5 N" wb_rd [4:0] $end
$var wire 7 O" wb_opcode [6:0] $end
$var wire 5 P" ex_rs2 [4:0] $end
$var wire 5 Q" ex_rs1 [4:0] $end
$var reg 2 R" forwardA [1:0] $end
$var reg 2 S" forwardB [1:0] $end
$upscope $end
$scope module m_hazard $end
$var wire 32 T" ex_alu_result [31:0] $end
$var wire 1 Y ex_branch_taken $end
$var wire 32 U" ex_branch_target [31:0] $end
$var wire 1 K id_mem_write $end
$var wire 1 E id_reg_write $end
$var wire 1 @ if_flush $end
$var wire 32 V" if_pc_plus_4 [31:0] $end
$var wire 2 W" ex_jump [1:0] $end
$var reg 32 X" NEXT_PC [31:0] $end
$var reg 1 L id_mem_write_real $end
$var reg 1 F id_reg_write_real $end
$var reg 1 Y" if_flush_tmp $end
$upscope $end
$scope module m_idex_reg $end
$var wire 1 ! clk $end
$var wire 2 Z" id_aluop [1:0] $end
$var wire 1 U id_alusrc $end
$var wire 1 T id_branch $end
$var wire 3 [" id_funct3 [2:0] $end
$var wire 7 \" id_funct7 [6:0] $end
$var wire 2 ]" id_jump [1:0] $end
$var wire 1 N id_memread $end
$var wire 1 M id_memtoreg $end
$var wire 1 L id_memwrite $end
$var wire 7 ^" id_opcode [6:0] $end
$var wire 5 _" id_rd [4:0] $end
$var wire 1 F id_regwrite $end
$var wire 5 `" id_rs1 [4:0] $end
$var wire 5 a" id_rs2 [4:0] $end
$var wire 32 b" id_sextimm [31:0] $end
$var wire 32 c" id_readdata2 [31:0] $end
$var wire 32 d" id_readdata1 [31:0] $end
$var wire 32 e" id_pc_plus_4 [31:0] $end
$var wire 32 f" id_PC [31:0] $end
$var reg 32 g" ex_PC [31:0] $end
$var reg 2 h" ex_aluop [1:0] $end
$var reg 1 j ex_alusrc $end
$var reg 1 i ex_branch $end
$var reg 3 i" ex_funct3 [2:0] $end
$var reg 7 j" ex_funct7 [6:0] $end
$var reg 2 k" ex_jump [1:0] $end
$var reg 1 d ex_memread $end
$var reg 1 c ex_memtoreg $end
$var reg 1 b ex_memwrite $end
$var reg 7 l" ex_opcode [6:0] $end
$var reg 32 m" ex_pc_plus_4 [31:0] $end
$var reg 5 n" ex_rd [4:0] $end
$var reg 32 o" ex_readdata1 [31:0] $end
$var reg 32 p" ex_readdata2 [31:0] $end
$var reg 1 ] ex_regwrite $end
$var reg 5 q" ex_rs1 [4:0] $end
$var reg 5 r" ex_rs2 [4:0] $end
$var reg 32 s" ex_sextimm [31:0] $end
$upscope $end
$scope module m_ifid_reg $end
$var wire 1 ! clk $end
$var wire 32 t" if_PC [31:0] $end
$var wire 1 @ if_flush $end
$var wire 32 u" if_pc_plus_4 [31:0] $end
$var wire 32 v" if_instruction [31:0] $end
$var reg 32 w" id_PC [31:0] $end
$var reg 1 S id_flush $end
$var reg 32 x" id_instruction [31:0] $end
$var reg 32 y" id_pc_plus_4 [31:0] $end
$upscope $end
$scope module m_immediate_generator $end
$var wire 32 z" instruction [31:0] $end
$var wire 7 {" opcode [6:0] $end
$var reg 32 |" sextimm [31:0] $end
$upscope $end
$scope module m_instruction_memory $end
$var wire 32 }" address [31:0] $end
$var reg 32 ~" instruction [31:0] $end
$upscope $end
$scope module m_memwb_reg $end
$var wire 1 ! clk $end
$var wire 32 !# mem_alu_result [31:0] $end
$var wire 2 "# mem_jump [1:0] $end
$var wire 1 7 mem_memtoreg $end
$var wire 7 ## mem_opcode [6:0] $end
$var wire 32 $# mem_pc_plus_4 [31:0] $end
$var wire 5 %# mem_rd [4:0] $end
$var wire 32 &# mem_readdata [31:0] $end
$var wire 1 3 mem_regwrite $end
$var reg 32 '# wb_alu_result [31:0] $end
$var reg 2 (# wb_jump [1:0] $end
$var reg 1 , wb_memtoreg $end
$var reg 7 )# wb_opcode [6:0] $end
$var reg 32 *# wb_pc_plus_4 [31:0] $end
$var reg 5 +# wb_rd [4:0] $end
$var reg 32 ,# wb_readdata [31:0] $end
$var reg 1 ( wb_regwrite $end
$upscope $end
$scope module m_mux_2x1 $end
$var wire 32 -# in1 [31:0] $end
$var wire 32 .# in2 [31:0] $end
$var wire 1 , select $end
$var reg 32 /# out [31:0] $end
$upscope $end
$scope module m_pc_plus_4_adder $end
$var wire 32 0# in_a [31:0] $end
$var wire 32 1# in_b [31:0] $end
$var reg 32 2# result [31:0] $end
$upscope $end
$scope module m_register_file $end
$var wire 1 ! clk $end
$var wire 32 3# readdata1 [31:0] $end
$var wire 32 4# readdata2 [31:0] $end
$var wire 5 5# readreg1 [4:0] $end
$var wire 5 6# readreg2 [4:0] $end
$var wire 1 ( wen $end
$var wire 32 7# writedata [31:0] $end
$var wire 5 8# writereg [4:0] $end
$upscope $end
$upscope $end
$upscope $end
$enddefinitions $end
#0
$dumpvars
bx 8#
bx 7#
bx 6#
bx 5#
bx 4#
bx 3#
bx 2#
bx 1#
b100 0#
bx /#
bx .#
bx -#
bx ,#
bx +#
bx *#
bx )#
bx (#
bx '#
b0 &#
bx %#
bx $#
bx ##
bx "#
bx !#
bx ~"
bx }"
bx |"
bx {"
bx z"
bx y"
bx x"
bx w"
bx v"
bx u"
bx t"
bx s"
bx r"
bx q"
bx p"
bx o"
bx n"
bx m"
bx l"
bx k"
bx j"
bx i"
bx h"
bx g"
bx f"
bx e"
bx d"
bx c"
bx b"
bx a"
bx `"
bx _"
bx ^"
bx ]"
bx \"
bx ["
bx Z"
xY"
bx X"
bx W"
bx V"
bx U"
bx T"
bx S"
bx R"
bx Q"
bx P"
bx O"
bx N"
bx M"
bx L"
bx K"
bx J"
bx I"
bx H"
bx G"
bx F"
bx E"
bx D"
bx C"
bx B"
bx A"
bx @"
bx ?"
bx >"
bx ="
bx <"
b0 ;"
bx :"
bx 9"
bx 8"
bx 7"
bx 6"
bx 5"
bx 4"
bx 3"
bx 2"
bx 1"
bx 0"
bx /"
bx ."
bx -"
bx ,"
bx +"
bx *"
bx )"
bx ("
bx '"
bx &"
bx %"
bx $"
bx #"
bx ""
bx !"
bx ~
bx }
bx |
bx {
bx z
bx y
bx x
xw
bx v
bx u
bx t
bx s
bx r
bx q
bx p
bx o
bx n
bx m
bx l
bx k
xj
xi
xh
bx g
bx f
bx e
xd
xc
xb
bx a
bx `
bx _
bx ^
x]
bx \
bx [
bx Z
xY
bx X
bx W
bx V
xU
xT
xS
bx R
bx Q
bx P
bx O
xN
xM
xL
xK
bx J
bx I
bx H
bx G
xF
xE
bx D
bx C
bx B
bx A
x@
bx ?
bx >
bx =
bx <
bx ;
bx :
b0 9
x8
x7
x6
bx 5
bx 4
x3
x2
bx 1
bx 0
bx /
bx .
bx -
x,
bx +
bx *
bx )
x(
bx '
bx &
bx %
bx $
bx #
0"
0!
$end
#500
0@
0Y"
b100 0
b100 X"
b0 '
b0 /#
b0 ?
b0 v"
b0 ~"
b100 A
b100 V"
b100 u"
b100 2#
b0 )
b0 ,#
b0 .#
b0 $
b0 t"
b0 t
b0 }"
b0 1#
1!
#1000
0!
#1500
0F
0L
b0 O
b0 4"
b0 ]"
0T
0N
0M
b0 V
b0 5"
b0 Z"
0K
0U
0E
b0 6"
b0 B
b0 b"
b0 |"
b0 {"
b0 I
b0 _"
b0 G
b0 c"
b0 4#
b0 C
b0 a"
b0 6#
b0 H
b0 d"
b0 3#
b0 D
b0 `"
b0 5#
b0 R
b0 ["
b0 Q
b0 \"
b0 J
b0 3"
b0 ^"
0S
b0 P
b0 x"
b0 z"
b100 W
b100 e"
b100 y"
b0 X
b0 f"
b0 w"
1!
#2000
0!
#2500
b0 q
b0 '"
b0 <"
b0 T"
1h
b0 &
b0 |
b0 $"
b0 %
b0 #"
b0 %"
b0 o
b0 }
b0 S"
b0 p
b0 x
b0 R"
b0 r
b0 ""
b0 /"
b0 s
b0 &"
b0 ,"
0Y
b0 l
b0 2"
b0 ="
b0 U"
b0 a
b0 A"
b0 l"
b0 `
b0 ?"
b0 n"
b0 [
b0 P"
b0 r"
b0 \
b0 Q"
b0 q"
b0 ^
b0 ."
b0 >"
b0 p"
b0 _
b0 {
b0 o"
b0 *"
b0 g
b0 )"
b0 C"
b0 i"
b0 f
b0 ("
b0 j"
b0 Z
b0 -"
b0 0"
b0 s"
0]
0c
0b
0d
b0 e
b0 B"
b0 W"
b0 k"
0j
b0 k
b0 +"
b0 h"
0i
b100 m
b100 @"
b100 m"
b0 n
b0 1"
b0 g"
1!
#3000
0!
#3500
0w
b0 v
b0 7"
b0 9"
b0 5
b0 G"
b0 L"
b0 ##
b0 4
b0 J"
b0 M"
b0 %#
b0 ;
b0 E"
b0 1
b0 8"
b0 K"
b0 <
b0 z
b0 !"
b0 :"
b0 D"
b0 !#
03
07
b0 :
b0 F"
b0 "#
06
08
02
b0 =
b0 I"
b100 >
b100 H"
b100 $#
1!
#4000
0!
#4500
b0 u
b0 7#
b0 *
b0 N"
b0 +#
b0 8#
b0 .
b0 y
b0 ~
b0 '#
b0 -#
0(
0,
b0 -
b0 (#
b100 /
b100 *#
1!
#5000
0!
#5500
1!
#6000
0!
1"
#6500
b1000 0
b1000 X"
b1000001000100000110011 ?
b1000001000100000110011 v"
b1000001000100000110011 ~"
b1000 A
b1000 V"
b1000 u"
b1000 2#
b100 $
b100 t"
b100 t
b100 }"
b100 1#
1!
#7000
0!
#7500
1F
b10 V
b10 5"
b10 Z"
1E
b1100 0
b1100 X"
b10001 6"
b110000000100010110011 ?
b110000000100010110011 v"
b110000000100010110011 ~"
b1100 A
b1100 V"
b1100 u"
b1100 2#
b110011 {"
b10000 I
b10000 _"
b10 G
b10 c"
b10 4#
b10 C
b10 a"
b10 6#
b1 H
b1 d"
b1 3#
b1 D
b1 `"
b1 5#
b110011 J
b110011 3"
b110011 ^"
b1000 $
b1000 t"
b1000 t
b1000 }"
b1000 1#
b1000001000100000110011 P
b1000001000100000110011 x"
b1000001000100000110011 z"
b1000 W
b1000 e"
b1000 y"
b100 X
b100 f"
b100 w"
1!
#8000
0!
#8500
b10 %
b10 #"
b10 %"
0h
b11 q
b11 '"
b11 <"
b11 T"
b10000 0
b10000 X"
b10001 I
b10001 _"
b1 G
b1 c"
b1 4#
b1 C
b1 a"
b1 6#
b0 H
b0 d"
b0 3#
b10000 D
b10000 `"
b10000 5#
b10 r
b10 ""
b10 /"
b1 &
b1 |
b1 $"
b100 l
b100 2"
b100 ="
b100 U"
b1100010000100000110011 ?
b1100010000100000110011 v"
b1100010000100000110011 ~"
b10000 A
b10000 V"
b10000 u"
b10000 2#
b110000000100010110011 P
b110000000100010110011 x"
b110000000100010110011 z"
b1100 W
b1100 e"
b1100 y"
b1000 X
b1000 f"
b1000 w"
b110011 a
b110011 A"
b110011 l"
b10000 `
b10000 ?"
b10000 n"
b10 [
b10 P"
b10 r"
b1 \
b1 Q"
b1 q"
b10 ^
b10 ."
b10 >"
b10 p"
b1 _
b1 {
b1 o"
1]
b10 k
b10 +"
b10 h"
b1000 m
b1000 @"
b1000 m"
b100 n
b100 1"
b100 g"
b1100 $
b1100 t"
b1100 t
b1100 }"
b1100 1#
1!
#9000
0!
#9500
b100 q
b100 '"
b100 <"
b100 T"
b10100 0
b10100 X"
b10100100000100000110011 ?
b10100100000100000110011 v"
b10100100000100000110011 ~"
b10100 A
b10100 V"
b10100 u"
b10100 2#
b1 %
b1 #"
b1 %"
b1 p
b1 x
b1 R"
b1 r
b1 ""
b1 /"
b11 &
b11 |
b11 $"
b1000 l
b1000 2"
b1000 ="
b1000 U"
b10000 I
b10000 _"
b11 G
b11 c"
b11 4#
b11 C
b11 a"
b11 6#
b10 H
b10 d"
b10 3#
b10 D
b10 `"
b10 5#
b10000 $
b10000 t"
b10000 t
b10000 }"
b10000 1#
b110011 5
b110011 G"
b110011 L"
b110011 ##
b10000 4
b10000 J"
b10000 M"
b10000 %#
b10 1
b10 8"
b10 K"
b11 <
b11 z
b11 !"
b11 :"
b11 D"
b11 !#
13
b100 =
b100 I"
b1000 >
b1000 H"
b1000 $#
b10001 `
b10001 ?"
b10001 n"
b1 [
b1 P"
b1 r"
b10000 \
b10000 Q"
b10000 q"
b1 ^
b1 ."
b1 >"
b1 p"
b0 _
b0 {
b0 o"
b1100 m
b1100 @"
b1100 m"
b1000 n
b1000 1"
b1000 g"
b1100010000100000110011 P
b1100010000100000110011 x"
b1100010000100000110011 z"
b10000 W
b10000 e"
b10000 y"
b1100 X
b1100 f"
b1100 w"
1!
#10000
0!
#10500
b11 %
b11 #"
b11 %"
b101 q
b101 '"
b101 <"
b101 T"
b11 u
b11 7#
b11000 0
b11000 X"
b101 G
b101 c"
b101 4#
b101 C
b101 a"
b101 6#
b100 H
b100 d"
b100 3#
b100 D
b100 `"
b100 5#
b11 r
b11 ""
b11 /"
b1100 l
b1100 2"
b1100 ="
b1100 U"
b1 9"
b0 p
b0 x
b0 R"
b10 &
b10 |
b10 $"
b11 '
b11 /#
b111100100010000000100011 ?
b111100100010000000100011 v"
b111100100010000000100011 ~"
b11000 A
b11000 V"
b11000 u"
b11000 2#
b10100100000100000110011 P
b10100100000100000110011 x"
b10100100000100000110011 z"
b10100 W
b10100 e"
b10100 y"
b10000 X
b10000 f"
b10000 w"
b10000 `
b10000 ?"
b10000 n"
b11 [
b11 P"
b11 r"
b10 \
b10 Q"
b10 q"
b11 ^
b11 ."
b11 >"
b11 p"
b10 _
b10 {
b10 o"
b10000 m
b10000 @"
b10000 m"
b1100 n
b1100 1"
b1100 g"
b10001 4
b10001 J"
b10001 M"
b10001 %#
b1 1
b1 8"
b1 K"
b100 <
b100 z
b100 !"
b100 :"
b100 D"
b100 !#
b1000 =
b1000 I"
b1100 >
b1100 H"
b1100 $#
b10000 *
b10000 N"
b10000 +#
b10000 8#
b11 .
b11 y
b11 ~
b11 '#
b11 -#
1(
b1000 /
b1000 *#
b10100 $
b10100 t"
b10100 t
b10100 }"
b10100 1#
1!
#11000
0!
#11500
0F
1L
b0 V
b0 5"
b0 Z"
1K
1U
0E
b100 u
b100 7#
b1001 q
b1001 '"
b1001 <"
b1001 T"
b11100 0
b11100 X"
b110 6"
b100001000010000000100011 ?
b100001000010000000100011 v"
b100001000010000000100011 ~"
b11100 A
b11100 V"
b11100 u"
b11100 2#
b100 '
b100 /#
b101 %
b101 #"
b101 %"
b101 r
b101 ""
b101 /"
b100 &
b100 |
b100 $"
b10000 l
b10000 2"
b10000 ="
b10000 U"
b100011 {"
b0 I
b0 _"
b1111 G
b1111 c"
b1111 4#
b1111 C
b1111 a"
b1111 6#
b10 R
b10 ["
b100011 J
b100011 3"
b100011 ^"
b11000 $
b11000 t"
b11000 t
b11000 }"
b11000 1#
b10001 *
b10001 N"
b10001 +#
b10001 8#
b100 .
b100 y
b100 ~
b100 '#
b100 -#
b1100 /
b1100 *#
b10000 4
b10000 J"
b10000 M"
b10000 %#
b11 1
b11 8"
b11 K"
b101 <
b101 z
b101 !"
b101 :"
b101 D"
b101 !#
b1100 =
b1100 I"
b10000 >
b10000 H"
b10000 $#
b101 [
b101 P"
b101 r"
b100 \
b100 Q"
b100 q"
b101 ^
b101 ."
b101 >"
b101 p"
b100 _
b100 {
b100 o"
b10100 m
b10100 @"
b10100 m"
b10000 n
b10000 1"
b10000 g"
b111100100010000000100011 P
b111100100010000000100011 x"
b111100100010000000100011 z"
b11000 W
b11000 e"
b11000 y"
b10100 X
b10100 f"
b10100 w"
1!
#12000
0!
#12500
b100 q
b100 '"
b100 <"
b100 T"
b0 %
b0 #"
b0 %"
b101 u
b101 7#
b100000 0
b100000 X"
b1000 G
b1000 c"
b1000 4#
b1000 C
b1000 a"
b1000 6#
b1000 H
b1000 d"
b1000 3#
b1000 D
b1000 `"
b1000 5#
b0 r
b0 ""
b0 /"
b10100 l
b10100 2"
b10100 ="
b10100 U"
b10 9"
b101 '
b101 /#
b100010100100000011 ?
b100010100100000011 v"
b100010100100000011 ~"
b100000 A
b100000 V"
b100000 u"
b100000 2#
b100001000010000000100011 P
b100001000010000000100011 x"
b100001000010000000100011 z"
b11100 W
b11100 e"
b11100 y"
b11000 X
b11000 f"
b11000 w"
b100011 a
b100011 A"
b100011 l"
b0 `
b0 ?"
b0 n"
b1111 [
b1111 P"
b1111 r"
b1111 ^
b1111 ."
b1111 >"
b1111 p"
b10 *"
b10 g
b10 )"
b10 C"
b10 i"
0]
1b
1j
b0 k
b0 +"
b0 h"
b11000 m
b11000 @"
b11000 m"
b10100 n
b10100 1"
b10100 g"
b101 1
b101 8"
b101 K"
b1001 <
b1001 z
b1001 !"
b1001 :"
b1001 D"
b1001 !#
b10000 =
b10000 I"
b10100 >
b10100 H"
b10100 $#
b10000 *
b10000 N"
b10000 +#
b10000 8#
b101 .
b101 y
b101 ~
b101 '#
b101 -#
b10000 /
b10000 *#
b11100 $
b11100 t"
b11100 t
b11100 }"
b11100 1#
1!
#13000
0!
#13500
1F
0L
1N
1M
0K
1E
b1001 u
b1001 7#
b1000 q
b1000 '"
b1000 <"
b1000 T"
b100100 0
b100100 X"
b1100011 6"
b110010000100110110011 ?
b110010000100110110011 v"
b110010000100110110011 ~"
b100100 A
b100100 V"
b100100 u"
b100100 2#
b1001 '
b1001 /#
b10 v
b10 7"
b1 9"
b1000 &
b1000 |
b1000 $"
b11000 l
b11000 2"
b11000 ="
b11000 U"
b11 {"
b10010 I
b10010 _"
b0 G
b0 c"
b0 4#
b0 C
b0 a"
b0 6#
b100 H
b100 d"
b100 3#
b100 D
b100 `"
b100 5#
b11 J
b11 3"
b11 ^"
b100000 $
b100000 t"
b100000 t
b100000 }"
b100000 1#
b1001 .
b1001 y
b1001 ~
b1001 '#
b1001 -#
b10100 /
b10100 *#
b100011 5
b100011 G"
b100011 L"
b100011 ##
b0 4
b0 J"
b0 M"
b0 %#
b10 ;
b10 E"
b1111 1
b1111 8"
b1111 K"
b100 <
b100 z
b100 !"
b100 :"
b100 D"
b100 !#
03
16
b10100 =
b10100 I"
b11000 >
b11000 H"
b11000 $#
b1000 [
b1000 P"
b1000 r"
b1000 \
b1000 Q"
b1000 q"
b1000 ^
b1000 ."
b1000 >"
b1000 p"
b1000 _
b1000 {
b1000 o"
b11100 m
b11100 @"
b11100 m"
b11000 n
b11000 1"
b11000 g"
b100010100100000011 P
b100010100100000011 x"
b100010100100000011 z"
b100000 W
b100000 e"
b100000 y"
b11100 X
b11100 f"
b11100 w"
1!
#14000
0!
#14500
0N
0M
b10 V
b10 5"
b10 Z"
0U
b10001 6"
b100 q
b100 '"
b100 <"
b100 T"
b100 u
b100 7#
b101000 0
b101000 X"
b110011 {"
b10011 I
b10011 _"
b1 G
b1 c"
b1 4#
b1 C
b1 a"
b1 6#
b0 H
b0 d"
b0 3#
b10010 D
b10010 `"
b10010 5#
b0 R
b0 ["
b110011 J
b110011 3"
b110011 ^"
b11100 l
b11100 2"
b11100 ="
b11100 U"
b10 9"
b100 &
b100 |
b100 $"
b100 '
b100 /#
b110010000101000110011 ?
b110010000101000110011 v"
b110010000101000110011 ~"
b101000 A
b101000 V"
b101000 u"
b101000 2#
b110010000100110110011 P
b110010000100110110011 x"
b110010000100110110011 z"
b100100 W
b100100 e"
b100100 y"
b100000 X
b100000 f"
b100000 w"
b11 a
b11 A"
b11 l"
b10010 `
b10010 ?"
b10010 n"
b0 [
b0 P"
b0 r"
b100 \
b100 Q"
b100 q"
b0 ^
b0 ."
b0 >"
b0 p"
b100 _
b100 {
b100 o"
1]
1c
0b
1d
b100000 m
b100000 @"
b100000 m"
b11100 n
b11100 1"
b11100 g"
b1000 1
b1000 8"
b1000 K"
b1000 <
b1000 z
b1000 !"
b1000 :"
b1000 D"
b1000 !#
b11000 =
b11000 I"
b11100 >
b11100 H"
b11100 $#
b0 *
b0 N"
b0 +#
b0 8#
b100 .
b100 y
b100 ~
b100 '#
b100 -#
0(
b11000 /
b11000 *#
b100100 $
b100100 t"
b100100 t
b100100 }"
b100100 1#
1!
#15000
0!
#15500
b1000 u
b1000 7#
b1 q
b1 '"
b1 <"
b1 T"
b101100 0
b101100 X"
b100010101010000011 ?
b100010101010000011 v"
b100010101010000011 ~"
b101100 A
b101100 V"
b101100 u"
b101100 2#
b1000 '
b1000 /#
b1 9"
b1 %
b1 #"
b1 %"
b1111 9
b1111 ;"
b1111 &#
b0 &
b0 |
b0 $"
b1 r
b1 ""
b1 /"
b100000 l
b100000 2"
b100000 ="
b100000 U"
b10100 I
b10100 _"
b101000 $
b101000 t"
b101000 t
b101000 }"
b101000 1#
b1000 .
b1000 y
b1000 ~
b1000 '#
b1000 -#
b11100 /
b11100 *#
b11 5
b11 G"
b11 L"
b11 ##
b10010 4
b10010 J"
b10010 M"
b10010 %#
b0 1
b0 8"
b0 K"
b100 <
b100 z
b100 !"
b100 :"
b100 D"
b100 !#
13
17
06
18
b11100 =
b11100 I"
b100000 >
b100000 H"
b100000 $#
b110011 a
b110011 A"
b110011 l"
b10011 `
b10011 ?"
b10011 n"
b1 [
b1 P"
b1 r"
b10010 \
b10010 Q"
b10010 q"
b1 ^
b1 ."
b1 >"
b1 p"
b0 _
b0 {
b0 o"
b0 *"
b0 g
b0 )"
b0 C"
b0 i"
0c
0d
0j
b10 k
b10 +"
b10 h"
b100100 m
b100100 @"
b100100 m"
b100000 n
b100000 1"
b100000 g"
b110010000101000110011 P
b110010000101000110011 x"
b110010000101000110011 z"
b101000 W
b101000 e"
b101000 y"
b100100 X
b100100 f"
b100100 w"
1!
#16000
0!
