sim.vcd
$date
	Mon May  2 20:01:56 2022
$end
$version
	Icarus Verilog
$end
$timescale
	10ps
$end
$scope module riscv_tb $end
$var reg 1 ! clk $end
$var reg 1 " rstn $end
$var integer 32 # i [31:0] $end
$scope module my_cpu $end
$var wire 32 $ IF_PC [31:0] $end
$var wire 32 % NEXT_PC [31:0] $end
$var wire 1 ! clk $end
$var wire 1 " rstn $end
$var wire 32 & alu_in_2 [31:0] $end
$var wire 32 ' alu_in_1 [31:0] $end
$var wire 32 ( WB_tmp_write_data [31:0] $end
$var wire 1 ) WB_regwrite $end
$var wire 32 * WB_readdata [31:0] $end
$var wire 5 + WB_rd [4:0] $end
$var wire 7 , WB_opcode [6:0] $end
$var wire 1 - WB_memtoreg $end
$var wire 2 . WB_jump [1:0] $end
$var wire 32 / WB_alu_result [31:0] $end
$var wire 32 0 WB_PC_PLUS_4 [31:0] $end
$var wire 32 1 MEM_writedata [31:0] $end
$var wire 1 2 MEM_taken $end
$var wire 1 3 MEM_regwrite $end
$var wire 5 4 MEM_rd [4:0] $end
$var wire 7 5 MEM_opcode [6:0] $end
$var wire 1 6 MEM_memwrite $end
$var wire 1 7 MEM_memtoreg $end
$var wire 1 8 MEM_memread $end
$var wire 32 9 MEM_mem_read_data [31:0] $end
$var wire 2 : MEM_jump [1:0] $end
$var wire 3 ; MEM_funct3 [2:0] $end
$var wire 32 < MEM_alu_result [31:0] $end
$var wire 32 = MEM_PC_target [31:0] $end
$var wire 32 > MEM_PC_PLUS_4 [31:0] $end
$var wire 32 ? IF_instruction [31:0] $end
$var wire 32 @ IF_PC_PLUS_4 [31:0] $end
$var wire 32 A ID_sextimm [31:0] $end
$var wire 5 B ID_rs2 [4:0] $end
$var wire 5 C ID_rs1 [4:0] $end
$var wire 1 D ID_reg_write $end
$var wire 32 E ID_readdata2 [31:0] $end
$var wire 32 F ID_readdata1 [31:0] $end
$var wire 5 G ID_rd [4:0] $end
$var wire 7 H ID_opcode [6:0] $end
$var wire 1 I ID_mem_write $end
$var wire 1 J ID_mem_to_reg $end
$var wire 1 K ID_mem_read $end
$var wire 2 L ID_jump [1:0] $end
$var wire 32 M ID_instruction [31:0] $end
$var wire 7 N ID_funct7 [6:0] $end
$var wire 3 O ID_funct3 [2:0] $end
$var wire 1 P ID_branch $end
$var wire 1 Q ID_alu_src $end
$var wire 2 R ID_alu_op [1:0] $end
$var wire 32 S ID_PC_PLUS_4 [31:0] $end
$var wire 32 T ID_PC [31:0] $end
$var wire 1 U EX_taken $end
$var wire 32 V EX_sextimm [31:0] $end
$var wire 5 W EX_rs2 [4:0] $end
$var wire 5 X EX_rs1 [4:0] $end
$var wire 1 Y EX_regwrite $end
$var wire 32 Z EX_readdata2 [31:0] $end
$var wire 32 [ EX_readdata1 [31:0] $end
$var wire 5 \ EX_rd [4:0] $end
$var wire 7 ] EX_opcode [6:0] $end
$var wire 1 ^ EX_memwrite $end
$var wire 1 _ EX_memtoreg $end
$var wire 1 ` EX_memread $end
$var wire 2 a EX_jump [1:0] $end
$var wire 7 b EX_funct7 [6:0] $end
$var wire 3 c EX_funct3 [2:0] $end
$var wire 1 d EX_check $end
$var wire 1 e EX_branch $end
$var wire 1 f EX_alusrc $end
$var wire 2 g EX_aluop [1:0] $end
$var wire 32 h EX_PC_branch_target [31:0] $end
$var wire 32 i EX_PC_PLUS_4 [31:0] $end
$var wire 32 j EX_PC [31:0] $end
$var wire 2 k EX_ForwardB [1:0] $end
$var wire 2 l EX_ForwardA [1:0] $end
$var wire 32 m EX_ALU_result [31:0] $end
$var wire 32 n EX_ALU_in [31:0] $end
$var wire 4 o EX_ALU_func [3:0] $end
$var reg 32 p PC [31:0] $end
$var reg 32 q WB_write_data [31:0] $end
$var reg 2 r maskmode [1:0] $end
$var reg 1 s sext $end
$scope module alu_in_1_mux $end
$var wire 2 t select [1:0] $end
$var wire 32 u in3 [31:0] $end
$var wire 32 v in2 [31:0] $end
$var wire 32 w in1 [31:0] $end
$var reg 32 x out [31:0] $end
$upscope $end
$scope module alu_in_2_mux $end
$var wire 2 y select [1:0] $end
$var wire 32 z in3 [31:0] $end
$var wire 32 { in2 [31:0] $end
$var wire 32 | in1 [31:0] $end
$var reg 32 } out [31:0] $end
$upscope $end
$scope module m_alu $end
$var wire 32 ~ in_a [31:0] $end
$var wire 32 !" in_b [31:0] $end
$var wire 4 "" alu_func [3:0] $end
$var reg 1 d check $end
$var reg 32 #" result [31:0] $end
$upscope $end
$scope module m_alu_control $end
$var wire 7 $" funct7 [6:0] $end
$var wire 3 %" funct3 [2:0] $end
$var wire 4 &" funct [3:0] $end
$var wire 2 '" alu_op [1:0] $end
$var reg 4 (" alu_func [3:0] $end
$upscope $end
$scope module m_alu_mux $end
$var wire 1 f select $end
$var wire 32 )" in2 [31:0] $end
$var wire 32 *" in1 [31:0] $end
$var reg 32 +" out [31:0] $end
$upscope $end
$scope module m_branch_control $end
$var wire 1 d check $end
$var wire 1 e branch $end
$var reg 1 U taken $end
$upscope $end
$scope module m_branch_target_adder $end
$var wire 32 ," in_b [31:0] $end
$var wire 32 -" in_a [31:0] $end
$var reg 32 ." result [31:0] $end
$upscope $end
$scope module m_control $end
$var wire 7 /" opcode [6:0] $end
$var wire 1 D reg_write $end
$var wire 1 I mem_write $end
$var wire 1 J mem_to_reg $end
$var wire 1 K mem_read $end
$var wire 2 0" jump [1:0] $end
$var wire 1 P branch $end
$var wire 1 Q alu_src $end
$var wire 2 1" alu_op [1:0] $end
$var reg 10 2" controls [9:0] $end
$upscope $end
$scope module m_data_memory $end
$var wire 1 ! clk $end
$var wire 2 3" maskmode [1:0] $end
$var wire 1 s sext $end
$var wire 32 4" write_data [31:0] $end
$var wire 1 6 mem_write $end
$var wire 1 8 mem_read $end
$var wire 8 5" address_internal [7:0] $end
$var wire 32 6" address [31:0] $end
$var reg 32 7" read_data [31:0] $end
$upscope $end
$scope module m_exmem_reg $end
$var wire 1 ! clk $end
$var wire 32 8" ex_alu_result [31:0] $end
$var wire 32 9" ex_pc_target [31:0] $end
$var wire 1 U ex_taken $end
$var wire 32 :" ex_writedata [31:0] $end
$var wire 1 Y ex_regwrite $end
$var wire 5 ;" ex_rd [4:0] $end
$var wire 32 <" ex_pc_plus_4 [31:0] $end
$var wire 7 =" ex_opcode [6:0] $end
$var wire 1 ^ ex_memwrite $end
$var wire 1 _ ex_memtoreg $end
$var wire 1 ` ex_memread $end
$var wire 2 >" ex_jump [1:0] $end
$var wire 3 ?" ex_funct3 [2:0] $end
$var reg 32 @" mem_alu_result [31:0] $end
$var reg 3 A" mem_funct3 [2:0] $end
$var reg 2 B" mem_jump [1:0] $end
$var reg 1 8 mem_memread $end
$var reg 1 7 mem_memtoreg $end
$var reg 1 6 mem_memwrite $end
$var reg 7 C" mem_opcode [6:0] $end
$var reg 32 D" mem_pc_plus_4 [31:0] $end
$var reg 32 E" mem_pc_target [31:0] $end
$var reg 5 F" mem_rd [4:0] $end
$var reg 1 3 mem_regwrite $end
$var reg 1 2 mem_taken $end
$var reg 32 G" mem_writedata [31:0] $end
$upscope $end
$scope module m_forwarding $end
$var wire 7 H" mem_opcode [6:0] $end
$var wire 5 I" mem_rd [4:0] $end
$var wire 5 J" wb_rd [4:0] $end
$var wire 7 K" wb_opcode [6:0] $end
$var wire 5 L" ex_rs2 [4:0] $end
$var wire 5 M" ex_rs1 [4:0] $end
$var reg 2 N" forwardA [1:0] $end
$var reg 2 O" forwardB [1:0] $end
$upscope $end
$scope module m_hazard $end
$upscope $end
$scope module m_idex_reg $end
$var wire 1 ! clk $end
$var wire 2 P" id_aluop [1:0] $end
$var wire 1 Q id_alusrc $end
$var wire 1 P id_branch $end
$var wire 3 Q" id_funct3 [2:0] $end
$var wire 7 R" id_funct7 [6:0] $end
$var wire 2 S" id_jump [1:0] $end
$var wire 1 K id_memread $end
$var wire 1 J id_memtoreg $end
$var wire 1 I id_memwrite $end
$var wire 7 T" id_opcode [6:0] $end
$var wire 5 U" id_rd [4:0] $end
$var wire 1 D id_regwrite $end
$var wire 5 V" id_rs1 [4:0] $end
$var wire 5 W" id_rs2 [4:0] $end
$var wire 32 X" id_sextimm [31:0] $end
$var wire 32 Y" id_readdata2 [31:0] $end
$var wire 32 Z" id_readdata1 [31:0] $end
$var wire 32 [" id_pc_plus_4 [31:0] $end
$var wire 32 \" id_PC [31:0] $end
$var reg 32 ]" ex_PC [31:0] $end
$var reg 2 ^" ex_aluop [1:0] $end
$var reg 1 f ex_alusrc $end
$var reg 1 e ex_branch $end
$var reg 3 _" ex_funct3 [2:0] $end
$var reg 7 `" ex_funct7 [6:0] $end
$var reg 2 a" ex_jump [1:0] $end
$var reg 1 ` ex_memread $end
$var reg 1 _ ex_memtoreg $end
$var reg 1 ^ ex_memwrite $end
$var reg 7 b" ex_opcode [6:0] $end
$var reg 32 c" ex_pc_plus_4 [31:0] $end
$var reg 5 d" ex_rd [4:0] $end
$var reg 32 e" ex_readdata1 [31:0] $end
$var reg 32 f" ex_readdata2 [31:0] $end
$var reg 1 Y ex_regwrite $end
$var reg 5 g" ex_rs1 [4:0] $end
$var reg 5 h" ex_rs2 [4:0] $end
$var reg 32 i" ex_sextimm [31:0] $end
$upscope $end
$scope module m_ifid_reg $end
$var wire 1 ! clk $end
$var wire 32 j" if_PC [31:0] $end
$var wire 32 k" if_pc_plus_4 [31:0] $end
$var wire 32 l" if_instruction [31:0] $end
$var reg 32 m" id_PC [31:0] $end
$var reg 32 n" id_instruction [31:0] $end
$var reg 32 o" id_pc_plus_4 [31:0] $end
$upscope $end
$scope module m_immediate_generator $end
$var wire 32 p" instruction [31:0] $end
$var wire 7 q" opcode [6:0] $end
$var reg 32 r" sextimm [31:0] $end
$upscope $end
$scope module m_instruction_memory $end
$var wire 32 s" address [31:0] $end
$var reg 32 t" instruction [31:0] $end
$upscope $end
$scope module m_memwb_reg $end
$var wire 1 ! clk $end
$var wire 32 u" mem_alu_result [31:0] $end
$var wire 2 v" mem_jump [1:0] $end
$var wire 1 7 mem_memtoreg $end
$var wire 7 w" mem_opcode [6:0] $end
$var wire 32 x" mem_pc_plus_4 [31:0] $end
$var wire 5 y" mem_rd [4:0] $end
$var wire 32 z" mem_readdata [31:0] $end
$var wire 1 3 mem_regwrite $end
$var reg 32 {" wb_alu_result [31:0] $end
$var reg 2 |" wb_jump [1:0] $end
$var reg 1 - wb_memtoreg $end
$var reg 7 }" wb_opcode [6:0] $end
$var reg 32 ~" wb_pc_plus_4 [31:0] $end
$var reg 5 !# wb_rd [4:0] $end
$var reg 32 "# wb_readdata [31:0] $end
$var reg 1 ) wb_regwrite $end
$upscope $end
$scope module m_mux_2x1 $end
$var wire 32 ## in1 [31:0] $end
$var wire 32 $# in2 [31:0] $end
$var wire 1 - select $end
$var reg 32 %# out [31:0] $end
$upscope $end
$scope module m_pc_plus_4_adder $end
$var wire 32 &# in_a [31:0] $end
$var wire 32 '# in_b [31:0] $end
$var reg 32 (# result [31:0] $end
$upscope $end
$scope module m_register_file $end
$var wire 1 ! clk $end
$var wire 32 )# readdata1 [31:0] $end
$var wire 32 *# readdata2 [31:0] $end
$var wire 5 +# readreg1 [4:0] $end
$var wire 5 ,# readreg2 [4:0] $end
$var wire 1 ) wen $end
$var wire 32 -# writedata [31:0] $end
$var wire 5 .# writereg [4:0] $end
$upscope $end
$upscope $end
$upscope $end
$enddefinitions $end
#0
$dumpvars
bx .#
bx -#
bx ,#
bx +#
bx *#
bx )#
bx (#
bx '#
b100 &#
bx %#
bx $#
bx ##
bx "#
bx !#
bx ~"
bx }"
bx |"
bx {"
b0 z"
bx y"
bx x"
bx w"
bx v"
bx u"
bx t"
bx s"
bx r"
bx q"
bx p"
bx o"
bx n"
bx m"
bx l"
bx k"
bx j"
bx i"
bx h"
bx g"
bx f"
bx e"
bx d"
bx c"
bx b"
bx a"
bx `"
bx _"
bx ^"
bx ]"
bx \"
bx ["
bx Z"
bx Y"
bx X"
bx W"
bx V"
bx U"
bx T"
bx S"
bx R"
bx Q"
bx P"
bx O"
bx N"
bx M"
bx L"
bx K"
bx J"
bx I"
bx H"
bx G"
bx F"
bx E"
bx D"
bx C"
bx B"
bx A"
bx @"
bx ?"
bx >"
bx ="
bx <"
bx ;"
bx :"
bx 9"
bx 8"
b0 7"
bx 6"
bx 5"
bx 4"
bx 3"
bx 2"
bx 1"
bx 0"
bx /"
bx ."
bx -"
bx ,"
bx +"
bx *"
bx )"
bx ("
bx '"
bx &"
bx %"
bx $"
bx #"
bx ""
bx !"
bx ~
bx }
bx |
bx {
bx z
bx y
bx x
bx w
bx v
bx u
bx t
xs
bx r
bx q
bx p
bx o
bx n
bx m
bx l
bx k
bx j
bx i
bx h
bx g
xf
xe
xd
bx c
bx b
bx a
x`
x_
x^
bx ]
bx \
bx [
bx Z
xY
bx X
bx W
bx V
xU
bx T
bx S
bx R
xQ
xP
bx O
bx N
bx M
bx L
xK
xJ
xI
bx H
bx G
bx F
bx E
xD
bx C
bx B
bx A
bx @
bx ?
bx >
bx =
bx <
bx ;
bx :
b0 9
x8
x7
x6
bx 5
bx 4
x3
x2
bx 1
bx 0
bx /
bx .
x-
bx ,
bx +
bx *
x)
bx (
bx '
bx &
bx %
bx $
bx #
0"
0!
$end
#500
b0 (
b0 %#
b0 ?
b0 l"
b0 t"
b100 %
b100 @
b100 k"
b100 (#
b0 *
b0 "#
b0 $#
b0 $
b0 j"
b0 p
b0 s"
b0 '#
1!
#1000
0!
#1500
b0 L
b0 0"
b0 S"
0P
0K
0J
b0 R
b0 1"
b0 P"
0I
0Q
0D
b0 2"
b0 A
b0 X"
b0 r"
b0 q"
b0 G
b0 U"
b0 E
b0 Y"
b0 *#
b0 B
b0 W"
b0 ,#
b0 F
b0 Z"
b0 )#
b0 C
b0 V"
b0 +#
b0 O
b0 Q"
b0 N
b0 R"
b0 H
b0 /"
b0 T"
b0 M
b0 n"
b0 p"
b100 S
b100 ["
b100 o"
b0 T
b0 \"
b0 m"
1!
#2000
0!
#2500
b0 m
b0 #"
b0 8"
1d
b0 '
b0 x
b0 ~
b0 &
b0 }
b0 !"
b0 k
b0 y
b0 O"
b0 l
b0 t
b0 N"
b0 n
b0 |
b0 +"
b0 o
b0 ""
b0 ("
0U
b0 h
b0 ."
b0 9"
b0 ]
b0 ="
b0 b"
b0 \
b0 ;"
b0 d"
b0 W
b0 L"
b0 h"
b0 X
b0 M"
b0 g"
b0 Z
b0 *"
b0 :"
b0 f"
b0 [
b0 w
b0 e"
b0 &"
b0 c
b0 %"
b0 ?"
b0 _"
b0 b
b0 $"
b0 `"
b0 V
b0 )"
b0 ,"
b0 i"
0Y
0_
0^
0`
b0 a
b0 >"
b0 a"
0f
b0 g
b0 '"
b0 ^"
0e
b100 i
b100 <"
b100 c"
b0 j
b0 -"
b0 ]"
1!
#3000
0!
#3500
0s
b0 r
b0 3"
b0 5"
b0 5
b0 C"
b0 H"
b0 w"
b0 4
b0 F"
b0 I"
b0 y"
b0 ;
b0 A"
b0 1
b0 4"
b0 G"
b0 <
b0 v
b0 {
b0 6"
b0 @"
b0 u"
03
07
b0 :
b0 B"
b0 v"
06
08
02
b0 =
b0 E"
b100 >
b100 D"
b100 x"
1!
#4000
0!
#4500
b0 q
b0 -#
b0 +
b0 J"
b0 !#
b0 .#
b0 /
b0 u
b0 z
b0 {"
b0 ##
0)
0-
b0 .
b0 |"
b100 0
b100 ~"
1!
#5000
0!
#5500
1!
#6000
0!
1"
#6500
b11001100011 ?
b11001100011 l"
b11001100011 t"
b1000 %
b1000 @
b1000 k"
b1000 (#
b100 $
b100 j"
b100 p
b100 s"
b100 '#
1!
#7000
0!
#7500
b1 L
b1 0"
b1 S"
1P
b1 R
b1 1"
b1 P"
b110001000 2"
b1000001000100000110011 ?
b1000001000100000110011 l"
b1000001000100000110011 t"
b1100 %
b1100 @
b1100 k"
b1100 (#
b1100 A
b1100 X"
b1100 r"
b1100011 q"
b1100 G
b1100 U"
b1100011 H
b1100011 /"
b1100011 T"
b1000 $
b1000 j"
b1000 p
b1000 s"
b1000 '#
b11001100011 M
b11001100011 n"
b11001100011 p"
b1000 S
b1000 ["
b1000 o"
b100 T
b100 \"
b100 m"
1!
#8000
0!
#8500
b0 L
b0 0"
b0 S"
0P
b10 R
b10 1"
b10 P"
1D
b10001 2"
b0 A
b0 X"
b0 r"
b110011 q"
b10000 G
b10000 U"
b10 E
b10 Y"
b10 *#
b10 B
b10 W"
b10 ,#
b1 F
b1 Z"
b1 )#
b1 C
b1 V"
b1 +#
b110011 H
b110011 /"
b110011 T"
b1 o
b1 ""
b1 ("
1U
b10000 h
b10000 ."
b10000 9"
b100000001011001100011 ?
b100000001011001100011 l"
b100000001011001100011 t"
b10000 %
b10000 @
b10000 k"
b10000 (#
b1000001000100000110011 M
b1000001000100000110011 n"
b1000001000100000110011 p"
b1100 S
b1100 ["
b1100 o"
b1000 T
b1000 \"
b1000 m"
b1100011 ]
b1100011 ="
b1100011 b"
b1100 \
b1100 ;"
b1100 d"
b1100 V
b1100 )"
b1100 ,"
b1100 i"
b1 a
b1 >"
b1 a"
b1 g
b1 '"
b1 ^"
1e
b1000 i
b1000 <"
b1000 c"
b100 j
b100 -"
b100 ]"
b1100 $
b1100 j"
b1100 p
b1100 s"
b1100 '#
1!
#9000
0!
#9500
b1 L
b1 0"
b1 S"
1P
b1 R
b1 1"
b1 P"
0D
b10 &
b10 }
b10 !"
b11 m
b11 #"
b11 8"
0d
b110001000 2"
b1000000001000001000100010110011 ?
b1000000001000001000100010110011 l"
b1000000001000001000100010110011 t"
b10100 %
b10100 @
b10100 k"
b10100 (#
b1 '
b1 x
b1 ~
b10 n
b10 |
b10 +"
b0 o
b0 ""
b0 ("
0U
b1000 h
b1000 ."
b1000 9"
b1100 A
b1100 X"
b1100 r"
b1100011 q"
b1100 G
b1100 U"
b1 E
b1 Y"
b1 *#
b1 B
b1 W"
b1 ,#
b0 F
b0 Z"
b0 )#
b0 C
b0 V"
b0 +#
b1 O
b1 Q"
b1100011 H
b1100011 /"
b1100011 T"
b10000 $
b10000 j"
b10000 p
b10000 s"
b10000 '#
b1100011 5
b1100011 C"
b1100011 H"
b1100011 w"
b1100 4
b1100 F"
b1100 I"
b1100 y"
b1 :
b1 B"
b1 v"
12
b10000 =
b10000 E"
b1000 >
b1000 D"
b1000 x"
b110011 ]
b110011 ="
b110011 b"
b10000 \
b10000 ;"
b10000 d"
b10 W
b10 L"
b10 h"
b1 X
b1 M"
b1 g"
b10 Z
b10 *"
b10 :"
b10 f"
b1 [
b1 w
b1 e"
b0 V
b0 )"
b0 ,"
b0 i"
1Y
b0 a
b0 >"
b0 a"
b10 g
b10 '"
b10 ^"
0e
b1100 i
b1100 <"
b1100 c"
b1000 j
b1000 -"
b1000 ]"
b100000001011001100011 M
b100000001011001100011 n"
b100000001011001100011 p"
b10000 S
b10000 ["
b10000 o"
b1100 T
b1100 \"
b1100 m"
1!
#10000
0!
#10500
b0 L
b0 0"
b0 S"
0P
b10 R
b10 1"
b10 P"
1D
1U
b10001 2"
b1 &
b1 }
b1 !"
b0 m
b0 #"
b0 8"
1d
b0 A
b0 X"
b0 r"
b110011 q"
b10001 G
b10001 U"
b10 E
b10 Y"
b10 *#
b10 B
b10 W"
b10 ,#
b1 F
b1 Z"
b1 )#
b1 C
b1 V"
b1 +#
b0 O
b0 Q"
b100000 N
b100000 R"
b110011 H
b110011 /"
b110011 T"
b1 n
b1 |
b1 +"
b1100 o
b1100 ""
b1100 ("
b11000 h
b11000 ."
b11000 9"
b0 '
b0 x
b0 ~
b100000000000100111100111 ?
b100000000000100111100111 l"
b100000000000100111100111 t"
b11000 %
b11000 @
b11000 k"
b11000 (#
b1000000001000001000100010110011 M
b1000000001000001000100010110011 n"
b1000000001000001000100010110011 p"
b10100 S
b10100 ["
b10100 o"
b10000 T
b10000 \"
b10000 m"
b1100011 ]
b1100011 ="
b1100011 b"
b1100 \
b1100 ;"
b1100 d"
b1 W
b1 L"
b1 h"
b0 X
b0 M"
b0 g"
b1 Z
b1 *"
b1 :"
b1 f"
b0 [
b0 w
b0 e"
b1 &"
b1 c
b1 %"
b1 ?"
b1 _"
b1100 V
b1100 )"
b1100 ,"
b1100 i"
0Y
b1 a
b1 >"
b1 a"
b1 g
b1 '"
b1 ^"
1e
b10000 i
b10000 <"
b10000 c"
b1100 j
b1100 -"
b1100 ]"
b110011 5
b110011 C"
b110011 H"
b110011 w"
b10000 4
b10000 F"
b10000 I"
b10000 y"
b10 1
b10 4"
b10 G"
b11 <
b11 v
b11 {
b11 6"
b11 @"
b11 u"
13
b0 :
b0 B"
b0 v"
02
b1000 =
b1000 E"
b1100 >
b1100 D"
b1100 x"
b1100 +
b1100 J"
b1100 !#
b1100 .#
b1 .
b1 |"
b1000 0
b1000 ~"
b10100 $
b10100 j"
b10100 p
b10100 s"
b10100 '#
1!
#11000
0!
#11500
b10 L
b10 0"
b10 S"
b0 R
b0 1"
b0 P"
1Q
b11 q
b11 -#
b11111111111111111111111111111111 m
b11111111111111111111111111111111 #"
b11111111111111111111111111111111 8"
0d
b1000000011 2"
b10000011000100100110011 ?
b10000011000100100110011 l"
b10000011000100100110011 t"
b11100 %
b11100 @
b11100 k"
b11100 (#
b11 (
b11 %#
b1 r
b1 3"
b10 &
b10 }
b10 !"
b1 '
b1 x
b1 ~
b10 n
b10 |
b10 +"
b1 o
b1 ""
b1 ("
0U
b10000 h
b10000 ."
b10000 9"
b1000 A
b1000 X"
b1000 r"
b1100111 q"
b10011 G
b10011 U"
b1000 E
b1000 Y"
b1000 *#
b1000 B
b1000 W"
b1000 ,#
b0 F
b0 Z"
b0 )#
b0 C
b0 V"
b0 +#
b0 N
b0 R"
b1100111 H
b1100111 /"
b1100111 T"
b11000 $
b11000 j"
b11000 p
b11000 s"
b11000 '#
b10000 +
b10000 J"
b10000 !#
b10000 .#
b11 /
b11 u
b11 z
b11 {"
b11 ##
1)
b0 .
b0 |"
b1100 0
b1100 ~"
b1100011 5
b1100011 C"
b1100011 H"
b1100011 w"
b1100 4
b1100 F"
b1100 I"
b1100 y"
b1 ;
b1 A"
b1 1
b1 4"
b1 G"
b0 <
b0 v
b0 {
b0 6"
b0 @"
b0 u"
03
b1 :
b1 B"
b1 v"
12
b11000 =
b11000 E"
b10000 >
b10000 D"
b10000 x"
b110011 ]
b110011 ="
b110011 b"
b10001 \
b10001 ;"
b10001 d"
b10 W
b10 L"
b10 h"
b1 X
b1 M"
b1 g"
b10 Z
b10 *"
b10 :"
b10 f"
b1 [
b1 w
b1 e"
b1000 &"
b0 c
b0 %"
b0 ?"
b0 _"
b100000 b
b100000 $"
b100000 `"
b0 V
b0 )"
b0 ,"
b0 i"
1Y
b0 a
b0 >"
b0 a"
b10 g
b10 '"
b10 ^"
0e
b10100 i
b10100 <"
b10100 c"
b10000 j
b10000 -"
b10000 ]"
b100000000000100111100111 M
b100000000000100111100111 n"
b100000000000100111100111 p"
b11000 S
b11000 ["
b11000 o"
b10100 T
b10100 \"
b10100 m"
1!
#12000
0!
#12500
b0 L
b0 0"
b0 S"
b10 R
b10 1"
b10 P"
0Q
b10001 2"
b1000 &
b1000 }
b1000 !"
b1000 m
b1000 #"
b1000 8"
b0 q
b0 -#
b0 A
b0 X"
b0 r"
b110011 q"
b10010 G
b10010 U"
b100 E
b100 Y"
b100 *#
b100 B
b100 W"
b100 ,#
b11 F
b11 Z"
b11 )#
b11 C
b11 V"
b11 +#
b110011 H
b110011 /"
b110011 T"
b0 &"
b1000 n
b1000 |
b1000 +"
b0 o
b0 ""
b0 ("
b11100 h
b11100 ."
b11100 9"
b0 r
b0 3"
b11111111 5"
b0 '
b0 x
b0 ~
b0 (
b0 %#
b10000000000101001101111 ?
b10000000000101001101111 l"
b10000000000101001101111 t"
b100000 %
b100000 @
b100000 k"
b100000 (#
b10000011000100100110011 M
b10000011000100100110011 n"
b10000011000100100110011 p"
b11100 S
b11100 ["
b11100 o"
b11000 T
b11000 \"
b11000 m"
b1100111 ]
b1100111 ="
b1100111 b"
b10011 \
b10011 ;"
b10011 d"
b1000 W
b1000 L"
b1000 h"
b0 X
b0 M"
b0 g"
b1000 Z
b1000 *"
b1000 :"
b1000 f"
b0 [
b0 w
b0 e"
b0 b
b0 $"
b0 `"
b1000 V
b1000 )"
b1000 ,"
b1000 i"
b10 a
b10 >"
b10 a"
1f
b0 g
b0 '"
b0 ^"
b11000 i
b11000 <"
b11000 c"
b10100 j
b10100 -"
b10100 ]"
b110011 5
b110011 C"
b110011 H"
b110011 w"
b10001 4
b10001 F"
b10001 I"
b10001 y"
b0 ;
b0 A"
b10 1
b10 4"
b10 G"
b11111111111111111111111111111111 <
b11111111111111111111111111111111 v
b11111111111111111111111111111111 {
b11111111111111111111111111111111 6"
b11111111111111111111111111111111 @"
b11111111111111111111111111111111 u"
13
b0 :
b0 B"
b0 v"
02
b10000 =
b10000 E"
b10100 >
b10100 D"
b10100 x"
b1100 +
b1100 J"
b1100 !#
b1100 .#
b0 /
b0 u
b0 z
b0 {"
b0 ##
0)
b1 .
b1 |"
b10000 0
b10000 ~"
b11100 $
b11100 j"
b11100 p
b11100 s"
b11100 '#
1!
#13000
0!
#13500
b11 L
b11 0"
b11 S"
b0 R
b0 1"
b0 P"
b11111111111111111111111111111111 q
b11111111111111111111111111111111 -#
b111 m
b111 #"
b111 8"
b1100000001 2"
b1000100000101010110011 ?
b1000100000101010110011 l"
b1000100000101010110011 t"
b100100 %
b100100 @
b100100 k"
b100100 (#
b11111111111111111111111111111111 (
b11111111111111111111111111111111 %#
b10 5"
b100 &
b100 }
b100 !"
b11 '
b11 x
b11 ~
b100 n
b100 |
b100 +"
b11000 h
b11000 ."
b11000 9"
b100 A
b100 X"
b100 r"
b1101111 q"
b10100 G
b10100 U"
b0 F
b0 Z"
b0 )#
b0 C
b0 V"
b0 +#
b1101111 H
b1101111 /"
b1101111 T"
b100000 $
b100000 j"
b100000 p
b100000 s"
b100000 '#
b10001 +
b10001 J"
b10001 !#
b10001 .#
b11111111111111111111111111111111 /
b11111111111111111111111111111111 u
b11111111111111111111111111111111 z
b11111111111111111111111111111111 {"
b11111111111111111111111111111111 ##
1)
b0 .
b0 |"
b10100 0
b10100 ~"
b1100111 5
b1100111 C"
b1100111 H"
b1100111 w"
b10011 4
b10011 F"
b10011 I"
b10011 y"
b1000 1
b1000 4"
b1000 G"
b1000 <
b1000 v
b1000 {
b1000 6"
b1000 @"
b1000 u"
b10 :
b10 B"
b10 v"
b11100 =
b11100 E"
b11000 >
b11000 D"
b11000 x"
b110011 ]
b110011 ="
b110011 b"
b10010 \
b10010 ;"
b10010 d"
b100 W
b100 L"
b100 h"
b11 X
b11 M"
b11 g"
b100 Z
b100 *"
b100 :"
b100 f"
b11 [
b11 w
b11 e"
b0 V
b0 )"
b0 ,"
b0 i"
b0 a
b0 >"
b0 a"
0f
b10 g
b10 '"
b10 ^"
b11100 i
b11100 <"
b11100 c"
b11000 j
b11000 -"
b11000 ]"
b10000000000101001101111 M
b10000000000101001101111 n"
b10000000000101001101111 p"
b100000 S
b100000 ["
b100000 o"
b11100 T
b11100 \"
b11100 m"
1!
#14000
0!
#14500
b0 L
b0 0"
b0 S"
b10 R
b10 1"
b10 P"
b10001 2"
b100 m
b100 #"
b100 8"
b0 A
b0 X"
b0 r"
b110011 q"
b10101 G
b10101 U"
b10 E
b10 Y"
b10 *#
b10 B
b10 W"
b10 ,#
b100 F
b100 Z"
b100 )#
b100 C
b100 V"
b100 +#
b110011 H
b110011 /"
b110011 T"
b100000 h
b100000 ."
b100000 9"
b1 5"
b0 '
b0 x
b0 ~
b1000 (
b1000 %#
b11000 q
b11000 -#
b10011 ?
b10011 l"
b10011 t"
b101000 %
b101000 @
b101000 k"
b101000 (#
b1000100000101010110011 M
b1000100000101010110011 n"
b1000100000101010110011 p"
b100100 S
b100100 ["
b100100 o"
b100000 T
b100000 \"
b100000 m"
b1101111 ]
b1101111 ="
b1101111 b"
b10100 \
b10100 ;"
b10100 d"
b0 X
b0 M"
b0 g"
b0 [
b0 w
b0 e"
b100 V
b100 )"
b100 ,"
b100 i"
b11 a
b11 >"
b11 a"
b0 g
b0 '"
b0 ^"
b100000 i
b100000 <"
b100000 c"
b11100 j
b11100 -"
b11100 ]"
b110011 5
b110011 C"
b110011 H"
b110011 w"
b10010 4
b10010 F"
b10010 I"
b10010 y"
b100 1
b100 4"
b100 G"
b111 <
b111 v
b111 {
b111 6"
b111 @"
b111 u"
b0 :
b0 B"
b0 v"
b11000 =
b11000 E"
b11100 >
b11100 D"
b11100 x"
b10011 +
b10011 J"
b10011 !#
b10011 .#
b1000 /
b1000 u
b1000 z
b1000 {"
b1000 ##
b10 .
b10 |"
b11000 0
b11000 ~"
b100100 $
b100100 j"
b100100 p
b100100 s"
b100100 '#
1!
#15000
0!
