sim.vcd
$date
	Wed May  4 03:12:02 2022
$end
$version
	Icarus Verilog
$end
$timescale
	10ps
$end
$scope module riscv_tb $end
$var reg 1 ! clk $end
$var reg 1 " rstn $end
$var integer 32 # i [31:0] $end
$scope module my_cpu $end
$var wire 32 $ IF_PC [31:0] $end
$var wire 1 ! clk $end
$var wire 1 " rstn $end
$var wire 1 % stall $end
$var wire 32 & alu_in_2 [31:0] $end
$var wire 32 ' alu_in_1 [31:0] $end
$var wire 32 ( WB_tmp_write_data [31:0] $end
$var wire 1 ) WB_regwrite $end
$var wire 32 * WB_readdata [31:0] $end
$var wire 5 + WB_rd [4:0] $end
$var wire 7 , WB_opcode [6:0] $end
$var wire 1 - WB_memtoreg $end
$var wire 2 . WB_jump [1:0] $end
$var wire 32 / WB_alu_result [31:0] $end
$var wire 32 0 WB_PC_PLUS_4 [31:0] $end
$var wire 32 1 NEXT_PC [31:0] $end
$var wire 32 2 MEM_writedata [31:0] $end
$var wire 1 3 MEM_taken $end
$var wire 1 4 MEM_regwrite $end
$var wire 5 5 MEM_rd [4:0] $end
$var wire 7 6 MEM_opcode [6:0] $end
$var wire 1 7 MEM_memwrite $end
$var wire 1 8 MEM_memtoreg $end
$var wire 1 9 MEM_memread $end
$var wire 32 : MEM_mem_read_data [31:0] $end
$var wire 2 ; MEM_jump [1:0] $end
$var wire 3 < MEM_funct3 [2:0] $end
$var wire 32 = MEM_alu_result [31:0] $end
$var wire 32 > MEM_PC_target [31:0] $end
$var wire 32 ? MEM_PC_PLUS_4 [31:0] $end
$var wire 32 @ IF_instruction [31:0] $end
$var wire 1 A IF_flush $end
$var wire 32 B IF_PC_PLUS_4 [31:0] $end
$var wire 32 C ID_sextimm [31:0] $end
$var wire 5 D ID_rs2 [4:0] $end
$var wire 5 E ID_rs1 [4:0] $end
$var wire 1 F ID_reg_write_tmp $end
$var wire 1 G ID_reg_write $end
$var wire 32 H ID_readdata2 [31:0] $end
$var wire 32 I ID_readdata1 [31:0] $end
$var wire 5 J ID_rd [4:0] $end
$var wire 7 K ID_opcode [6:0] $end
$var wire 1 L ID_mem_write_tmp $end
$var wire 1 M ID_mem_write $end
$var wire 1 N ID_mem_to_reg $end
$var wire 1 O ID_mem_read $end
$var wire 2 P ID_jump [1:0] $end
$var wire 32 Q ID_instruction [31:0] $end
$var wire 7 R ID_funct7 [6:0] $end
$var wire 3 S ID_funct3 [2:0] $end
$var wire 1 T ID_flush $end
$var wire 10 U ID_control [9:0] $end
$var wire 1 V ID_branch $end
$var wire 1 W ID_alu_src $end
$var wire 2 X ID_alu_op [1:0] $end
$var wire 32 Y ID_PC_PLUS_4 [31:0] $end
$var wire 32 Z ID_PC [31:0] $end
$var wire 1 [ EX_taken $end
$var wire 32 \ EX_sextimm [31:0] $end
$var wire 5 ] EX_rs2 [4:0] $end
$var wire 5 ^ EX_rs1 [4:0] $end
$var wire 1 _ EX_regwrite $end
$var wire 32 ` EX_readdata2 [31:0] $end
$var wire 32 a EX_readdata1 [31:0] $end
$var wire 5 b EX_rd [4:0] $end
$var wire 7 c EX_opcode [6:0] $end
$var wire 1 d EX_memwrite $end
$var wire 1 e EX_memtoreg $end
$var wire 1 f EX_memread $end
$var wire 2 g EX_jump [1:0] $end
$var wire 7 h EX_funct7 [6:0] $end
$var wire 3 i EX_funct3 [2:0] $end
$var wire 10 j EX_control [9:0] $end
$var wire 1 k EX_check $end
$var wire 1 l EX_branch $end
$var wire 1 m EX_alusrc $end
$var wire 2 n EX_aluop [1:0] $end
$var wire 32 o EX_PC_branch_target [31:0] $end
$var wire 32 p EX_PC_PLUS_4 [31:0] $end
$var wire 32 q EX_PC [31:0] $end
$var wire 1 r EX_MEM_flush $end
$var wire 2 s EX_ForwardB [1:0] $end
$var wire 2 t EX_ForwardA [1:0] $end
$var wire 32 u EX_ALU_result [31:0] $end
$var wire 32 v EX_ALU_in [31:0] $end
$var wire 4 w EX_ALU_func [3:0] $end
$var reg 32 x PC [31:0] $end
$var reg 32 y WB_write_data [31:0] $end
$var reg 2 z maskmode [1:0] $end
$var reg 1 { sext $end
$scope module alu_in_1_mux $end
$var wire 32 | in3 [31:0] $end
$var wire 2 } select [1:0] $end
$var wire 32 ~ in2 [31:0] $end
$var wire 32 !" in1 [31:0] $end
$var reg 32 "" out [31:0] $end
$upscope $end
$scope module alu_in_2_mux $end
$var wire 32 #" in3 [31:0] $end
$var wire 2 $" select [1:0] $end
$var wire 32 %" in2 [31:0] $end
$var wire 32 &" in1 [31:0] $end
$var reg 32 '" out [31:0] $end
$upscope $end
$scope module m_alu $end
$var wire 32 (" in_a [31:0] $end
$var wire 32 )" in_b [31:0] $end
$var wire 4 *" alu_func [3:0] $end
$var reg 1 k check $end
$var reg 32 +" result [31:0] $end
$upscope $end
$scope module m_alu_control $end
$var wire 7 ," funct7 [6:0] $end
$var wire 3 -" funct3 [2:0] $end
$var wire 4 ." funct [3:0] $end
$var wire 2 /" alu_op [1:0] $end
$var reg 4 0" alu_func [3:0] $end
$upscope $end
$scope module m_alu_mux $end
$var wire 1 m select $end
$var wire 32 1" in2 [31:0] $end
$var wire 32 2" in1 [31:0] $end
$var reg 32 3" out [31:0] $end
$upscope $end
$scope module m_branch_control $end
$var wire 1 k check $end
$var wire 1 l branch $end
$var reg 1 [ taken $end
$upscope $end
$scope module m_branch_target_adder $end
$var wire 32 4" in_b [31:0] $end
$var wire 32 5" in_a [31:0] $end
$var reg 32 6" result [31:0] $end
$upscope $end
$scope module m_control $end
$var wire 7 7" opcode [6:0] $end
$var wire 1 F reg_write $end
$var wire 1 L mem_write $end
$var wire 1 N mem_to_reg $end
$var wire 1 O mem_read $end
$var wire 2 8" jump [1:0] $end
$var wire 1 T id_flush $end
$var wire 1 V branch $end
$var wire 1 W alu_src $end
$var wire 2 9" alu_op [1:0] $end
$var reg 10 :" controls [9:0] $end
$upscope $end
$scope module m_data_memory $end
$var wire 1 ! clk $end
$var wire 2 ;" maskmode [1:0] $end
$var wire 1 { sext $end
$var wire 32 <" write_data [31:0] $end
$var wire 1 7 mem_write $end
$var wire 1 9 mem_read $end
$var wire 8 =" address_internal [7:0] $end
$var wire 32 >" address [31:0] $end
$var reg 32 ?" read_data [31:0] $end
$upscope $end
$scope module m_exmem_reg $end
$var wire 1 ! clk $end
$var wire 32 @" ex_alu_result [31:0] $end
$var wire 32 A" ex_pc_target [31:0] $end
$var wire 1 [ ex_taken $end
$var wire 32 B" ex_writedata [31:0] $end
$var wire 1 _ ex_regwrite $end
$var wire 5 C" ex_rd [4:0] $end
$var wire 32 D" ex_pc_plus_4 [31:0] $end
$var wire 7 E" ex_opcode [6:0] $end
$var wire 1 d ex_memwrite $end
$var wire 1 e ex_memtoreg $end
$var wire 1 f ex_memread $end
$var wire 1 r ex_mem_flush $end
$var wire 2 F" ex_jump [1:0] $end
$var wire 3 G" ex_funct3 [2:0] $end
$var reg 32 H" mem_alu_result [31:0] $end
$var reg 3 I" mem_funct3 [2:0] $end
$var reg 2 J" mem_jump [1:0] $end
$var reg 1 9 mem_memread $end
$var reg 1 8 mem_memtoreg $end
$var reg 1 7 mem_memwrite $end
$var reg 7 K" mem_opcode [6:0] $end
$var reg 32 L" mem_pc_plus_4 [31:0] $end
$var reg 32 M" mem_pc_target [31:0] $end
$var reg 5 N" mem_rd [4:0] $end
$var reg 1 4 mem_regwrite $end
$var reg 1 3 mem_taken $end
$var reg 32 O" mem_writedata [31:0] $end
$upscope $end
$scope module m_forwarding $end
$var wire 7 P" mem_opcode [6:0] $end
$var wire 5 Q" mem_rd [4:0] $end
$var wire 5 R" wb_rd [4:0] $end
$var wire 7 S" wb_opcode [6:0] $end
$var wire 5 T" ex_rs2 [4:0] $end
$var wire 5 U" ex_rs1 [4:0] $end
$var reg 2 V" forwardA [1:0] $end
$var reg 2 W" forwardB [1:0] $end
$upscope $end
$scope module m_hazard $end
$var wire 32 X" ex_alu_result [31:0] $end
$var wire 1 [ ex_branch_taken $end
$var wire 32 Y" ex_branch_target [31:0] $end
$var wire 1 L id_mem_write $end
$var wire 1 F id_reg_write $end
$var wire 1 A if_flush $end
$var wire 7 Z" mem_opcode [6:0] $end
$var wire 5 [" mem_rd [4:0] $end
$var wire 32 \" if_pc_plus_4 [31:0] $end
$var wire 5 ]" ex_rs2 [4:0] $end
$var wire 5 ^" ex_rs1 [4:0] $end
$var wire 7 _" ex_opcode [6:0] $end
$var wire 2 `" ex_jump [1:0] $end
$var reg 1 a" Load_dep_1 $end
$var reg 1 b" Load_dep_2 $end
$var reg 32 c" NEXT_PC [31:0] $end
$var reg 1 r ex_mem_flush $end
$var reg 1 M id_mem_write_real $end
$var reg 1 G id_reg_write_real $end
$var reg 1 d" if_flush_tmp $end
$var reg 1 % stall $end
$upscope $end
$scope module m_idex_reg $end
$var wire 1 ! clk $end
$var wire 1 A flush $end
$var wire 2 e" id_aluop [1:0] $end
$var wire 1 W id_alusrc $end
$var wire 1 V id_branch $end
$var wire 3 f" id_funct3 [2:0] $end
$var wire 7 g" id_funct7 [6:0] $end
$var wire 2 h" id_jump [1:0] $end
$var wire 1 O id_memread $end
$var wire 1 N id_memtoreg $end
$var wire 1 M id_memwrite $end
$var wire 7 i" id_opcode [6:0] $end
$var wire 5 j" id_rd [4:0] $end
$var wire 1 G id_regwrite $end
$var wire 5 k" id_rs1 [4:0] $end
$var wire 5 l" id_rs2 [4:0] $end
$var wire 1 % stall $end
$var wire 32 m" id_sextimm [31:0] $end
$var wire 32 n" id_readdata2 [31:0] $end
$var wire 32 o" id_readdata1 [31:0] $end
$var wire 32 p" id_pc_plus_4 [31:0] $end
$var wire 32 q" id_PC [31:0] $end
$var reg 32 r" ex_PC [31:0] $end
$var reg 2 s" ex_aluop [1:0] $end
$var reg 1 m ex_alusrc $end
$var reg 1 l ex_branch $end
$var reg 3 t" ex_funct3 [2:0] $end
$var reg 7 u" ex_funct7 [6:0] $end
$var reg 2 v" ex_jump [1:0] $end
$var reg 1 f ex_memread $end
$var reg 1 e ex_memtoreg $end
$var reg 1 d ex_memwrite $end
$var reg 7 w" ex_opcode [6:0] $end
$var reg 32 x" ex_pc_plus_4 [31:0] $end
$var reg 5 y" ex_rd [4:0] $end
$var reg 32 z" ex_readdata1 [31:0] $end
$var reg 32 {" ex_readdata2 [31:0] $end
$var reg 1 _ ex_regwrite $end
$var reg 5 |" ex_rs1 [4:0] $end
$var reg 5 }" ex_rs2 [4:0] $end
$var reg 32 ~" ex_sextimm [31:0] $end
$upscope $end
$scope module m_ifid_reg $end
$var wire 1 ! clk $end
$var wire 32 !# if_PC [31:0] $end
$var wire 1 A if_flush $end
$var wire 1 % stall $end
$var wire 32 "# if_pc_plus_4 [31:0] $end
$var wire 32 ## if_instruction [31:0] $end
$var reg 32 $# id_PC [31:0] $end
$var reg 1 T id_flush $end
$var reg 32 %# id_instruction [31:0] $end
$var reg 32 &# id_pc_plus_4 [31:0] $end
$upscope $end
$scope module m_immediate_generator $end
$var wire 32 '# instruction [31:0] $end
$var wire 7 (# opcode [6:0] $end
$var reg 32 )# sextimm [31:0] $end
$upscope $end
$scope module m_instruction_memory $end
$var wire 32 *# address [31:0] $end
$var reg 32 +# instruction [31:0] $end
$upscope $end
$scope module m_memwb_reg $end
$var wire 1 ! clk $end
$var wire 32 ,# mem_alu_result [31:0] $end
$var wire 2 -# mem_jump [1:0] $end
$var wire 1 8 mem_memtoreg $end
$var wire 7 .# mem_opcode [6:0] $end
$var wire 32 /# mem_pc_plus_4 [31:0] $end
$var wire 5 0# mem_rd [4:0] $end
$var wire 32 1# mem_readdata [31:0] $end
$var wire 1 4 mem_regwrite $end
$var reg 32 2# wb_alu_result [31:0] $end
$var reg 2 3# wb_jump [1:0] $end
$var reg 1 - wb_memtoreg $end
$var reg 7 4# wb_opcode [6:0] $end
$var reg 32 5# wb_pc_plus_4 [31:0] $end
$var reg 5 6# wb_rd [4:0] $end
$var reg 32 7# wb_readdata [31:0] $end
$var reg 1 ) wb_regwrite $end
$upscope $end
$scope module m_mux_2x1 $end
$var wire 32 8# in1 [31:0] $end
$var wire 32 9# in2 [31:0] $end
$var wire 1 - select $end
$var reg 32 :# out [31:0] $end
$upscope $end
$scope module m_pc_plus_4_adder $end
$var wire 32 ;# in_a [31:0] $end
$var wire 32 <# in_b [31:0] $end
$var reg 32 =# result [31:0] $end
$upscope $end
$scope module m_register_file $end
$var wire 1 ! clk $end
$var wire 32 ># readdata1 [31:0] $end
$var wire 32 ?# readdata2 [31:0] $end
$var wire 5 @# readreg1 [4:0] $end
$var wire 5 A# readreg2 [4:0] $end
$var wire 1 ) wen $end
$var wire 32 B# writedata [31:0] $end
$var wire 5 C# writereg [4:0] $end
$upscope $end
$upscope $end
$upscope $end
$enddefinitions $end
#0
$dumpvars
bx C#
bx B#
bx A#
bx @#
bx ?#
bx >#
bx =#
bx <#
b100 ;#
bx :#
bx 9#
bx 8#
bx 7#
bx 6#
bx 5#
bx 4#
bx 3#
bx 2#
b0 1#
bx 0#
bx /#
bx .#
bx -#
bx ,#
bx +#
bx *#
bx )#
bx (#
bx '#
bx &#
bx %#
bx $#
bx ##
bx "#
bx !#
bx ~"
bx }"
bx |"
bx {"
bx z"
bx y"
bx x"
bx w"
bx v"
bx u"
bx t"
bx s"
bx r"
bx q"
bx p"
bx o"
bx n"
bx m"
bx l"
bx k"
bx j"
bx i"
bx h"
bx g"
bx f"
bx e"
xd"
bx c"
xb"
xa"
bx `"
bx _"
bx ^"
bx ]"
bx \"
bx ["
bx Z"
bx Y"
bx X"
bx W"
bx V"
bx U"
bx T"
bx S"
bx R"
bx Q"
bx P"
bx O"
bx N"
bx M"
bx L"
bx K"
bx J"
bx I"
bx H"
bx G"
bx F"
bx E"
bx D"
bx C"
bx B"
bx A"
bx @"
b0 ?"
bx >"
bx ="
bx <"
bx ;"
bx :"
bx 9"
bx 8"
bx 7"
bx 6"
bx 5"
bx 4"
bx 3"
bx 2"
bx 1"
bx 0"
bx /"
bx ."
bx -"
bx ,"
bx +"
bx *"
bx )"
bx ("
bx '"
bx &"
bx %"
bx $"
bx #"
bx ""
bx !"
bx ~
bx }
bx |
x{
bx z
bx y
bx x
bx w
bx v
bx u
bx t
bx s
xr
bx q
bx p
bx o
bx n
xm
xl
xk
bx j
bx i
bx h
bx g
xf
xe
xd
bx c
bx b
bx a
bx `
x_
bx ^
bx ]
bx \
x[
bx Z
bx Y
bx X
xW
xV
bx U
xT
bx S
bx R
bx Q
bx P
xO
xN
xM
xL
bx K
bx J
bx I
bx H
xG
xF
bx E
bx D
bx C
bx B
xA
bx @
bx ?
bx >
bx =
bx <
bx ;
b0 :
x9
x8
x7
bx 6
bx 5
x4
x3
bx 2
bx 1
bx 0
bx /
bx .
x-
bx ,
bx +
bx *
x)
bx (
bx '
bx &
x%
bx $
bx #
0"
0!
$end
#500
0A
0d"
b100 1
b100 c"
b0 (
b0 :#
b0 @
b0 ##
b0 +#
b100 B
b100 \"
b100 "#
b100 =#
b0 *
b0 7#
b0 9#
b0 $
b0 !#
b0 x
b0 *#
b0 <#
1!
#1000
0!
#1500
0G
0M
b0 P
b0 8"
b0 h"
0V
0O
0N
b0 X
b0 9"
b0 e"
0L
b0 U
0W
0F
b0 :"
b0 C
b0 m"
b0 )#
b0 (#
b0 J
b0 j"
b0 H
b0 n"
b0 ?#
b0 D
b0 l"
b0 A#
b0 I
b0 o"
b0 >#
b0 E
b0 k"
b0 @#
b0 S
b0 f"
b0 R
b0 g"
b0 K
b0 7"
b0 i"
0T
b0 Q
b0 %#
b0 '#
b100 Y
b100 p"
b100 &#
b0 Z
b0 q"
b0 $#
1!
#2000
0!
#2500
b0 u
b0 +"
b0 @"
b0 X"
1k
b0 '
b0 ""
b0 ("
0r
0%
b0 &
b0 '"
b0 )"
b0 s
b0 $"
b0 W"
b0 t
b0 }
b0 V"
0b"
0a"
b0 v
b0 &"
b0 3"
b0 w
b0 *"
b0 0"
0[
b0 o
b0 6"
b0 A"
b0 Y"
b0 c
b0 E"
b0 _"
b0 w"
b0 b
b0 C"
b0 y"
b0 ]
b0 T"
b0 ]"
b0 }"
b0 ^
b0 U"
b0 ^"
b0 |"
b0 `
b0 2"
b0 B"
b0 {"
b0 a
b0 !"
b0 z"
b0 ."
b0 i
b0 -"
b0 G"
b0 t"
b0 h
b0 ,"
b0 u"
b0 \
b0 1"
b0 4"
b0 ~"
0_
0e
0d
0f
b0 g
b0 F"
b0 `"
b0 v"
0m
b0 n
b0 /"
b0 s"
b0 j
0l
b100 p
b100 D"
b100 x"
b0 q
b0 5"
b0 r"
1!
#3000
0!
#3500
0{
b0 z
b0 ;"
b0 ="
04
07
b0 6
b0 K"
b0 P"
b0 Z"
b0 .#
b0 5
b0 N"
b0 Q"
b0 ["
b0 0#
b0 <
b0 I"
b0 2
b0 <"
b0 O"
b0 =
b0 ~
b0 %"
b0 >"
b0 H"
b0 ,#
08
b0 ;
b0 J"
b0 -#
09
03
b0 >
b0 M"
b100 ?
b100 L"
b100 /#
1!
#4000
0!
#4500
b0 y
b0 |
b0 #"
b0 B#
b0 ,
b0 S"
b0 4#
b0 +
b0 R"
b0 6#
b0 C#
b0 /
b0 2#
b0 8#
0)
0-
b0 .
b0 3#
b100 0
b100 5#
1!
#5000
0!
#5500
1!
#6000
0!
1"
#6500
b1000 1
b1000 c"
b1000010000000000000001101111 @
b1000010000000000000001101111 ##
b1000010000000000000001101111 +#
b1000 B
b1000 \"
b1000 "#
b1000 =#
b100 $
b100 !#
b100 x
b100 *#
b100 <#
1!
#7000
0!
#7500
1G
b1100000001 U
b11 P
b11 8"
b11 h"
1F
b1100 1
b1100 c"
b1100000001 :"
b11111110000000010000000100010011 @
b11111110000000010000000100010011 ##
b11111110000000010000000100010011 +#
b1100 B
b1100 \"
b1100 "#
b1100 =#
b10000100 C
b10000100 m"
b10000100 )#
b1101111 (#
b100 D
b100 l"
b100 A#
b100 R
b100 g"
b1101111 K
b1101111 7"
b1101111 i"
b1000 $
b1000 !#
b1000 x
b1000 *#
b1000 <#
b1000010000000000000001101111 Q
b1000010000000000000001101111 %#
b1000010000000000000001101111 '#
b1000 Y
b1000 p"
b1000 &#
b100 Z
b100 q"
b100 $#
1!
#8000
0!
#8500
b0 P
b0 8"
b0 h"
b11 X
b11 9"
b11 e"
1W
b11011 :"
b11111111111111111111111111100000 C
b11111111111111111111111111100000 m"
b11111111111111111111111111100000 )#
b10011 (#
b10 J
b10 j"
b0 D
b0 l"
b0 A#
b1000000000 I
b1000000000 o"
b1000000000 >#
b10 E
b10 k"
b10 @#
b1111111 R
b1111111 g"
b10011 K
b10011 7"
b10011 i"
1A
1d"
b11010 U
0G
b10001000 1
b10001000 c"
b10001000 o
b10001000 6"
b10001000 A"
b10001000 Y"
b100010010111000100011 @
b100010010111000100011 ##
b100010010111000100011 +#
b10000 B
b10000 \"
b10000 "#
b10000 =#
b11111110000000010000000100010011 Q
b11111110000000010000000100010011 %#
b11111110000000010000000100010011 '#
b1100 Y
b1100 p"
b1100 &#
b1000 Z
b1000 q"
b1000 $#
b1101111 c
b1101111 E"
b1101111 _"
b1101111 w"
b100 ]
b100 T"
b100 ]"
b100 }"
b100 h
b100 ,"
b100 u"
b10000100 \
b10000100 1"
b10000100 4"
b10000100 ~"
1_
b1100000001 j
b11 g
b11 F"
b11 `"
b11 v"
b1000 p
b1000 D"
b1000 x"
b100 q
b100 5"
b100 r"
b1100 $
b1100 !#
b1100 x
b1100 *#
b1100 <#
1!
#9000
0!
#9500
0k
b1000000000 u
b1000000000 +"
b1000000000 @"
b1000000000 X"
b0 X
b0 9"
b0 e"
0W
0F
b11111110000000010000000100010011 @
b11111110000000010000000100010011 ##
b11111110000000010000000100010011 +#
b10001100 B
b10001100 \"
b10001100 "#
b10001100 =#
b1000000000 '
b1000000000 ""
b1000000000 ("
b1000 ."
0A
0d"
b0 U
0G
b10001100 1
b10001100 c"
b11111111111111111111111111101000 o
b11111111111111111111111111101000 6"
b11111111111111111111111111101000 A"
b11111111111111111111111111101000 Y"
b0 :"
b11100 C
b11100 m"
b11100 )#
b100011 (#
b11100 J
b11100 j"
b1 D
b1 l"
b1 A#
b10 S
b10 f"
b0 R
b0 g"
b100011 K
b100011 7"
b100011 i"
b10001000 $
b10001000 !#
b10001000 x
b10001000 *#
b10001000 <#
14
b1101111 6
b1101111 K"
b1101111 P"
b1101111 Z"
b1101111 .#
b11 ;
b11 J"
b11 -#
b10001000 >
b10001000 M"
b1000 ?
b1000 L"
b1000 /#
b10011 c
b10011 E"
b10011 _"
b10011 w"
b10 b
b10 C"
b10 y"
b0 ]
b0 T"
b0 ]"
b0 }"
b10 ^
b10 U"
b10 ^"
b10 |"
b1000000000 a
b1000000000 !"
b1000000000 z"
b1111111 h
b1111111 ,"
b1111111 u"
b11111111111111111111111111100000 \
b11111111111111111111111111100000 1"
b11111111111111111111111111100000 4"
b11111111111111111111111111100000 ~"
0_
b0 j
b0 g
b0 F"
b0 `"
b0 v"
b1100 p
b1100 D"
b1100 x"
b1000 q
b1000 5"
b1000 r"
1T
b100010010111000100011 Q
b100010010111000100011 %#
b100010010111000100011 '#
b10000 Y
b10000 p"
b10000 &#
b1100 Z
b1100 q"
b1100 $#
1!
#10000
0!
#10500
1G
b11 X
b11 9"
b11 e"
b11011 U
1W
1F
b10010000 1
b10010000 c"
b11011 :"
b11111111111111111111111111100000 C
b11111111111111111111111111100000 m"
b11111111111111111111111111100000 )#
b10011 (#
b10 J
b10 j"
b0 D
b0 l"
b0 A#
b0 S
b0 f"
b1111111 R
b1111111 g"
b10011 K
b10011 7"
b10011 i"
b101000 o
b101000 6"
b101000 A"
b101000 Y"
b10000000 ="
b1 t
b1 }
b1 V"
b1000 y
b1000 |
b1000 #"
b1000 B#
b100010010111000100011 @
b100010010111000100011 ##
b100010010111000100011 +#
b10010000 B
b10010000 \"
b10010000 "#
b10010000 =#
0T
b11111110000000010000000100010011 Q
b11111110000000010000000100010011 %#
b11111110000000010000000100010011 '#
b10001100 Y
b10001100 p"
b10001100 &#
b10001000 Z
b10001000 q"
b10001000 $#
b100011 c
b100011 E"
b100011 _"
b100011 w"
b11100 b
b11100 C"
b11100 y"
b1 ]
b1 T"
b1 ]"
b1 }"
b10 ."
b10 i
b10 -"
b10 G"
b10 t"
b0 h
b0 ,"
b0 u"
b11100 \
b11100 1"
b11100 4"
b11100 ~"
b10000 p
b10000 D"
b10000 x"
b1100 q
b1100 5"
b1100 r"
04
b10011 6
b10011 K"
b10011 P"
b10011 Z"
b10011 .#
b10 5
b10 N"
b10 Q"
b10 ["
b10 0#
b1000000000 =
b1000000000 ~
b1000000000 %"
b1000000000 >"
b1000000000 H"
b1000000000 ,#
b0 ;
b0 J"
b0 -#
b11111111111111111111111111101000 >
b11111111111111111111111111101000 M"
b1100 ?
b1100 L"
b1100 /#
b1101111 ,
b1101111 S"
b1101111 4#
1)
b11 .
b11 3#
b1000 0
b1000 5#
b10001100 $
b10001100 !#
b10001100 x
b10001100 *#
b10001100 <#
1!
#11000
b0 H
b0 n"
b0 ?#
0!
#11500
0G
1M
b111100000 u
b111100000 +"
b111100000 @"
b111100000 X"
b110 U
b0 X
b0 9"
b0 e"
1L
0F
b1000000000 '
b1000000000 ""
b1000000000 ("
b11111111111111111111111111100000 &
b11111111111111111111111111100000 '"
b11111111111111111111111111100000 )"
b10010100 1
b10010100 c"
b110 :"
b100000010010110000100011 @
b100000010010110000100011 ##
b100000010010110000100011 +#
b10010100 B
b10010100 \"
b10010100 "#
b10010100 =#
b1000000000 (
b1000000000 :#
b1000000000 y
b1000000000 |
b1000000000 #"
b1000000000 B#
b10 z
b10 ;"
b10 t
b10 }
b10 V"
b11111111111111111111111111100000 v
b11111111111111111111111111100000 &"
b11111111111111111111111111100000 3"
b1101000 o
b1101000 6"
b1101000 A"
b1101000 Y"
b11100 C
b11100 m"
b11100 )#
b100011 (#
b11100 J
b11100 j"
b1 D
b1 l"
b1 A#
b10 S
b10 f"
b0 R
b0 g"
b100011 K
b100011 7"
b100011 i"
b10010000 $
b10010000 !#
b10010000 x
b10010000 *#
b10010000 <#
b10011 ,
b10011 S"
b10011 4#
b10 +
b10 R"
b10 6#
b10 C#
b1000000000 /
b1000000000 2#
b1000000000 8#
0)
b0 .
b0 3#
b1100 0
b1100 5#
b100011 6
b100011 K"
b100011 P"
b100011 Z"
b100011 .#
b11100 5
b11100 N"
b11100 Q"
b11100 ["
b11100 0#
b10 <
b10 I"
b101000 >
b101000 M"
b10000 ?
b10000 L"
b10000 /#
b10011 c
b10011 E"
b10011 _"
b10011 w"
b10 b
b10 C"
b10 y"
b0 ]
b0 T"
b0 ]"
b0 }"
b1000 ."
b0 i
b0 -"
b0 G"
b0 t"
b1111111 h
b1111111 ,"
b1111111 u"
b11111111111111111111111111100000 \
b11111111111111111111111111100000 1"
b11111111111111111111111111100000 4"
b11111111111111111111111111100000 ~"
1_
1m
b11011 j
b11 n
b11 /"
b11 s"
b10001100 p
b10001100 D"
b10001100 x"
b10001000 q
b10001000 5"
b10001000 r"
b100010010111000100011 Q
b100010010111000100011 %#
b100010010111000100011 '#
b10010000 Y
b10010000 p"
b10010000 &#
b10001100 Z
b10001100 q"
b10001100 $#
1!
#12000
0!
#12500
b11100 &
b11100 '"
b11100 )"
b111111100 u
b111111100 +"
b111111100 @"
b111111100 X"
b10011000 1
b10011000 c"
b11000 C
b11000 m"
b11000 )#
b11000 J
b11000 j"
b1000 D
b1000 l"
b1000 A#
b11100 v
b11100 &"
b11100 3"
b10101000 o
b10101000 6"
b10101000 A"
b10101000 Y"
b0 z
b0 ;"
b1111000 ="
b111100000 '
b111100000 ""
b111100000 ("
b1 t
b1 }
b1 V"
b10000000010000010000010011 @
b10000000010000010000010011 ##
b10000000010000010000010011 +#
b10011000 B
b10011000 \"
b10011000 "#
b10011000 =#
b100000010010110000100011 Q
b100000010010110000100011 %#
b100000010010110000100011 '#
b10010100 Y
b10010100 p"
b10010100 &#
b10010000 Z
b10010000 q"
b10010000 $#
b100011 c
b100011 E"
b100011 _"
b100011 w"
b11100 b
b11100 C"
b11100 y"
b1 ]
b1 T"
b1 ]"
b1 }"
b10 ."
b10 i
b10 -"
b10 G"
b10 t"
b0 h
b0 ,"
b0 u"
b11100 \
b11100 1"
b11100 4"
b11100 ~"
0_
1d
b110 j
b0 n
b0 /"
b0 s"
b10010000 p
b10010000 D"
b10010000 x"
b10001100 q
b10001100 5"
b10001100 r"
14
b10011 6
b10011 K"
b10011 P"
b10011 Z"
b10011 .#
b10 5
b10 N"
b10 Q"
b10 ["
b10 0#
b0 <
b0 I"
b111100000 =
b111100000 ~
b111100000 %"
b111100000 >"
b111100000 H"
b111100000 ,#
b1101000 >
b1101000 M"
b10001100 ?
b10001100 L"
b10001100 /#
b100011 ,
b100011 S"
b100011 4#
b11100 +
b11100 R"
b11100 6#
b11100 C#
b10000 0
b10000 5#
b10010100 $
b10010100 !#
b10010100 x
b10010100 *#
b10010100 <#
1!
#13000
0!
#13500
1G
0M
b11011 U
b11 X
b11 9"
b11 e"
0L
1F
b10011100 1
b10011100 c"
b111100000 y
b111100000 |
b111100000 #"
b111100000 B#
b111111000 u
b111111000 +"
b111111000 @"
b111111000 X"
b11011 :"
b1100000000011110010011 @
b1100000000011110010011 ##
b1100000000011110010011 +#
b10011100 B
b10011100 \"
b10011100 "#
b10011100 =#
b111100000 (
b111100000 :#
b10 z
b10 ;"
b1111111 ="
b111100000 '
b111100000 ""
b111100000 ("
b11000 &
b11000 '"
b11000 )"
b10 t
b10 }
b10 V"
b11000 v
b11000 &"
b11000 3"
b100000 C
b100000 m"
b100000 )#
b10011 (#
b1000 J
b1000 j"
b0 D
b0 l"
b0 A#
b0 S
b0 f"
b1 R
b1 g"
b10011 K
b10011 7"
b10011 i"
b10011000 $
b10011000 !#
b10011000 x
b10011000 *#
b10011000 <#
b10011 ,
b10011 S"
b10011 4#
b10 +
b10 R"
b10 6#
b10 C#
b111100000 /
b111100000 2#
b111100000 8#
1)
b10001100 0
b10001100 5#
04
17
b100011 6
b100011 K"
b100011 P"
b100011 Z"
b100011 .#
b11100 5
b11100 N"
b11100 Q"
b11100 ["
b11100 0#
b10 <
b10 I"
b111111100 =
b111111100 ~
b111111100 %"
b111111100 >"
b111111100 H"
b111111100 ,#
b10101000 >
b10101000 M"
b10010000 ?
b10010000 L"
b10010000 /#
b11000 b
b11000 C"
b11000 y"
b1000 ]
b1000 T"
b1000 ]"
b1000 }"
b11000 \
b11000 1"
b11000 4"
b11000 ~"
b10010100 p
b10010100 D"
b10010100 x"
b10010000 q
b10010000 5"
b10010000 r"
b10000000010000010000010011 Q
b10000000010000010000010011 %#
b10000000010000010000010011 '#
b10011000 Y
b10011000 p"
b10011000 &#
b10010100 Z
b10010100 q"
b10010100 $#
1!
#14000
b111100000 I
b111100000 o"
b111100000 >#
0!
